Tests/2019_05_22_FOC_Tests/TorqueLoadChange/tek0002.csv

Model,DPO4054B
Firmware Version,2.90

Waveform Type,ANALOG,,
Point Format,Y,,
Horizontal Units,s,,
Horizontal Scale,0.2,,
Horizontal Delay,0,,
Sample Interval,0.0002,,
Record Length,10000,,
Gating,0.0% to 100.0%,,
Probe Attenuation,50,,
Vertical Units,A,,
Vertical Offset,0,,
Vertical Scale,100,,
Vertical Position,0,,
,,,
,,,
,,,
Label,,,
TIME,CH2,CH3,CH4
-1.000e+00,-52,-90,150
-9.998e-01,-52,-90,146
-9.996e-01,-52,-86,150
-9.994e-01,-52,-94,146
-9.992e-01,-44,-94,154
-9.990e-01,-48,-98,150
-9.988e-01,-48,-98,154
-9.986e-01,-44,-110,158
-9.984e-01,-44,-102,154
-9.982e-01,-48,-102,150
-9.980e-01,-44,-106,154
-9.978e-01,-48,-102,154
-9.976e-01,-36,-106,154
-9.974e-01,-36,-110,154
-9.972e-01,-40,-114,154
-9.970e-01,-44,-110,154
-9.968e-01,-36,-114,154
-9.966e-01,-40,-106,154
-9.964e-01,-36,-114,154
-9.962e-01,-36,-110,150
-9.960e-01,-36,-110,154
-9.958e-01,-36,-110,150
-9.956e-01,-32,-110,150
-9.954e-01,-36,-114,150
-9.952e-01,-32,-110,154
-9.950e-01,-36,-114,150
-9.948e-01,-32,-114,150
-9.946e-01,-32,-110,150
-9.944e-01,-32,-114,150
-9.942e-01,-28,-114,150
-9.940e-01,-28,-114,150
-9.938e-01,-28,-114,142
-9.936e-01,-24,-114,150
-9.934e-01,-24,-114,150
-9.932e-01,-28,-118,146
-9.930e-01,-28,-118,150
-9.928e-01,-24,-114,146
-9.926e-01,-28,-114,146
-9.924e-01,-24,-114,146
-9.922e-01,-32,-118,142
-9.920e-01,-20,-114,142
-9.918e-01,-24,-118,142
-9.916e-01,-24,-122,142
-9.914e-01,-20,-114,146
-9.912e-01,-24,-118,142
-9.910e-01,-24,-118,142
-9.908e-01,-16,-118,142
-9.906e-01,-20,-118,142
-9.904e-01,-20,-118,146
-9.902e-01,-20,-118,142
-9.900e-01,-16,-118,138
-9.898e-01,-16,-118,138
-9.896e-01,-16,-114,142
-9.894e-01,-20,-118,142
-9.892e-01,-20,-122,142
-9.890e-01,-12,-122,138
-9.888e-01,-16,-122,138
-9.886e-01,-12,-118,138
-9.884e-01,-12,-122,142
-9.882e-01,-12,-118,138
-9.880e-01,-12,-122,138
-9.878e-01,-12,-122,134
-9.876e-01,-12,-118,138
-9.874e-01,-12,-122,134
-9.872e-01,-12,-126,138
-9.870e-01,-8,-122,138
-9.868e-01,-4,-126,138
-9.866e-01,-16,-122,138
-9.864e-01,-12,-122,134
-9.862e-01,-8,-122,130
-9.860e-01,-8,-122,138
-9.858e-01,-8,-122,138
-9.856e-01,-4,-126,134
-9.854e-01,-8,-126,134
-9.852e-01,-8,-126,134
-9.850e-01,-4,-122,134
-9.848e-01,-4,-126,134
-9.846e-01,-8,-126,134
-9.844e-01,-4,-130,134
-9.842e-01,-8,-122,134
-9.840e-01,-4,-126,134
-9.838e-01,-4,-130,134
-9.836e-01,-4,-130,138
-9.834e-01,0,-130,134
-9.832e-01,0,-134,134
-9.830e-01,0,-130,138
-9.828e-01,0,-126,134
-9.826e-01,0,-134,138
-9.824e-01,0,-134,134
-9.822e-01,0,-134,138
-9.820e-01,0,-134,138
-9.818e-01,0,-138,142
-9.816e-01,4,-134,138
-9.814e-01,4,-142,138
-9.812e-01,4,-134,134
-9.810e-01,0,-134,134
-9.808e-01,4,-134,138
-9.806e-01,4,-138,134
-9.804e-01,4,-134,134
-9.802e-01,4,-134,134
-9.800e-01,4,-134,134
-9.798e-01,4,-134,134
-9.796e-01,4,-142,134
-9.794e-01,4,-134,134
-9.792e-01,8,-134,134
-9.790e-01,4,-138,130
-9.788e-01,8,-134,134
-9.786e-01,4,-138,130
-9.784e-01,8,-138,126
-9.782e-01,4,-134,130
-9.780e-01,8,-138,134
-9.778e-01,8,-134,122
-9.776e-01,12,-142,126
-9.774e-01,12,-142,126
-9.772e-01,8,-142,126
-9.770e-01,16,-134,126
-9.768e-01,12,-138,122
-9.766e-01,20,-138,122
-9.764e-01,16,-142,122
-9.762e-01,20,-142,122
-9.760e-01,20,-138,122
-9.758e-01,20,-142,118
-9.756e-01,20,-142,122
-9.754e-01,24,-142,122
-9.752e-01,24,-146,118
-9.750e-01,28,-138,114
-9.748e-01,24,-142,114
-9.746e-01,28,-142,114
-9.744e-01,24,-138,118
-9.742e-01,28,-146,114
-9.740e-01,28,-142,122
-9.738e-01,28,-146,114
-9.736e-01,32,-142,114
-9.734e-01,32,-142,118
-9.732e-01,32,-142,114
-9.730e-01,32,-142,106
-9.728e-01,32,-142,114
-9.726e-01,36,-146,110
-9.724e-01,32,-146,106
-9.722e-01,32,-142,114
-9.720e-01,36,-142,110
-9.718e-01,36,-142,110
-9.716e-01,36,-146,106
-9.714e-01,32,-142,106
-9.712e-01,36,-146,106
-9.710e-01,40,-142,106
-9.708e-01,36,-142,110
-9.706e-01,40,-142,106
-9.704e-01,32,-142,106
-9.702e-01,40,-142,106
-9.700e-01,44,-146,110
-9.698e-01,36,-146,102
-9.696e-01,40,-142,106
-9.694e-01,44,-146,102
-9.692e-01,40,-142,102
-9.690e-01,40,-142,102
-9.688e-01,40,-146,98
-9.686e-01,40,-146,98
-9.684e-01,44,-142,98
-9.682e-01,48,-146,98
-9.680e-01,52,-150,98
-9.678e-01,48,-154,102
-9.676e-01,48,-146,98
-9.674e-01,52,-150,98
-9.672e-01,52,-146,102
-9.670e-01,52,-150,98
-9.668e-01,52,-158,94
-9.666e-01,52,-154,102
-9.664e-01,60,-154,94
-9.662e-01,60,-154,94
-9.660e-01,64,-158,98
-9.658e-01,60,-158,94
-9.656e-01,60,-154,94
-9.654e-01,60,-154,98
-9.652e-01,60,-154,90
-9.650e-01,64,-154,90
-9.648e-01,64,-150,90
-9.646e-01,60,-154,90
-9.644e-01,64,-150,90
-9.642e-01,60,-154,90
-9.640e-01,64,-154,90
-9.638e-01,68,-154,90
-9.636e-01,60,-154,90
-9.634e-01,64,-154,86
-9.632e-01,60,-154,86
-9.630e-01,68,-154,90
-9.628e-01,68,-154,86
-9.626e-01,64,-154,86
-9.624e-01,68,-154,86
-9.622e-01,68,-154,90
-9.620e-01,68,-154,86
-9.618e-01,68,-154,86
-9.616e-01,64,-154,86
-9.614e-01,64,-150,82
-9.612e-01,68,-154,82
-9.610e-01,68,-154,82
-9.608e-01,68,-154,78
-9.606e-01,68,-154,78
-9.604e-01,72,-150,78
-9.602e-01,72,-146,82
-9.600e-01,72,-150,78
-9.598e-01,68,-154,82
-9.596e-01,72,-150,78
-9.594e-01,68,-150,82
-9.592e-01,72,-154,78
-9.590e-01,72,-150,78
-9.588e-01,72,-146,74
-9.586e-01,80,-150,74
-9.584e-01,76,-146,74
-9.582e-01,72,-150,70
-9.580e-01,76,-150,66
-9.578e-01,80,-146,70
-9.576e-01,76,-150,74
-9.574e-01,80,-142,70
-9.572e-01,76,-146,70
-9.570e-01,76,-146,70
-9.568e-01,80,-146,70
-9.566e-01,80,-150,70
-9.564e-01,80,-146,66
-9.562e-01,80,-146,62
-9.560e-01,80,-146,66
-9.558e-01,76,-146,66
-9.556e-01,84,-150,66
-9.554e-01,80,-150,66
-9.552e-01,84,-150,66
-9.550e-01,80,-146,66
-9.548e-01,88,-146,62
-9.546e-01,84,-146,62
-9.544e-01,84,-146,62
-9.542e-01,84,-146,66
-9.540e-01,88,-146,66
-9.538e-01,84,-146,62
-9.536e-01,88,-146,58
-9.534e-01,80,-150,58
-9.532e-01,84,-150,58
-9.530e-01,92,-150,62
-9.528e-01,92,-150,54
-9.526e-01,92,-150,54
-9.524e-01,96,-150,54
-9.522e-01,96,-154,58
-9.520e-01,100,-154,54
-9.518e-01,96,-154,54
-9.516e-01,100,-154,58
-9.514e-01,100,-158,54
-9.512e-01,104,-150,58
-9.510e-01,104,-154,50
-9.508e-01,104,-158,54
-9.506e-01,104,-158,46
-9.504e-01,104,-154,50
-9.502e-01,104,-150,42
-9.500e-01,104,-158,42
-9.498e-01,104,-150,50
-9.496e-01,108,-154,42
-9.494e-01,104,-154,46
-9.492e-01,108,-154,50
-9.490e-01,104,-150,46
-9.488e-01,104,-150,38
-9.486e-01,108,-150,46
-9.484e-01,104,-150,42
-9.482e-01,108,-150,46
-9.480e-01,108,-150,42
-9.478e-01,104,-150,38
-9.476e-01,108,-150,42
-9.474e-01,112,-150,42
-9.472e-01,112,-150,38
-9.470e-01,108,-150,46
-9.468e-01,112,-150,42
-9.466e-01,108,-150,38
-9.464e-01,112,-150,38
-9.462e-01,116,-146,38
-9.460e-01,116,-142,34
-9.458e-01,116,-146,34
-9.456e-01,108,-142,34
-9.454e-01,112,-146,34
-9.452e-01,112,-142,34
-9.450e-01,112,-146,30
-9.448e-01,112,-146,34
-9.446e-01,112,-142,30
-9.444e-01,116,-146,30
-9.442e-01,116,-146,38
-9.440e-01,112,-146,30
-9.438e-01,116,-146,30
-9.436e-01,112,-146,30
-9.434e-01,112,-146,30
-9.432e-01,116,-146,26
-9.430e-01,116,-142,30
-9.428e-01,116,-146,26
-9.426e-01,120,-142,30
-9.424e-01,116,-142,26
-9.422e-01,116,-142,26
-9.420e-01,116,-142,26
-9.418e-01,116,-138,22
-9.416e-01,120,-142,22
-9.414e-01,116,-142,22
-9.412e-01,116,-142,22
-9.410e-01,120,-142,18
-9.408e-01,120,-142,22
-9.406e-01,120,-138,26
-9.404e-01,120,-138,14
-9.402e-01,120,-138,18
-9.400e-01,120,-138,18
-9.398e-01,120,-134,18
-9.396e-01,120,-138,18
-9.394e-01,116,-138,14
-9.392e-01,120,-138,18
-9.390e-01,120,-142,18
-9.388e-01,120,-134,14
-9.386e-01,124,-138,14
-9.384e-01,120,-138,14
-9.382e-01,120,-134,14
-9.380e-01,124,-134,14
-9.378e-01,120,-134,14
-9.376e-01,124,-134,14
-9.374e-01,128,-142,10
-9.372e-01,132,-134,6
-9.370e-01,128,-138,6
-9.368e-01,128,-138,10
-9.366e-01,128,-138,2
-9.364e-01,128,-134,6
-9.362e-01,128,-138,6
-9.360e-01,128,-134,6
-9.358e-01,136,-138,2
-9.356e-01,136,-138,2
-9.354e-01,136,-138,-2
-9.352e-01,136,-138,2
-9.350e-01,136,-138,-2
-9.348e-01,132,-138,-2
-9.346e-01,136,-138,2
-9.344e-01,136,-138,2
-9.342e-01,136,-134,-2
-9.340e-01,132,-134,2
-9.338e-01,136,-134,-2
-9.336e-01,132,-134,6
-9.334e-01,132,-134,-2
-9.332e-01,136,-130,2
-9.330e-01,136,-134,-2
-9.328e-01,132,-130,-2
-9.326e-01,136,-134,2
-9.324e-01,132,-134,2
-9.322e-01,132,-130,2
-9.320e-01,136,-130,2
-9.318e-01,132,-134,2
-9.316e-01,132,-134,2
-9.314e-01,132,-130,2
-9.312e-01,132,-138,-2
-9.310e-01,136,-134,2
-9.308e-01,136,-130,-2
-9.306e-01,132,-130,-2
-9.304e-01,132,-130,-2
-9.302e-01,132,-130,-2
-9.300e-01,136,-130,-2
-9.298e-01,132,-130,-2
-9.296e-01,132,-130,-2
-9.294e-01,132,-130,-2
-9.292e-01,132,-130,-6
-9.290e-01,136,-126,-2
-9.288e-01,136,-122,-6
-9.286e-01,140,-126,-10
-9.284e-01,140,-126,-10
-9.282e-01,136,-122,-14
-9.280e-01,136,-126,-10
-9.278e-01,136,-126,-14
-9.276e-01,136,-122,-10
-9.274e-01,140,-122,-10
-9.272e-01,136,-122,-14
-9.270e-01,140,-122,-14
-9.268e-01,136,-126,-22
-9.266e-01,140,-118,-18
-9.264e-01,144,-110,-22
-9.262e-01,140,-118,-22
-9.260e-01,140,-122,-18
-9.258e-01,136,-114,-22
-9.256e-01,140,-118,-22
-9.254e-01,140,-114,-26
-9.252e-01,144,-118,-26
-9.250e-01,140,-118,-26
-9.248e-01,144,-114,-26
-9.246e-01,136,-114,-26
-9.244e-01,144,-114,-26
-9.242e-01,140,-114,-30
-9.240e-01,144,-110,-30
-9.238e-01,140,-110,-30
-9.236e-01,144,-110,-30
-9.234e-01,144,-110,-26
-9.232e-01,144,-106,-34
-9.230e-01,140,-106,-30
-9.228e-01,140,-106,-34
-9.226e-01,140,-110,-34
-9.224e-01,140,-106,-30
-9.222e-01,144,-102,-30
-9.220e-01,144,-106,-30
-9.218e-01,148,-106,-38
-9.216e-01,148,-106,-34
-9.214e-01,148,-106,-38
-9.212e-01,152,-106,-42
-9.210e-01,148,-98,-42
-9.208e-01,144,-102,-42
-9.206e-01,144,-102,-38
-9.204e-01,148,-102,-46
-9.202e-01,148,-98,-46
-9.200e-01,152,-102,-50
-9.198e-01,152,-106,-50
-9.196e-01,156,-98,-50
-9.194e-01,156,-102,-50
-9.192e-01,152,-106,-54
-9.190e-01,152,-98,-50
-9.188e-01,152,-98,-54
-9.186e-01,152,-94,-54
-9.184e-01,152,-98,-54
-9.182e-01,152,-98,-54
-9.180e-01,156,-94,-54
-9.178e-01,156,-102,-54
-9.176e-01,152,-98,-54
-9.174e-01,152,-98,-58
-9.172e-01,156,-102,-54
-9.170e-01,148,-94,-54
-9.168e-01,152,-94,-54
-9.166e-01,148,-94,-58
-9.164e-01,152,-94,-54
-9.162e-01,152,-98,-58
-9.160e-01,152,-90,-58
-9.158e-01,148,-90,-58
-9.156e-01,156,-90,-58
-9.154e-01,152,-94,-62
-9.152e-01,156,-90,-58
-9.150e-01,152,-90,-62
-9.148e-01,156,-90,-58
-9.146e-01,152,-90,-62
-9.144e-01,148,-90,-58
-9.142e-01,156,-86,-62
-9.140e-01,156,-90,-62
-9.138e-01,152,-86,-58
-9.136e-01,152,-90,-62
-9.134e-01,152,-90,-62
-9.132e-01,152,-86,-62
-9.130e-01,152,-86,-66
-9.128e-01,156,-86,-62
-9.126e-01,148,-78,-66
-9.124e-01,156,-82,-62
-9.122e-01,152,-78,-62
-9.120e-01,148,-78,-66
-9.118e-01,152,-82,-66
-9.116e-01,156,-82,-66
-9.114e-01,148,-82,-66
-9.112e-01,148,-74,-74
-9.110e-01,148,-78,-74
-9.108e-01,152,-78,-66
-9.106e-01,148,-78,-74
-9.104e-01,152,-78,-66
-9.102e-01,148,-82,-66
-9.100e-01,148,-78,-70
-9.098e-01,148,-78,-66
-9.096e-01,148,-74,-66
-9.094e-01,148,-78,-70
-9.092e-01,148,-78,-74
-9.090e-01,148,-70,-74
-9.088e-01,148,-70,-74
-9.086e-01,148,-70,-70
-9.084e-01,144,-74,-70
-9.082e-01,148,-74,-74
-9.080e-01,148,-70,-78
-9.078e-01,148,-70,-74
-9.076e-01,152,-66,-74
-9.074e-01,148,-66,-74
-9.072e-01,148,-62,-78
-9.070e-01,148,-70,-78
-9.068e-01,148,-66,-78
-9.066e-01,148,-66,-82
-9.064e-01,152,-66,-82
-9.062e-01,148,-62,-82
-9.060e-01,152,-62,-78
-9.058e-01,152,-62,-86
-9.056e-01,152,-62,-94
-9.054e-01,156,-58,-86
-9.052e-01,152,-62,-86
-9.050e-01,148,-58,-86
-9.048e-01,152,-54,-90
-9.046e-01,148,-62,-98
-9.044e-01,152,-58,-98
-9.042e-01,156,-54,-98
-9.040e-01,160,-54,-98
-9.038e-01,156,-54,-94
-9.036e-01,156,-58,-98
-9.034e-01,148,-58,-98
-9.032e-01,152,-50,-98
-9.030e-01,156,-54,-98
-9.028e-01,156,-54,-102
-9.026e-01,152,-50,-98
-9.024e-01,152,-54,-94
-9.022e-01,152,-46,-98
-9.020e-01,152,-50,-102
-9.018e-01,156,-50,-98
-9.016e-01,152,-50,-98
-9.014e-01,152,-50,-102
-9.012e-01,152,-50,-98
-9.010e-01,152,-46,-102
-9.008e-01,148,-46,-102
-9.006e-01,144,-46,-102
-9.004e-01,152,-42,-98
-9.002e-01,148,-42,-102
-9.000e-01,148,-46,-102
-8.998e-01,156,-42,-102
-8.996e-01,148,-38,-102
-8.994e-01,148,-46,-106
-8.992e-01,152,-50,-106
-8.990e-01,152,-42,-102
-8.988e-01,144,-42,-102
-8.986e-01,148,-38,-110
-8.984e-01,148,-38,-106
-8.982e-01,144,-42,-106
-8.980e-01,148,-38,-106
-8.978e-01,148,-42,-106
-8.976e-01,148,-38,-106
-8.974e-01,148,-38,-106
-8.972e-01,148,-38,-106
-8.970e-01,148,-42,-110
-8.968e-01,148,-38,-102
-8.966e-01,144,-34,-106
-8.964e-01,148,-34,-110
-8.962e-01,148,-38,-110
-8.960e-01,148,-38,-110
-8.958e-01,140,-34,-106
-8.956e-01,144,-34,-110
-8.954e-01,148,-30,-114
-8.952e-01,140,-34,-106
-8.950e-01,144,-30,-110
-8.948e-01,144,-26,-110
-8.946e-01,144,-30,-114
-8.944e-01,144,-26,-110
-8.942e-01,144,-26,-110
-8.940e-01,140,-30,-110
-8.938e-01,144,-30,-114
-8.936e-01,140,-26,-114
-8.934e-01,140,-26,-114
-8.932e-01,136,-26,-110
-8.930e-01,144,-18,-114
-8.928e-01,140,-22,-114
-8.926e-01,144,-26,-114
-8.924e-01,136,-30,-114
-8.922e-01,136,-26,-118
-8.920e-01,140,-22,-122
-8.918e-01,136,-22,-118
-8.916e-01,136,-22,-114
-8.914e-01,136,-18,-114
-8.912e-01,136,-18,-118
-8.910e-01,136,-18,-114
-8.908e-01,136,-14,-122
-8.906e-01,140,-14,-122
-8.904e-01,140,-14,-122
-8.902e-01,144,-14,-122
-8.900e-01,140,-10,-126
-8.898e-01,140,-14,-126
-8.896e-01,132,-10,-126
-8.894e-01,136,-6,-130
-8.892e-01,144,-6,-126
-8.890e-01,136,-6,-130
-8.888e-01,144,-6,-130
-8.886e-01,136,-6,-130
-8.884e-01,136,-6,-130
-8.882e-01,136,-6,-134
-8.880e-01,136,-6,-134
-8.878e-01,136,-6,-130
-8.876e-01,136,-2,-130
-8.874e-01,136,-2,-130
-8.872e-01,136,-2,-130
-8.870e-01,136,-6,-134
-8.868e-01,136,-2,-130
-8.866e-01,136,-2,-134
-8.864e-01,136,-2,-130
-8.862e-01,136,-2,-130
-8.860e-01,136,-2,-134
-8.858e-01,132,-2,-130
-8.856e-01,132,-2,-130
-8.854e-01,132,-2,-130
-8.852e-01,136,2,-134
-8.850e-01,136,-2,-130
-8.848e-01,136,-2,-130
-8.846e-01,136,-2,-134
-8.844e-01,136,2,-134
-8.842e-01,136,-2,-130
-8.840e-01,132,-6,-130
-8.838e-01,132,-2,-134
-8.836e-01,136,-2,-134
-8.834e-01,136,-2,-130
-8.832e-01,132,-2,-130
-8.830e-01,132,2,-134
-8.828e-01,132,-2,-134
-8.826e-01,132,2,-130
-8.824e-01,128,-2,-134
-8.822e-01,128,2,-130
-8.820e-01,132,-2,-130
-8.818e-01,132,2,-134
-8.816e-01,128,2,-134
-8.814e-01,128,6,-134
-8.812e-01,124,6,-130
-8.810e-01,128,6,-134
-8.808e-01,128,-2,-134
-8.806e-01,128,2,-134
-8.804e-01,128,2,-130
-8.802e-01,132,2,-130
-8.800e-01,128,10,-134
-8.798e-01,124,6,-134
-8.796e-01,120,6,-134
-8.794e-01,124,6,-138
-8.792e-01,124,10,-138
-8.790e-01,120,10,-134
-8.788e-01,124,14,-134
-8.786e-01,120,14,-134
-8.784e-01,120,10,-138
-8.782e-01,124,14,-130
-8.780e-01,120,22,-134
-8.778e-01,120,14,-134
-8.776e-01,116,18,-134
-8.774e-01,116,18,-134
-8.772e-01,116,18,-138
-8.770e-01,116,14,-138
-8.768e-01,112,22,-138
-8.766e-01,104,26,-134
-8.764e-01,112,22,-138
-8.762e-01,116,22,-138
-8.760e-01,116,22,-138
-8.758e-01,112,26,-138
-8.756e-01,112,26,-142
-8.754e-01,112,26,-142
-8.752e-01,108,26,-138
-8.750e-01,108,30,-142
-8.748e-01,112,34,-146
-8.746e-01,108,34,-150
-8.744e-01,112,30,-150
-8.742e-01,112,34,-146
-8.740e-01,108,34,-150
-8.738e-01,112,38,-150
-8.736e-01,108,42,-150
-8.734e-01,104,42,-146
-8.732e-01,108,46,-154
-8.730e-01,108,42,-150
-8.728e-01,104,46,-150
-8.726e-01,104,46,-150
-8.724e-01,104,42,-150
-8.722e-01,104,42,-154
-8.720e-01,108,50,-146
-8.718e-01,104,50,-150
-8.716e-01,104,46,-150
-8.714e-01,104,46,-154
-8.712e-01,104,50,-146
-8.710e-01,104,50,-150
-8.708e-01,100,50,-146
-8.706e-01,100,46,-150
-8.704e-01,104,50,-150
-8.702e-01,104,50,-150
-8.700e-01,100,50,-154
-8.698e-01,100,50,-150
-8.696e-01,104,50,-150
-8.694e-01,96,54,-146
-8.692e-01,100,50,-150
-8.690e-01,92,50,-154
-8.688e-01,100,54,-154
-8.686e-01,96,54,-150
-8.684e-01,100,50,-154
-8.682e-01,92,54,-150
-8.680e-01,92,58,-150
-8.678e-01,92,54,-150
-8.676e-01,88,58,-146
-8.674e-01,92,58,-150
-8.672e-01,92,54,-150
-8.670e-01,92,58,-146
-8.668e-01,88,66,-150
-8.666e-01,92,58,-150
-8.664e-01,92,58,-150
-8.662e-01,88,54,-154
-8.660e-01,88,58,-150
-8.658e-01,88,58,-154
-8.656e-01,92,58,-150
-8.654e-01,88,58,-154
-8.652e-01,84,58,-154
-8.650e-01,84,58,-146
-8.648e-01,88,58,-150
-8.646e-01,84,62,-150
-8.644e-01,88,66,-146
-8.642e-01,88,62,-146
-8.640e-01,84,62,-150
-8.638e-01,84,62,-146
-8.636e-01,80,62,-150
-8.634e-01,80,66,-150
-8.632e-01,84,62,-146
-8.630e-01,84,66,-146
-8.628e-01,84,66,-142
-8.626e-01,84,66,-150
-8.624e-01,80,62,-150
-8.622e-01,80,62,-142
-8.620e-01,80,70,-146
-8.618e-01,80,66,-146
-8.616e-01,80,66,-146
-8.614e-01,76,66,-150
-8.612e-01,80,70,-146
-8.610e-01,80,66,-150
-8.608e-01,80,70,-146
-8.606e-01,76,70,-146
-8.604e-01,76,70,-150
-8.602e-01,72,70,-146
-8.600e-01,72,66,-142
-8.598e-01,72,74,-154
-8.596e-01,72,78,-150
-8.594e-01,68,74,-150
-8.592e-01,68,78,-154
-8.590e-01,72,82,-150
-8.588e-01,68,78,-154
-8.586e-01,68,82,-150
-8.584e-01,68,82,-154
-8.582e-01,68,86,-154
-8.580e-01,64,86,-154
-8.578e-01,64,90,-150
-8.576e-01,64,90,-158
-8.574e-01,60,86,-154
-8.572e-01,60,94,-150
-8.570e-01,64,90,-154
-8.568e-01,56,90,-158
-8.566e-01,60,90,-150
-8.564e-01,60,94,-154
-8.562e-01,60,90,-158
-8.560e-01,60,90,-150
-8.558e-01,56,94,-154
-8.556e-01,60,94,-150
-8.554e-01,56,94,-154
-8.552e-01,56,94,-154
-8.550e-01,56,90,-150
-8.548e-01,56,94,-150
-8.546e-01,52,94,-150
-8.544e-01,60,94,-150
-8.542e-01,52,98,-150
-8.540e-01,48,94,-150
-8.538e-01,52,94,-150
-8.536e-01,52,94,-154
-8.534e-01,52,98,-150
-8.532e-01,52,94,-154
-8.530e-01,52,94,-142
-8.528e-01,52,94,-150
-8.526e-01,52,98,-154
-8.524e-01,52,98,-146
-8.522e-01,48,98,-150
-8.520e-01,44,98,-150
-8.518e-01,44,98,-150
-8.516e-01,48,102,-146
-8.514e-01,48,102,-146
-8.512e-01,48,98,-146
-8.510e-01,44,102,-150
-8.508e-01,44,102,-146
-8.506e-01,44,102,-150
-8.504e-01,40,98,-146
-8.502e-01,40,102,-146
-8.500e-01,40,98,-142
-8.498e-01,44,102,-146
-8.496e-01,40,102,-146
-8.494e-01,44,102,-146
-8.492e-01,40,102,-146
-8.490e-01,36,102,-142
-8.488e-01,40,102,-146
-8.486e-01,40,106,-146
-8.484e-01,36,102,-142
-8.482e-01,36,106,-146
-8.480e-01,40,106,-146
-8.478e-01,36,106,-142
-8.476e-01,40,110,-146
-8.474e-01,32,106,-146
-8.472e-01,32,106,-142
-8.470e-01,28,110,-142
-8.468e-01,36,110,-142
-8.466e-01,28,110,-142
-8.464e-01,32,114,-142
-8.462e-01,32,106,-142
-8.460e-01,32,114,-142
-8.458e-01,32,110,-142
-8.456e-01,28,110,-146
-8.454e-01,24,110,-142
-8.452e-01,24,110,-142
-8.450e-01,28,114,-138
-8.448e-01,32,110,-138
-8.446e-01,28,106,-134
-8.444e-01,28,110,-138
-8.442e-01,20,114,-142
-8.440e-01,24,118,-146
-8.438e-01,20,118,-142
-8.436e-01,20,122,-138
-8.434e-01,20,114,-134
-8.432e-01,20,114,-142
-8.430e-01,16,118,-138
-8.428e-01,16,122,-146
-8.426e-01,12,126,-138
-8.424e-01,12,126,-142
-8.422e-01,16,122,-138
-8.420e-01,12,130,-142
-8.418e-01,12,130,-142
-8.416e-01,16,126,-134
-8.414e-01,16,126,-146
-8.412e-01,12,126,-138
-8.410e-01,8,126,-142
-8.408e-01,12,130,-138
-8.406e-01,8,130,-138
-8.404e-01,12,134,-134
-8.402e-01,4,126,-134
-8.400e-01,8,130,-138
-8.398e-01,4,130,-134
-8.396e-01,8,126,-138
-8.394e-01,4,130,-138
-8.392e-01,8,130,-134
-8.390e-01,4,126,-134
-8.388e-01,4,134,-134
-8.386e-01,4,126,-130
-8.384e-01,4,126,-134
-8.382e-01,8,130,-134
-8.380e-01,0,126,-130
-8.378e-01,8,126,-134
-8.376e-01,0,130,-130
-8.374e-01,0,130,-134
-8.372e-01,0,130,-130
-8.370e-01,0,126,-130
-8.368e-01,4,130,-130
-8.366e-01,0,130,-130
-8.364e-01,4,130,-138
-8.362e-01,4,134,-130
-8.360e-01,0,130,-130
-8.358e-01,0,134,-134
-8.356e-01,0,134,-130
-8.354e-01,0,130,-134
-8.352e-01,4,134,-130
-8.350e-01,4,130,-134
-8.348e-01,4,126,-134
-8.346e-01,0,130,-130
-8.344e-01,0,130,-130
-8.342e-01,4,126,-134
-8.340e-01,0,130,-130
-8.338e-01,0,126,-130
-8.336e-01,4,126,-130
-8.334e-01,0,130,-130
-8.332e-01,0,126,-130
-8.330e-01,4,130,-130
-8.328e-01,4,126,-126
-8.326e-01,0,130,-130
-8.324e-01,0,130,-130
-8.322e-01,0,126,-126
-8.320e-01,0,130,-130
-8.318e-01,0,130,-126
-8.316e-01,-4,130,-122
-8.314e-01,-4,126,-126
-8.312e-01,-8,134,-126
-8.310e-01,-8,126,-126
-8.308e-01,-8,130,-122
-8.306e-01,-12,134,-126
-8.304e-01,-8,134,-122
-8.302e-01,-12,134,-118
-8.300e-01,-12,134,-122
-8.298e-01,-12,138,-118
-8.296e-01,-12,134,-118
-8.294e-01,-12,134,-118
-8.292e-01,-16,138,-118
-8.290e-01,-20,134,-118
-8.288e-01,-20,142,-118
-8.286e-01,-16,146,-118
