Tests/20190522_FOC_integrationTest/tests210519/tek0004.csv

Model,DPO4054B
Firmware Version,2.90

Waveform Type,ANALOG,,,
Point Format,Y,,,
Horizontal Units,s,,,
Horizontal Scale,0.04,,,
Horizontal Delay,0.0984,,,
Sample Interval,4e-05,,,
Record Length,10000,,,
Gating,0.0% to 100.0%,,,
Probe Attenuation,10,,,
Vertical Units,V,,,
Vertical Offset,0,,,
Vertical Scale,0.1,,,
Vertical Position,-4.48,,,
,,,,
,,,,
,,,,
Label,,,,
TIME,CH1,CH2,CH3,CH4
-1.0160e-01,0.384,-122,6,134
-1.0156e-01,0.416,-134,6,130
-1.0152e-01,0.388,-122,6,126
-1.0148e-01,0.368,-122,2,122
-1.0144e-01,0.396,-130,10,130
-1.0140e-01,0.38,-126,6,126
-1.0136e-01,0.404,-134,6,134
-1.0132e-01,0.384,-130,6,122
-1.0128e-01,0.368,-126,6,126
-1.0124e-01,0.392,-130,6,126
-1.0120e-01,0.372,-126,6,130
-1.0116e-01,0.4,-130,10,126
-1.0112e-01,0.38,-130,10,126
-1.0108e-01,0.396,-122,10,122
-1.0104e-01,0.392,-134,10,126
-1.0100e-01,0.368,-126,10,126
-1.0096e-01,0.396,-126,10,126
-1.0092e-01,0.372,-126,10,122
-1.0088e-01,0.372,-126,10,122
-1.0084e-01,0.388,-130,10,126
-1.0080e-01,0.356,-126,10,122
-1.0076e-01,0.384,-134,14,126
-1.0072e-01,0.368,-126,10,122
-1.0068e-01,0.364,-130,10,122
-1.0064e-01,0.376,-134,10,126
-1.0060e-01,0.348,-122,10,122
-1.0056e-01,0.384,-130,14,122
-1.0052e-01,0.364,-130,10,122
-1.0048e-01,0.368,-134,10,122
-1.0044e-01,0.368,-130,10,122
-1.0040e-01,0.352,-122,10,122
-1.0036e-01,0.376,-130,10,118
-1.0032e-01,0.36,-126,14,122
-1.0028e-01,0.38,-130,18,118
-1.0024e-01,0.364,-130,18,122
-1.0020e-01,0.344,-126,14,118
-1.0016e-01,0.372,-134,22,118
-1.0012e-01,0.356,-126,14,114
-1.0008e-01,0.36,-134,14,118
-1.0004e-01,0.36,-130,14,114
-1.0000e-01,0.34,-126,14,114
-9.9960e-02,0.364,-126,18,114
-9.9920e-02,0.348,-126,14,114
-9.9880e-02,0.368,-134,18,118
-9.9840e-02,0.348,-126,18,118
-9.9800e-02,0.332,-118,14,118
-9.9760e-02,0.356,-130,18,110
-9.9720e-02,0.34,-126,14,114
-9.9680e-02,0.364,-138,18,118
-9.9640e-02,0.348,-130,18,114
-9.9600e-02,0.324,-126,10,114
-9.9560e-02,0.36,-126,18,110
-9.9520e-02,0.332,-126,18,114
-9.9480e-02,0.352,-134,26,118
-9.9440e-02,0.34,-126,22,110
-9.9400e-02,0.32,-126,14,110
-9.9360e-02,0.352,-130,22,114
-9.9320e-02,0.336,-126,18,110
-9.9280e-02,0.38,-134,26,110
-9.9240e-02,0.336,-130,26,118
-9.9200e-02,0.32,-122,14,110
-9.9160e-02,0.344,-134,22,110
-9.9120e-02,0.328,-126,18,110
-9.9080e-02,0.356,-134,22,110
-9.9040e-02,0.336,-126,18,110
-9.9000e-02,0.32,-126,14,106
-9.8960e-02,0.34,-126,22,110
-9.8920e-02,0.324,-122,18,110
-9.8880e-02,0.356,-130,30,114
-9.8840e-02,0.336,-126,22,106
-9.8800e-02,0.316,-126,18,110
-9.8760e-02,0.34,-130,22,110
-9.8720e-02,0.32,-122,22,110
-9.8680e-02,0.352,-134,26,110
-9.8640e-02,0.332,-126,26,110
-9.8600e-02,0.312,-122,18,110
-9.8560e-02,0.34,-126,26,106
-9.8520e-02,0.32,-122,22,110
-9.8480e-02,0.344,-130,26,110
-9.8440e-02,0.332,-126,22,106
-9.8400e-02,0.316,-118,18,106
-9.8360e-02,0.336,-130,22,110
-9.8320e-02,0.312,-122,22,106
-9.8280e-02,0.336,-130,30,102
-9.8240e-02,0.32,-126,26,110
-9.8200e-02,0.308,-126,22,106
-9.8160e-02,0.328,-126,26,106
-9.8120e-02,0.316,-126,22,106
-9.8080e-02,0.344,-130,22,102
-9.8040e-02,0.32,-126,30,98
-9.8000e-02,0.304,-126,22,98
-9.7960e-02,0.324,-126,26,102
-9.7920e-02,0.308,-126,22,106
-9.7880e-02,0.332,-126,30,106
-9.7840e-02,0.32,-126,22,102
-9.7800e-02,0.308,-126,22,98
-9.7760e-02,0.328,-130,26,106
-9.7720e-02,0.312,-118,26,114
-9.7680e-02,0.336,-130,30,106
-9.7640e-02,0.32,-126,22,98
-9.7600e-02,0.32,-130,22,106
-9.7560e-02,0.328,-130,26,102
-9.7520e-02,0.312,-126,26,102
-9.7480e-02,0.332,-130,26,98
-9.7440e-02,0.316,-126,22,106
-9.7400e-02,0.324,-130,26,106
-9.7360e-02,0.324,-130,30,102
-9.7320e-02,0.308,-130,30,102
-9.7280e-02,0.34,-130,30,102
-9.7240e-02,0.316,-122,26,102
-9.7200e-02,0.328,-130,30,102
-9.7160e-02,0.32,-130,30,102
-9.7120e-02,0.304,-126,26,106
-9.7080e-02,0.332,-130,30,106
-9.7040e-02,0.316,-126,26,102
-9.7000e-02,0.316,-130,30,102
-9.6960e-02,0.32,-126,30,102
-9.6920e-02,0.304,-126,22,106
-9.6880e-02,0.328,-134,30,98
-9.6840e-02,0.312,-126,26,102
-9.6800e-02,0.332,-130,30,102
-9.6760e-02,0.32,-130,30,102
-9.6720e-02,0.308,-126,26,102
-9.6680e-02,0.328,-134,30,106
-9.6640e-02,0.308,-122,30,102
-9.6600e-02,0.336,-134,34,106
-9.6560e-02,0.32,-126,30,102
-9.6520e-02,0.304,-122,26,102
-9.6480e-02,0.324,-130,34,102
-9.6440e-02,0.312,-130,30,102
-9.6400e-02,0.324,-134,34,106
-9.6360e-02,0.32,-130,30,102
-9.6320e-02,0.296,-122,30,98
-9.6280e-02,0.328,-130,30,102
-9.6240e-02,0.308,-122,26,102
-9.6200e-02,0.336,-130,38,98
-9.6160e-02,0.316,-130,30,98
-9.6120e-02,0.304,-118,26,98
-9.6080e-02,0.324,-130,34,106
-9.6040e-02,0.3,-126,30,106
-9.6000e-02,0.332,-134,34,102
-9.5960e-02,0.316,-130,30,102
-9.5920e-02,0.3,-122,30,94
-9.5880e-02,0.32,-130,34,98
-9.5840e-02,0.308,-126,30,98
-9.5800e-02,0.332,-134,38,102
-9.5760e-02,0.312,-130,30,106
-9.5720e-02,0.3,-122,26,102
-9.5680e-02,0.32,-130,30,102
-9.5640e-02,0.304,-126,26,102
-9.5600e-02,0.328,-138,38,98
-9.5560e-02,0.308,-130,30,102
-9.5520e-02,0.292,-126,30,98
-9.5480e-02,0.32,-134,34,102
-9.5440e-02,0.308,-122,30,98
-9.5400e-02,0.324,-134,34,98
-9.5360e-02,0.312,-126,34,98
-9.5320e-02,0.292,-126,30,102
-9.5280e-02,0.32,-130,34,98
-9.5240e-02,0.296,-122,30,102
-9.5200e-02,0.332,-130,34,98
-9.5160e-02,0.308,-130,34,102
-9.5120e-02,0.296,-130,30,98
-9.5080e-02,0.316,-130,34,98
-9.5040e-02,0.3,-126,30,98
-9.5000e-02,0.324,-130,38,98
-9.4960e-02,0.308,-130,30,106
-9.4920e-02,0.296,-130,34,98
-9.4880e-02,0.312,-130,34,98
-9.4840e-02,0.3,-130,30,102
-9.4800e-02,0.32,-134,38,98
-9.4760e-02,0.3,-130,34,98
-9.4720e-02,0.296,-130,30,98
-9.4680e-02,0.312,-130,34,98
-9.4640e-02,0.292,-130,30,98
-9.4600e-02,0.316,-130,38,98
-9.4560e-02,0.304,-126,34,106
-9.4520e-02,0.304,-130,38,98
-9.4480e-02,0.312,-130,34,98
-9.4440e-02,0.296,-130,30,102
-9.4400e-02,0.32,-134,42,102
-9.4360e-02,0.3,-130,30,102
-9.4320e-02,0.3,-130,38,94
-9.4280e-02,0.308,-134,38,98
-9.4240e-02,0.288,-130,34,102
-9.4200e-02,0.32,-134,38,98
-9.4160e-02,0.3,-130,34,94
-9.4120e-02,0.296,-138,38,98
-9.4080e-02,0.304,-134,38,98
-9.4040e-02,0.288,-122,30,98
-9.4000e-02,0.312,-134,38,98
-9.3960e-02,0.296,-130,30,98
-9.3920e-02,0.316,-134,34,98
-9.3880e-02,0.304,-134,38,98
-9.3840e-02,0.288,-130,34,98
-9.3800e-02,0.312,-138,38,94
-9.3760e-02,0.3,-130,34,98
-9.3720e-02,0.308,-134,42,98
-9.3680e-02,0.3,-134,38,98
-9.3640e-02,0.284,-126,30,98
-9.3600e-02,0.308,-134,34,94
-9.3560e-02,0.284,-130,42,98
-9.3520e-02,0.276,-138,38,98
-9.3480e-02,0.296,-134,38,94
-9.3440e-02,0.28,-130,38,94
-9.3400e-02,0.308,-134,42,98
-9.3360e-02,0.284,-138,46,94
-9.3320e-02,0.316,-142,38,98
-9.3280e-02,0.296,-130,38,94
-9.3240e-02,0.284,-130,38,94
-9.3200e-02,0.304,-138,42,102
-9.3160e-02,0.288,-130,38,94
-9.3120e-02,0.308,-138,46,98
-9.3080e-02,0.296,-134,42,98
-9.3040e-02,0.276,-126,38,94
-9.3000e-02,0.3,-134,42,90
-9.2960e-02,0.284,-130,38,94
-9.2920e-02,0.292,-142,42,94
-9.2880e-02,0.292,-134,38,98
-9.2840e-02,0.272,-130,38,98
-9.2800e-02,0.296,-138,42,94
-9.2760e-02,0.28,-130,38,94
-9.2720e-02,0.308,-142,46,98
-9.2680e-02,0.284,-130,42,98
-9.2640e-02,0.268,-130,38,94
-9.2600e-02,0.296,-138,46,90
-9.2560e-02,0.28,-130,42,98
-9.2520e-02,0.3,-138,50,98
-9.2480e-02,0.276,-138,38,94
-9.2440e-02,0.268,-134,38,90
-9.2400e-02,0.288,-142,50,98
-9.2360e-02,0.276,-130,42,98
-9.2320e-02,0.304,-138,50,94
-9.2280e-02,0.284,-138,46,94
-9.2240e-02,0.268,-134,46,98
-9.2200e-02,0.288,-138,46,94
-9.2160e-02,0.268,-138,46,90
-9.2120e-02,0.3,-142,50,94
-9.2080e-02,0.276,-138,42,98
-9.2040e-02,0.232,-130,42,98
-9.2000e-02,0.284,-142,46,94
-9.1960e-02,0.264,-134,46,98
-9.1920e-02,0.296,-142,50,94
-9.1880e-02,0.28,-142,46,94
-9.1840e-02,0.264,-138,46,94
-9.1800e-02,0.284,-142,50,94
-9.1760e-02,0.264,-138,50,98
-9.1720e-02,0.304,-150,54,94
-9.1680e-02,0.276,-142,46,94
-9.1640e-02,0.26,-134,46,90
-9.1600e-02,0.276,-142,50,94
-9.1560e-02,0.264,-138,50,98
-9.1520e-02,0.284,-138,54,98
-9.1480e-02,0.272,-146,50,94
-9.1440e-02,0.28,-142,50,90
-9.1400e-02,0.276,-146,54,94
-9.1360e-02,0.264,-142,46,94
-9.1320e-02,0.284,-146,54,94
-9.1280e-02,0.268,-146,50,102
-9.1240e-02,0.268,-142,54,94
-9.1200e-02,0.276,-142,54,90
-9.1160e-02,0.26,-146,50,94
-9.1120e-02,0.28,-142,62,98
-9.1080e-02,0.264,-142,50,94
-9.1040e-02,0.272,-146,58,98
-9.1000e-02,0.268,-146,54,94
-9.0960e-02,0.252,-142,50,94
-9.0920e-02,0.284,-146,54,94
-9.0880e-02,0.268,-142,54,94
-9.0840e-02,0.272,-150,54,90
-9.0800e-02,0.268,-142,58,94
-9.0760e-02,0.256,-146,50,90
-9.0720e-02,0.28,-150,54,94
-9.0680e-02,0.256,-142,54,94
-9.0640e-02,0.28,-154,54,98
-9.0600e-02,0.268,-146,54,98
-9.0560e-02,0.252,-142,50,94
-9.0520e-02,0.276,-150,58,90
-9.0480e-02,0.264,-146,58,94
-9.0440e-02,0.24,-150,58,98
-9.0400e-02,0.264,-150,54,94
-9.0360e-02,0.248,-142,50,94
-9.0320e-02,0.276,-154,62,98
-9.0280e-02,0.252,-142,54,94
-9.0240e-02,0.272,-158,58,94
-9.0200e-02,0.26,-146,62,94
-9.0160e-02,0.244,-138,54,94
-9.0120e-02,0.268,-150,62,94
-9.0080e-02,0.252,-150,54,90
-9.0040e-02,0.276,-154,66,90
-9.0000e-02,0.26,-150,58,90
-8.9960e-02,0.248,-142,50,98
-8.9920e-02,0.256,-150,58,90
-8.9880e-02,0.252,-142,50,90
-8.9840e-02,0.252,-154,62,98
-8.9800e-02,0.256,-150,58,90
-8.9760e-02,0.248,-142,54,90
-8.9720e-02,0.264,-150,62,94
-8.9680e-02,0.248,-150,58,94
-8.9640e-02,0.272,-154,62,94
-8.9600e-02,0.26,-150,62,90
-8.9560e-02,0.24,-146,50,90
-8.9520e-02,0.256,-150,66,94
-8.9480e-02,0.248,-146,54,86
-8.9440e-02,0.268,-150,70,94
-8.9400e-02,0.256,-146,62,90
-8.9360e-02,0.236,-146,62,90
-8.9320e-02,0.256,-150,66,94
-8.9280e-02,0.24,-150,58,94
-8.9240e-02,0.264,-150,70,90
-8.9200e-02,0.244,-150,62,90
-8.9160e-02,0.236,-146,54,90
-8.9120e-02,0.256,-150,62,90
-8.9080e-02,0.24,-146,62,90
-8.9040e-02,0.26,-154,70,90
-8.9000e-02,0.252,-146,62,94
-8.8960e-02,0.284,-146,58,90
-8.8920e-02,0.248,-150,62,90
-8.8880e-02,0.236,-146,58,90
-8.8840e-02,0.256,-150,74,90
-8.8800e-02,0.244,-146,62,86
-8.8760e-02,0.232,-146,54,90
-8.8720e-02,0.248,-150,70,90
-8.8680e-02,0.232,-150,58,86
-8.8640e-02,0.252,-154,74,90
-8.8600e-02,0.244,-150,62,90
-8.8560e-02,0.224,-146,70,86
-8.8520e-02,0.252,-154,66,86
-8.8480e-02,0.232,-146,62,90
-8.8440e-02,0.244,-154,70,90
-8.8400e-02,0.24,-146,66,86
-8.8360e-02,0.08,-146,70,86
-8.8320e-02,0.244,-154,70,86
-8.8280e-02,0.232,-146,62,86
-8.8240e-02,0.244,-158,70,90
-8.8200e-02,0.24,-150,66,90
-8.8160e-02,0.232,-150,66,90
-8.8120e-02,0.244,-154,70,86
-8.8080e-02,0.232,-150,62,86
-8.8040e-02,0.248,-154,74,86
-8.8000e-02,0.236,-150,66,90
-8.7960e-02,0.24,-154,66,86
-8.7920e-02,0.236,-150,74,86
-8.7880e-02,0.224,-146,62,86
-8.7840e-02,0.248,-158,70,86
-8.7800e-02,0.236,-150,70,94
-8.7760e-02,0.236,-154,70,86
-8.7720e-02,0.24,-150,62,86
-8.7680e-02,0.228,-150,66,86
-8.7640e-02,0.24,-150,70,90
-8.7600e-02,0.232,-146,66,86
-8.7560e-02,0.244,-158,74,86
-8.7520e-02,0.236,-150,70,86
-8.7480e-02,0.22,-146,66,86
-8.7440e-02,0.24,-154,74,82
-8.7400e-02,0.228,-150,66,86
-8.7360e-02,0.236,-158,70,86
-8.7320e-02,0.232,-154,70,82
-8.7280e-02,0.212,-146,70,86
-8.7240e-02,0.236,-154,74,78
-8.7200e-02,0.22,-150,66,86
-8.7160e-02,0.24,-158,78,86
-8.7120e-02,0.232,-150,70,82
-8.7080e-02,0.22,-146,62,86
-8.7040e-02,0.232,-154,74,86
-8.7000e-02,0.216,-150,70,82
-8.6960e-02,0.244,-158,74,86
-8.6920e-02,0.232,-154,70,82
-8.6880e-02,0.212,-150,66,86
-8.6840e-02,0.228,-150,74,86
-8.6800e-02,0.224,-146,70,82
-8.6760e-02,0.268,-158,82,82
-8.6720e-02,0.224,-150,74,82
-8.6680e-02,0.212,-150,66,82
-8.6640e-02,0.224,-150,74,82
-8.6600e-02,0.22,-150,74,82
-8.6560e-02,0.24,-154,74,82
-8.6520e-02,0.224,-150,74,78
-8.6480e-02,0.208,-146,66,82
-8.6440e-02,0.224,-154,74,82
-8.6400e-02,0.22,-154,74,82
-8.6360e-02,0.228,-150,78,78
-8.6320e-02,0.208,-150,70,78
-8.6280e-02,0.204,-150,70,82
-8.6240e-02,0.224,-150,78,78
-8.6200e-02,0.212,-146,70,82
-8.6160e-02,0.232,-150,78,78
-8.6120e-02,0.216,-146,70,78
-8.6080e-02,0.204,-146,70,82
-8.6040e-02,0.216,-146,74,74
-8.6000e-02,0.212,-150,74,78
-8.5960e-02,0.228,-158,78,78
-8.5920e-02,0.212,-146,70,74
-8.5880e-02,0.256,-142,70,78
-8.5840e-02,0.22,-150,74,78
-8.5800e-02,0.204,-142,66,78
-8.5760e-02,0.22,-146,74,78
-8.5720e-02,0.208,-142,74,74
-8.5680e-02,0.192,-142,70,74
-8.5640e-02,0.22,-150,74,74
-8.5600e-02,0.204,-142,66,78
-8.5560e-02,0.22,-150,78,74
-8.5520e-02,0.212,-146,70,74
-8.5480e-02,0.196,-142,70,78
-8.5440e-02,0.212,-142,74,78
-8.5400e-02,0.208,-142,74,74
-8.5360e-02,0.216,-146,74,70
-8.5320e-02,0.208,-142,70,78
-8.5280e-02,0.2,-142,78,74
-8.5240e-02,0.212,-142,74,70
-8.5200e-02,0.2,-138,70,70
-8.5160e-02,0.212,-146,74,74
-8.5120e-02,0.204,-142,74,70
-8.5080e-02,0.204,-142,78,74
-8.5040e-02,0.212,-138,74,74
-8.5000e-02,0.196,-142,74,74
-8.4960e-02,0.212,-146,78,70
-8.4920e-02,0.204,-142,74,74
-8.4880e-02,0.208,-150,74,74
-8.4840e-02,0.204,-142,74,74
-8.4800e-02,0.196,-138,70,70
-8.4760e-02,0.216,-146,74,78
-8.4720e-02,0.196,-138,74,70
-8.4680e-02,0.128,-146,78,70
-8.4640e-02,0.204,-142,74,70
-8.4600e-02,0.2,-138,70,70
-8.4560e-02,0.208,-142,78,70
-8.4520e-02,0.2,-138,74,70
-8.4480e-02,0.216,-146,82,70
-8.4440e-02,0.2,-142,74,70
-8.4400e-02,0.192,-138,70,70
-8.4360e-02,0.204,-138,74,66
-8.4320e-02,0.196,-138,74,70
-8.4280e-02,0.22,-146,78,70
-8.4240e-02,0.208,-142,74,70
-8.4200e-02,0.188,-138,70,74
-8.4160e-02,0.204,-142,78,70
-8.4120e-02,0.188,-142,70,74
-8.4080e-02,0.2,-146,78,66
-8.4040e-02,0.2,-142,74,66
-8.4000e-02,0.188,-138,70,70
-8.3960e-02,0.2,-146,82,66
-8.3920e-02,0.192,-138,70,66
-8.3880e-02,0.208,-146,86,70
-8.3840e-02,0.196,-134,74,66
-8.3800e-02,0.188,-138,78,66
-8.3760e-02,0.196,-142,74,70
-8.3720e-02,0.188,-138,78,66
-8.3680e-02,0.264,-146,86,62
-8.3640e-02,0.192,-138,78,66
-8.3600e-02,0.188,-138,70,66
-8.3560e-02,0.196,-138,82,66
-8.3520e-02,0.188,-134,74,70
-8.3480e-02,0.208,-146,82,62
-8.3440e-02,0.192,-138,74,66
-8.3400e-02,0.184,-134,74,66
-8.3360e-02,0.204,-142,82,66
-8.3320e-02,0.188,-134,70,62
-8.3280e-02,0.204,-142,82,62
-8.3240e-02,0.192,-138,78,66
-8.3200e-02,0.18,-130,70,66
-8.3160e-02,0.192,-138,82,66
-8.3120e-02,0.184,-134,78,66
-8.3080e-02,0.196,-142,78,62
-8.3040e-02,0.192,-138,78,62
-8.3000e-02,0.184,-134,74,66
-8.2960e-02,0.188,-142,78,62
-8.2920e-02,0.18,-138,74,66
-8.2880e-02,0.196,-142,86,58
-8.2840e-02,0.188,-138,82,62
-8.2800e-02,0.176,-134,74,70
-8.2760e-02,0.192,-142,78,62
-8.2720e-02,0.18,-134,74,62
-8.2680e-02,0.196,-142,82,58
-8.2640e-02,0.184,-134,74,58
-8.2600e-02,0.184,-134,78,62
-8.2560e-02,0.188,-138,82,62
-8.2520e-02,0.176,-134,74,62
-8.2480e-02,0.196,-146,86,62
-8.2440e-02,0.196,-138,78,58
-8.2400e-02,0.18,-138,74,58
-8.2360e-02,0.192,-138,78,62
-8.2320e-02,0.18,-134,74,62
-8.2280e-02,0.196,-138,82,62
-8.2240e-02,0.184,-134,82,62
-8.2200e-02,0.184,-138,82,62
-8.2160e-02,0.188,-142,82,66
-8.2120e-02,0.176,-138,74,62
-8.2080e-02,0.192,-142,86,62
-8.2040e-02,0.184,-138,78,62
-8.2000e-02,0.396,-134,86,58
-8.1960e-02,0.188,-138,78,62
-8.1920e-02,0.176,-134,78,62
-8.1880e-02,0.188,-138,86,62
-8.1840e-02,0.18,-138,74,54
-8.1800e-02,0.184,-138,82,58
-8.1760e-02,0.18,-138,82,58
-8.1720e-02,0.176,-138,78,66
-8.1680e-02,0.188,-142,82,58
-8.1640e-02,0.18,-134,78,58
-8.1600e-02,0.172,-138,78,58
-8.1560e-02,0.188,-138,82,62
-8.1520e-02,0.176,-130,74,62
-8.1480e-02,0.184,-138,86,58
-8.1440e-02,0.18,-142,82,58
-8.1400e-02,0.184,-142,82,62
-8.1360e-02,0.18,-142,86,58
-8.1320e-02,0.168,-134,74,62
-8.1280e-02,0.184,-142,82,58
-8.1240e-02,0.176,-138,78,58
-8.1200e-02,0.188,-142,82,58
-8.1160e-02,0.172,-138,86,58
-8.1120e-02,0.164,-134,82,58
-8.1080e-02,0.18,-142,82,58
-8.1040e-02,0.172,-134,82,62
-8.1000e-02,0.184,-142,86,58
-8.0960e-02,0.18,-138,82,58
-8.0920e-02,0.168,-134,78,58
-8.0880e-02,0.176,-142,86,58
-8.0840e-02,0.172,-134,78,62
-8.0800e-02,0.18,-142,90,58
-8.0760e-02,0.172,-138,82,58
-8.0720e-02,0.164,-138,74,54
-8.0680e-02,0.176,-138,82,58
-8.0640e-02,0.176,-138,82,58
-8.0600e-02,0.176,-146,90,58
-8.0560e-02,0.168,-138,82,58
-8.0520e-02,0.16,-134,82,58
-8.0480e-02,0.172,-138,90,58
-8.0440e-02,0.164,-134,86,58
-8.0400e-02,0.18,-142,94,58
-8.0360e-02,0.168,-134,86,54
-8.0320e-02,0.16,-134,78,62
-8.0280e-02,0.176,-142,82,54
-8.0240e-02,0.16,-134,82,58
-8.0200e-02,0.176,-142,94,58
-8.0160e-02,0.168,-138,86,50
-8.0120e-02,0.152,-134,78,58
-8.0080e-02,0.168,-138,86,54
-8.0040e-02,0.16,-130,86,50
-8.0000e-02,0.172,-146,90,54
-7.9960e-02,0.164,-134,86,58
-7.9920e-02,0.152,-138,82,58
-7.9880e-02,0.168,-138,86,50
-7.9840e-02,0.156,-134,82,58
-7.9800e-02,0.172,-142,90,50
-7.9760e-02,0.156,-138,82,54
-7.9720e-02,0.152,-134,82,58
-7.9680e-02,0.164,-138,90,58
-7.9640e-02,0.152,-130,86,54
-7.9600e-02,0.168,-134,94,54
-7.9560e-02,0.164,-138,86,54
-7.9520e-02,0.156,-130,82,54
-7.9480e-02,0.16,-138,90,50
-7.9440e-02,0.152,-138,82,54
-7.9400e-02,0.164,-138,94,50
-7.9360e-02,0.156,-138,90,54
-7.9320e-02,0.148,-134,90,54
-7.9280e-02,0.16,-138,86,50
-7.9240e-02,0.152,-134,82,58
-7.9200e-02,0.164,-138,94,50
-7.9160e-02,0.156,-134,90,50
-7.9120e-02,0.144,-130,90,58
-7.9080e-02,0.156,-134,94,54
-7.9040e-02,0.148,-130,82,54
-7.9000e-02,0.156,-138,90,50
-7.8960e-02,0.152,-134,86,50
-7.8920e-02,0.148,-138,90,46
-7.8880e-02,0.152,-134,90,50
-7.8840e-02,0.144,-130,86,54
-7.8800e-02,0.16,-138,86,46
-7.8760e-02,0.148,-138,86,50
-7.8720e-02,0.144,-142,90,50
-7.8680e-02,0.152,-138,86,50
-7.8640e-02,0.144,-130,82,50
-7.8600e-02,0.152,-142,90,46
-7.8560e-02,0.148,-134,86,50
-7.8520e-02,0.172,-134,90,50
-7.8480e-02,0.152,-138,86,50
-7.8440e-02,0.144,-134,86,50
-7.8400e-02,0.152,-138,94,50
-7.8360e-02,0.14,-134,86,46
-7.8320e-02,0.148,-142,90,46
-7.8280e-02,0.148,-130,94,46
-7.8240e-02,0.136,-134,86,50
-7.8200e-02,0.152,-134,94,46
-7.8160e-02,0.136,-134,82,50
-7.8120e-02,0.152,-134,94,46
-7.8080e-02,0.136,-130,94,46
-7.8040e-02,0.136,-130,86,50
-7.8000e-02,0.144,-138,90,46
-7.7960e-02,0.144,-134,90,46
-7.7920e-02,0.144,-134,94,42
-7.7880e-02,0.132,-130,90,46
-7.7840e-02,0.136,-130,82,50
-7.7800e-02,0.144,-138,90,46
-7.7760e-02,0.136,-134,94,50
-7.7720e-02,0.14,-138,94,42
-7.7680e-02,0.136,-130,90,50
-7.7640e-02,0.132,-130,86,50
-7.7600e-02,0.14,-138,98,46
-7.7560e-02,0.136,-130,90,42
-7.7520e-02,0.136,-138,98,42
-7.7480e-02,0.136,-138,90,46
-7.7440e-02,0.128,-130,86,46
-7.7400e-02,0.132,-138,94,50
-7.7360e-02,0.132,-134,86,46
-7.7320e-02,0.136,-138,98,46
-7.7280e-02,0.132,-134,94,42
-7.7240e-02,0.124,-130,86,46
-7.7200e-02,0.136,-134,90,46
-7.7160e-02,0.136,-134,94,46
-7.7120e-02,0.144,-142,98,42
-7.7080e-02,0.128,-130,90,42
-7.7040e-02,0.128,-130,90,50
-7.7000e-02,0.128,-138,90,42
-7.6960e-02,0.128,-134,90,46
-7.6920e-02,0.132,-134,98,38
-7.6880e-02,0.128,-130,90,46
-7.6840e-02,0.124,-134,94,46
-7.6800e-02,0.136,-134,94,46
-7.6760e-02,0.124,-126,86,46
-7.6720e-02,0.132,-134,94,42
-7.6680e-02,0.128,-130,94,42
-7.6640e-02,0.128,-134,86,46
-7.6600e-02,0.124,-134,94,38
-7.6560e-02,0.124,-134,94,46
-7.6520e-02,0.128,-138,98,46
-7.6480e-02,0.128,-130,94,42
-7.6440e-02,0.136,-130,90,46
-7.6400e-02,0.136,-138,98,42
-7.6360e-02,0.12,-130,94,42
-7.6320e-02,0.128,-138,94,42
-7.6280e-02,0.124,-134,98,42
-7.6240e-02,0.112,-138,94,42
-7.6200e-02,0.124,-138,94,42
-7.6160e-02,0.12,-130,94,38
-7.6120e-02,0.128,-138,98,38
-7.6080e-02,0.12,-138,90,42
-7.6040e-02,0.112,-134,94,38
-7.6000e-02,0.124,-134,94,38
-7.5960e-02,0.112,-134,94,42
-7.5920e-02,0.124,-134,102,38
-7.5880e-02,0.12,-138,94,42
-7.5840e-02,0.108,-138,94,38
-7.5800e-02,0.12,-138,94,38
-7.5760e-02,0.112,-130,90,46
-7.5720e-02,0.128,-134,110,34
-7.5680e-02,0.116,-134,94,42
-7.5640e-02,0.112,-130,98,38
-7.5600e-02,0.12,-130,102,38
-7.5560e-02,0.112,-130,90,42
-7.5520e-02,0.12,-134,102,34
-7.5480e-02,0.116,-130,94,38
-7.5440e-02,0.128,-126,94,34
-7.5400e-02,0.112,-134,98,38
-7.5360e-02,0.108,-130,94,42
-7.5320e-02,0.12,-134,102,38
-7.5280e-02,0.108,-138,94,38
-7.5240e-02,0.108,-134,98,42
-7.5200e-02,0.108,-134,98,34
-7.5160e-02,0.104,-130,94,38
-7.5120e-02,0.112,-134,102,34
-7.5080e-02,0.112,-130,98,38
-7.5040e-02,0.116,-134,102,38
-7.5000e-02,0.108,-130,98,38
-7.4960e-02,0.104,-130,90,42
-7.4920e-02,0.112,-134,102,38
-7.4880e-02,0.108,-130,94,38
-7.4840e-02,0.112,-138,106,34
-7.4800e-02,0.108,-134,98,38
-7.4760e-02,0.104,-130,98,38
-7.4720e-02,0.104,-134,102,34
-7.4680e-02,0.104,-134,98,38
-7.4640e-02,0.108,-134,106,34
-7.4600e-02,0.108,-130,98,34
