Tests/20190522_FOC_integrationTest/tests210519/tek0000.csv

Model,DPO4054B
Firmware Version,2.90

Waveform Type,ANALOG,,
Point Format,Y,,
Horizontal Units,s,,
Horizontal Scale,0.4,,
Horizontal Delay,0,,
Sample Interval,0.0004,,
Record Length,10000,,
Gating,0.0% to 100.0%,,
Probe Attenuation,50,,
Vertical Units,A,,
Vertical Offset,0,,
Vertical Scale,100,,
Vertical Position,-0.04,,
,,,
,,,
,,,
Label,,,
TIME,CH2,CH3,CH4
-2.0000e+00,-68,152,-78
-1.9996e+00,-72,152,-78
-1.9992e+00,-64,156,-82
-1.9988e+00,-68,156,-78
-1.9984e+00,-72,152,-78
-1.9980e+00,-68,156,-78
-1.9976e+00,-68,152,-74
-1.9972e+00,-68,148,-78
-1.9968e+00,-68,148,-78
-1.9964e+00,-68,152,-82
-1.9960e+00,-64,156,-86
-1.9956e+00,-64,148,-82
-1.9952e+00,-64,148,-86
-1.9948e+00,-64,156,-82
-1.9944e+00,-64,148,-82
-1.9940e+00,-64,148,-82
-1.9936e+00,-64,148,-78
-1.9932e+00,-60,148,-82
-1.9928e+00,-68,152,-78
-1.9924e+00,-60,152,-78
-1.9920e+00,-60,144,-86
-1.9916e+00,-60,144,-82
-1.9912e+00,-60,144,-78
-1.9908e+00,-60,148,-82
-1.9904e+00,-56,144,-86
-1.9900e+00,-56,144,-86
-1.9896e+00,-64,152,-86
-1.9892e+00,-60,148,-90
-1.9888e+00,-60,148,-86
-1.9884e+00,-60,156,-90
-1.9880e+00,-60,156,-90
-1.9876e+00,-64,156,-86
-1.9872e+00,-64,156,-90
-1.9868e+00,-60,160,-90
-1.9864e+00,-56,152,-90
-1.9860e+00,-60,156,-90
-1.9856e+00,-56,156,-90
-1.9852e+00,-52,152,-90
-1.9848e+00,-56,152,-90
-1.9844e+00,-60,152,-90
-1.9840e+00,-56,152,-90
-1.9836e+00,-56,148,-94
-1.9832e+00,-56,156,-90
-1.9828e+00,-56,152,-90
-1.9824e+00,-56,152,-90
-1.9820e+00,-56,148,-90
-1.9816e+00,-52,148,-94
-1.9812e+00,-56,148,-90
-1.9808e+00,-52,152,-94
-1.9804e+00,-56,148,-90
-1.9800e+00,-56,152,-94
-1.9796e+00,-52,148,-94
-1.9792e+00,-52,152,-94
-1.9788e+00,-52,152,-94
-1.9784e+00,-52,148,-94
-1.9780e+00,-52,148,-94
-1.9776e+00,-48,148,-94
-1.9772e+00,-52,144,-94
-1.9768e+00,-56,148,-94
-1.9764e+00,-52,148,-90
-1.9760e+00,-52,148,-90
-1.9756e+00,-48,144,-94
-1.9752e+00,-52,140,-94
-1.9748e+00,-52,148,-94
-1.9744e+00,-48,144,-98
-1.9740e+00,-48,148,-94
-1.9736e+00,-48,148,-102
-1.9732e+00,-52,152,-98
-1.9728e+00,-44,152,-102
-1.9724e+00,-48,152,-102
-1.9720e+00,-48,156,-102
-1.9716e+00,-48,156,-106
-1.9712e+00,-48,152,-102
-1.9708e+00,-48,156,-102
-1.9704e+00,-44,148,-106
-1.9700e+00,-48,152,-106
-1.9696e+00,-44,152,-102
-1.9692e+00,-48,152,-102
-1.9688e+00,-44,148,-102
-1.9684e+00,-44,148,-106
-1.9680e+00,-44,148,-102
-1.9676e+00,-44,152,-106
-1.9672e+00,-48,156,-106
-1.9668e+00,-44,148,-102
-1.9664e+00,-40,148,-102
-1.9660e+00,-40,148,-98
-1.9656e+00,-40,148,-102
-1.9652e+00,-44,148,-102
-1.9648e+00,-40,144,-102
-1.9644e+00,-36,148,-102
-1.9640e+00,-40,140,-98
-1.9636e+00,-40,148,-98
-1.9632e+00,-40,144,-102
-1.9628e+00,-40,148,-106
-1.9624e+00,-40,144,-102
-1.9620e+00,-40,148,-110
-1.9616e+00,-36,148,-106
-1.9612e+00,-36,144,-106
-1.9608e+00,-40,144,-102
-1.9604e+00,-36,140,-102
-1.9600e+00,-40,140,-106
-1.9596e+00,-40,140,-98
-1.9592e+00,-36,140,-98
-1.9588e+00,-40,140,-102
-1.9584e+00,-32,140,-102
-1.9580e+00,-40,144,-102
-1.9576e+00,-32,148,-106
-1.9572e+00,-36,144,-110
-1.9568e+00,-36,144,-118
-1.9564e+00,-32,148,-114
-1.9560e+00,-36,152,-114
-1.9556e+00,-32,152,-114
-1.9552e+00,-36,152,-114
-1.9548e+00,-36,148,-114
-1.9544e+00,-32,148,-114
-1.9540e+00,-32,148,-114
-1.9536e+00,-28,144,-110
-1.9532e+00,-28,144,-114
-1.9528e+00,-28,144,-114
-1.9524e+00,-32,144,-110
-1.9520e+00,-32,144,-110
-1.9516e+00,-32,140,-106
-1.9512e+00,-28,140,-114
-1.9508e+00,-32,144,-114
-1.9504e+00,-28,144,-114
-1.9500e+00,-24,148,-114
-1.9496e+00,-20,144,-114
-1.9492e+00,-28,144,-118
-1.9488e+00,-24,144,-118
-1.9484e+00,-28,144,-114
-1.9480e+00,-24,144,-114
-1.9476e+00,-28,140,-110
-1.9472e+00,-28,136,-110
-1.9468e+00,-28,136,-106
-1.9464e+00,-28,136,-110
-1.9460e+00,-24,140,-114
-1.9456e+00,-24,140,-118
-1.9452e+00,-28,140,-114
-1.9448e+00,-24,140,-118
-1.9444e+00,-24,144,-118
-1.9440e+00,-24,140,-118
-1.9436e+00,-20,140,-118
-1.9432e+00,-20,140,-118
-1.9428e+00,-20,140,-118
-1.9424e+00,-20,144,-118
-1.9420e+00,-24,140,-118
-1.9416e+00,-20,136,-110
-1.9412e+00,-20,140,-114
-1.9408e+00,-24,140,-114
-1.9404e+00,-20,136,-114
-1.9400e+00,-16,136,-126
-1.9396e+00,-20,144,-122
-1.9392e+00,-20,144,-130
-1.9388e+00,-16,144,-126
-1.9384e+00,-16,144,-126
-1.9380e+00,-16,140,-126
-1.9376e+00,-16,144,-126
-1.9372e+00,-20,144,-122
-1.9368e+00,-16,144,-122
-1.9364e+00,-16,140,-122
-1.9360e+00,-20,136,-122
-1.9356e+00,-16,136,-118
-1.9352e+00,-16,136,-118
-1.9348e+00,-20,140,-122
-1.9344e+00,-16,136,-118
-1.9340e+00,-12,136,-118
-1.9336e+00,-12,136,-126
-1.9332e+00,-8,136,-126
-1.9328e+00,-8,140,-126
-1.9324e+00,-12,136,-126
-1.9320e+00,-12,132,-122
-1.9316e+00,-8,136,-122
-1.9312e+00,-8,140,-122
-1.9308e+00,-8,136,-126
-1.9304e+00,-8,132,-126
-1.9300e+00,-12,136,-126
-1.9296e+00,-8,132,-126
-1.9292e+00,-12,132,-118
-1.9288e+00,-8,136,-118
-1.9284e+00,-8,128,-122
-1.9280e+00,-4,136,-122
-1.9276e+00,-8,136,-126
-1.9272e+00,-4,136,-122
-1.9268e+00,-4,136,-126
-1.9264e+00,-4,136,-126
-1.9260e+00,-8,132,-122
-1.9256e+00,-8,132,-126
-1.9252e+00,-8,136,-126
-1.9248e+00,-8,132,-130
-1.9244e+00,-8,128,-130
-1.9240e+00,-4,136,-126
-1.9236e+00,-4,140,-134
-1.9232e+00,-4,136,-134
-1.9228e+00,0,136,-138
-1.9224e+00,0,136,-134
-1.9220e+00,0,132,-130
-1.9216e+00,-8,136,-134
-1.9212e+00,-4,136,-126
-1.9208e+00,0,132,-126
-1.9204e+00,0,136,-130
-1.9200e+00,0,136,-134
-1.9196e+00,0,132,-130
-1.9192e+00,-4,132,-134
-1.9188e+00,0,128,-134
-1.9184e+00,0,136,-134
-1.9180e+00,0,136,-134
-1.9176e+00,0,136,-130
-1.9172e+00,0,128,-126
-1.9168e+00,0,132,-134
-1.9164e+00,0,128,-130
-1.9160e+00,0,132,-126
-1.9156e+00,0,132,-126
-1.9152e+00,-4,128,-130
-1.9148e+00,0,132,-130
-1.9144e+00,-4,128,-130
-1.9140e+00,0,132,-130
-1.9136e+00,0,128,-134
-1.9132e+00,0,128,-134
-1.9128e+00,0,128,-130
-1.9124e+00,0,132,-130
-1.9120e+00,0,128,-134
-1.9116e+00,0,128,-134
-1.9112e+00,0,128,-126
-1.9108e+00,0,124,-126
-1.9104e+00,0,120,-126
-1.9100e+00,4,124,-130
-1.9096e+00,4,124,-126
-1.9092e+00,0,124,-130
-1.9088e+00,8,128,-130
-1.9084e+00,4,128,-130
-1.9080e+00,8,128,-134
-1.9076e+00,12,132,-146
-1.9072e+00,12,132,-142
-1.9068e+00,12,136,-146
-1.9064e+00,4,132,-146
-1.9060e+00,12,132,-146
-1.9056e+00,8,136,-142
-1.9052e+00,8,128,-134
-1.9048e+00,8,128,-138
-1.9044e+00,8,124,-134
-1.9040e+00,8,124,-130
-1.9036e+00,4,120,-134
-1.9032e+00,8,120,-134
-1.9028e+00,12,124,-130
-1.9024e+00,8,120,-138
-1.9020e+00,12,124,-134
-1.9016e+00,12,124,-134
-1.9012e+00,12,128,-138
-1.9008e+00,12,124,-138
-1.9004e+00,12,124,-138
-1.9000e+00,12,124,-138
-1.8996e+00,12,124,-138
-1.8992e+00,12,124,-138
-1.8988e+00,12,124,-142
-1.8984e+00,8,124,-134
-1.8980e+00,12,124,-134
-1.8976e+00,12,116,-134
-1.8972e+00,16,120,-134
-1.8968e+00,12,120,-134
-1.8964e+00,16,116,-134
-1.8960e+00,12,116,-134
-1.8956e+00,12,124,-134
-1.8952e+00,20,116,-134
-1.8948e+00,16,120,-134
-1.8944e+00,12,116,-138
-1.8940e+00,24,116,-134
-1.8936e+00,16,116,-138
-1.8932e+00,12,120,-138
-1.8928e+00,16,120,-138
-1.8924e+00,24,116,-142
-1.8920e+00,20,120,-142
-1.8916e+00,20,124,-150
-1.8912e+00,16,124,-150
-1.8908e+00,24,120,-146
-1.8904e+00,20,124,-146
-1.8900e+00,24,120,-150
-1.8896e+00,24,120,-146
-1.8892e+00,24,120,-142
-1.8888e+00,24,116,-142
-1.8884e+00,24,120,-142
-1.8880e+00,28,120,-138
-1.8876e+00,24,116,-142
-1.8872e+00,24,116,-142
-1.8868e+00,24,112,-146
-1.8864e+00,24,116,-146
-1.8860e+00,24,116,-142
-1.8856e+00,24,112,-142
-1.8852e+00,28,112,-142
-1.8848e+00,24,116,-142
-1.8844e+00,28,112,-142
-1.8840e+00,28,116,-138
-1.8836e+00,24,112,-142
-1.8832e+00,24,116,-142
-1.8828e+00,28,112,-142
-1.8824e+00,28,112,-142
-1.8820e+00,28,116,-142
-1.8816e+00,28,116,-138
-1.8812e+00,24,116,-138
-1.8808e+00,24,112,-142
-1.8804e+00,28,112,-142
-1.8800e+00,32,112,-142
-1.8796e+00,32,112,-142
-1.8792e+00,28,112,-138
-1.8788e+00,32,112,-142
-1.8784e+00,36,108,-142
-1.8780e+00,28,108,-142
-1.8776e+00,32,108,-142
-1.8772e+00,28,108,-142
-1.8768e+00,36,108,-146
-1.8764e+00,28,116,-146
-1.8760e+00,36,116,-146
-1.8756e+00,32,116,-150
-1.8752e+00,40,116,-146
-1.8748e+00,36,112,-150
-1.8744e+00,36,112,-150
-1.8740e+00,32,112,-150
-1.8736e+00,36,108,-154
-1.8732e+00,32,108,-150
-1.8728e+00,36,112,-150
-1.8724e+00,36,108,-146
-1.8720e+00,40,108,-146
-1.8716e+00,36,112,-142
-1.8712e+00,36,112,-146
-1.8708e+00,32,104,-146
-1.8704e+00,40,104,-138
-1.8700e+00,32,108,-142
-1.8696e+00,40,104,-150
-1.8692e+00,44,104,-150
-1.8688e+00,36,104,-146
-1.8684e+00,36,104,-150
-1.8680e+00,40,108,-142
-1.8676e+00,40,104,-142
-1.8672e+00,36,100,-146
-1.8668e+00,40,104,-146
-1.8664e+00,40,104,-146
-1.8660e+00,44,104,-150
-1.8656e+00,44,104,-146
-1.8652e+00,44,104,-146
-1.8648e+00,40,104,-146
-1.8644e+00,40,104,-146
-1.8640e+00,44,104,-146
-1.8636e+00,40,104,-142
-1.8632e+00,40,96,-142
-1.8628e+00,44,96,-150
-1.8624e+00,44,104,-146
-1.8620e+00,44,96,-142
-1.8616e+00,44,100,-146
-1.8612e+00,44,100,-146
-1.8608e+00,44,100,-150
-1.8604e+00,44,100,-150
-1.8600e+00,48,100,-150
-1.8596e+00,52,104,-154
-1.8592e+00,48,100,-154
-1.8588e+00,48,100,-154
-1.8584e+00,44,100,-154
-1.8580e+00,48,100,-154
-1.8576e+00,52,100,-154
-1.8572e+00,52,96,-150
-1.8568e+00,56,96,-150
-1.8564e+00,48,96,-150
-1.8560e+00,48,96,-150
-1.8556e+00,56,100,-154
-1.8552e+00,52,96,-150
-1.8548e+00,52,100,-154
-1.8544e+00,56,96,-150
-1.8540e+00,52,92,-150
-1.8536e+00,52,92,-146
-1.8532e+00,44,92,-150
-1.8528e+00,56,92,-150
-1.8524e+00,52,96,-150
-1.8520e+00,56,92,-150
-1.8516e+00,56,92,-146
-1.8512e+00,52,96,-150
-1.8508e+00,56,96,-146
-1.8504e+00,48,92,-150
-1.8500e+00,56,92,-154
-1.8496e+00,56,92,-150
-1.8492e+00,52,92,-146
-1.8488e+00,56,96,-142
-1.8484e+00,56,92,-146
-1.8480e+00,56,88,-146
-1.8476e+00,60,92,-146
-1.8472e+00,56,92,-150
-1.8468e+00,56,88,-146
-1.8464e+00,56,88,-142
-1.8460e+00,60,92,-146
-1.8456e+00,56,84,-146
-1.8452e+00,60,88,-146
-1.8448e+00,60,88,-150
-1.8444e+00,56,84,-154
-1.8440e+00,60,92,-154
-1.8436e+00,60,92,-154
-1.8432e+00,64,88,-154
-1.8428e+00,64,88,-154
-1.8424e+00,64,88,-154
-1.8420e+00,64,92,-158
-1.8416e+00,60,84,-154
-1.8412e+00,64,88,-158
-1.8408e+00,60,84,-154
-1.8404e+00,64,80,-154
-1.8400e+00,60,88,-154
-1.8396e+00,64,88,-150
-1.8392e+00,64,88,-158
-1.8388e+00,68,84,-150
-1.8384e+00,64,84,-150
-1.8380e+00,64,84,-154
-1.8376e+00,64,84,-154
-1.8372e+00,72,80,-154
-1.8368e+00,64,84,-150
-1.8364e+00,68,84,-154
-1.8360e+00,64,80,-146
-1.8356e+00,64,84,-154
-1.8352e+00,72,76,-150
-1.8348e+00,68,80,-154
-1.8344e+00,64,80,-146
-1.8340e+00,68,76,-150
-1.8336e+00,68,80,-154
-1.8332e+00,68,76,-146
-1.8328e+00,64,76,-154
-1.8324e+00,68,76,-150
-1.8320e+00,68,76,-150
-1.8316e+00,68,76,-146
-1.8312e+00,68,80,-150
-1.8308e+00,68,76,-150
-1.8304e+00,64,76,-142
-1.8300e+00,68,72,-146
-1.8296e+00,68,72,-150
-1.8292e+00,72,76,-146
-1.8288e+00,76,80,-146
-1.8284e+00,68,80,-154
-1.8280e+00,72,76,-150
-1.8276e+00,76,76,-158
-1.8272e+00,80,76,-158
-1.8268e+00,76,76,-158
-1.8264e+00,76,76,-154
-1.8260e+00,76,76,-154
-1.8256e+00,76,76,-158
-1.8252e+00,76,72,-154
-1.8248e+00,76,72,-150
-1.8244e+00,76,72,-154
-1.8240e+00,76,72,-158
-1.8236e+00,76,72,-154
-1.8232e+00,84,76,-154
-1.8228e+00,76,72,-150
-1.8224e+00,76,72,-154
-1.8220e+00,76,72,-154
-1.8216e+00,80,72,-154
-1.8212e+00,76,72,-150
-1.8208e+00,76,72,-154
-1.8204e+00,76,72,-150
-1.8200e+00,80,68,-154
-1.8196e+00,80,72,-150
-1.8192e+00,76,72,-154
-1.8188e+00,76,68,-150
-1.8184e+00,76,72,-150
-1.8180e+00,80,68,-154
-1.8176e+00,76,68,-150
-1.8172e+00,76,68,-150
-1.8168e+00,76,68,-150
-1.8164e+00,80,68,-150
-1.8160e+00,80,68,-146
-1.8156e+00,80,68,-150
-1.8152e+00,84,60,-150
-1.8148e+00,84,64,-146
-1.8144e+00,84,56,-150
-1.8140e+00,80,60,-150
-1.8136e+00,84,60,-146
-1.8132e+00,84,60,-150
-1.8128e+00,80,64,-154
-1.8124e+00,84,72,-154
-1.8120e+00,88,64,-154
-1.8116e+00,84,68,-154
-1.8112e+00,88,64,-154
-1.8108e+00,96,64,-154
-1.8104e+00,88,68,-158
-1.8100e+00,92,64,-158
-1.8096e+00,88,60,-154
-1.8092e+00,88,56,-154
-1.8088e+00,92,60,-150
-1.8084e+00,88,56,-150
-1.8080e+00,88,60,-154
-1.8076e+00,88,56,-154
-1.8072e+00,84,60,-154
-1.8068e+00,88,56,-154
-1.8064e+00,88,52,-154
-1.8060e+00,92,56,-154
-1.8056e+00,88,60,-154
-1.8052e+00,92,56,-154
-1.8048e+00,88,56,-150
-1.8044e+00,88,52,-154
-1.8040e+00,88,60,-150
-1.8036e+00,92,60,-154
-1.8032e+00,92,56,-150
-1.8028e+00,92,56,-146
-1.8024e+00,88,56,-146
-1.8020e+00,88,52,-142
-1.8016e+00,92,56,-154
-1.8012e+00,92,52,-150
-1.8008e+00,92,56,-146
-1.8004e+00,92,56,-146
-1.8000e+00,92,48,-146
-1.7996e+00,88,52,-150
-1.7992e+00,96,52,-150
-1.7988e+00,92,56,-150
-1.7984e+00,88,48,-150
-1.7980e+00,92,52,-146
-1.7976e+00,92,48,-150
-1.7972e+00,92,48,-146
-1.7968e+00,100,48,-150
-1.7964e+00,100,52,-150
-1.7960e+00,100,48,-150
-1.7956e+00,100,52,-150
-1.7952e+00,108,48,-154
-1.7948e+00,104,52,-154
-1.7944e+00,96,52,-154
-1.7940e+00,100,40,-154
-1.7936e+00,100,48,-150
-1.7932e+00,104,48,-154
-1.7928e+00,100,48,-150
-1.7924e+00,104,48,-154
-1.7920e+00,108,48,-150
-1.7916e+00,104,48,-150
-1.7912e+00,100,48,-150
-1.7908e+00,108,48,-150
-1.7904e+00,100,48,-150
-1.7900e+00,108,44,-146
-1.7896e+00,100,48,-146
-1.7892e+00,100,44,-142
-1.7888e+00,104,48,-150
-1.7884e+00,104,40,-150
-1.7880e+00,104,48,-150
-1.7876e+00,100,40,-146
-1.7872e+00,104,40,-146
-1.7868e+00,104,40,-146
-1.7864e+00,104,44,-146
-1.7860e+00,104,40,-142
-1.7856e+00,104,40,-142
-1.7852e+00,104,40,-146
-1.7848e+00,104,40,-146
-1.7844e+00,104,40,-142
-1.7840e+00,108,36,-150
-1.7836e+00,108,36,-142
-1.7832e+00,108,40,-142
-1.7828e+00,100,40,-146
-1.7824e+00,104,40,-146
-1.7820e+00,108,36,-146
-1.7816e+00,100,32,-142
-1.7812e+00,108,36,-142
-1.7808e+00,112,32,-142
-1.7804e+00,108,40,-146
-1.7800e+00,108,40,-142
-1.7796e+00,112,32,-150
-1.7792e+00,108,32,-150
-1.7788e+00,108,32,-154
-1.7784e+00,116,32,-150
-1.7780e+00,112,28,-150
-1.7776e+00,112,32,-146
-1.7772e+00,116,32,-146
-1.7768e+00,108,36,-150
-1.7764e+00,116,32,-150
-1.7760e+00,116,32,-146
-1.7756e+00,112,28,-142
-1.7752e+00,108,36,-146
-1.7748e+00,108,28,-146
-1.7744e+00,116,28,-146
-1.7740e+00,116,32,-142
-1.7736e+00,116,28,-142
-1.7732e+00,112,32,-142
-1.7728e+00,116,28,-146
-1.7724e+00,112,28,-146
-1.7720e+00,108,28,-142
-1.7716e+00,112,28,-142
-1.7712e+00,116,32,-142
-1.7708e+00,112,32,-138
-1.7704e+00,112,24,-142
-1.7700e+00,112,28,-138
-1.7696e+00,112,28,-138
-1.7692e+00,120,24,-142
-1.7688e+00,112,28,-138
-1.7684e+00,112,28,-138
-1.7680e+00,116,24,-138
-1.7676e+00,112,24,-138
-1.7672e+00,112,24,-142
-1.7668e+00,112,20,-142
-1.7664e+00,112,24,-138
-1.7660e+00,116,24,-134
-1.7656e+00,112,20,-138
-1.7652e+00,112,20,-138
-1.7648e+00,116,20,-138
-1.7644e+00,120,20,-142
-1.7640e+00,120,24,-138
-1.7636e+00,124,20,-150
-1.7632e+00,124,16,-150
-1.7628e+00,128,20,-150
-1.7624e+00,120,20,-142
-1.7620e+00,124,20,-138
-1.7616e+00,120,24,-142
-1.7612e+00,124,24,-142
-1.7608e+00,124,20,-142
-1.7604e+00,124,12,-138
-1.7600e+00,124,16,-142
-1.7596e+00,124,16,-134
-1.7592e+00,124,20,-142
-1.7588e+00,120,20,-142
-1.7584e+00,124,16,-134
-1.7580e+00,124,20,-138
-1.7576e+00,120,16,-138
-1.7572e+00,124,16,-138
-1.7568e+00,124,12,-134
-1.7564e+00,120,12,-138
-1.7560e+00,124,12,-134
-1.7556e+00,124,12,-138
-1.7552e+00,116,16,-138
-1.7548e+00,124,12,-134
-1.7544e+00,120,8,-134
-1.7540e+00,124,8,-134
-1.7536e+00,128,8,-134
-1.7532e+00,120,8,-134
-1.7528e+00,128,8,-134
-1.7524e+00,120,16,-134
-1.7520e+00,124,12,-130
-1.7516e+00,124,8,-134
-1.7512e+00,120,8,-130
-1.7508e+00,120,8,-134
-1.7504e+00,124,4,-138
-1.7500e+00,124,4,-134
-1.7496e+00,124,8,-130
-1.7492e+00,124,8,-134
-1.7488e+00,128,8,-130
-1.7484e+00,124,4,-134
-1.7480e+00,132,8,-138
-1.7476e+00,132,8,-138
-1.7472e+00,136,0,-142
-1.7468e+00,132,4,-134
-1.7464e+00,132,4,-134
-1.7460e+00,132,0,-134
-1.7456e+00,132,4,-134
-1.7452e+00,132,4,-134
-1.7448e+00,132,0,-138
-1.7444e+00,128,0,-138
-1.7440e+00,128,0,-130
-1.7436e+00,132,4,-138
-1.7432e+00,132,0,-134
-1.7428e+00,132,0,-130
-1.7424e+00,128,0,-134
-1.7420e+00,132,4,-130
-1.7416e+00,128,0,-134
-1.7412e+00,128,0,-134
-1.7408e+00,128,0,-134
-1.7404e+00,128,0,-134
-1.7400e+00,132,0,-130
-1.7396e+00,136,0,-130
-1.7392e+00,132,0,-130
-1.7388e+00,128,0,-126
-1.7384e+00,132,0,-126
-1.7380e+00,132,0,-130
-1.7376e+00,128,0,-130
-1.7372e+00,132,0,-134
-1.7368e+00,128,0,-130
-1.7364e+00,132,0,-130
-1.7360e+00,128,0,-126
-1.7356e+00,124,-4,-126
-1.7352e+00,132,0,-130
-1.7348e+00,128,0,-126
-1.7344e+00,132,-4,-130
-1.7340e+00,128,0,-126
-1.7336e+00,132,-4,-122
-1.7332e+00,132,-8,-126
-1.7328e+00,136,-12,-126
-1.7324e+00,136,-4,-126
-1.7320e+00,136,-4,-126
-1.7316e+00,136,-8,-126
-1.7312e+00,140,-12,-126
-1.7308e+00,140,-4,-130
-1.7304e+00,140,-8,-126
-1.7300e+00,132,-8,-126
-1.7296e+00,140,-12,-126
-1.7292e+00,136,-8,-130
-1.7288e+00,136,-12,-122
-1.7284e+00,140,-8,-126
-1.7280e+00,136,-8,-126
-1.7276e+00,140,-12,-126
-1.7272e+00,140,-12,-122
-1.7268e+00,136,-12,-126
-1.7264e+00,140,-16,-122
-1.7260e+00,140,-12,-122
-1.7256e+00,140,-16,-122
-1.7252e+00,136,-4,-122
-1.7248e+00,136,-12,-122
-1.7244e+00,140,-12,-122
-1.7240e+00,140,-16,-126
-1.7236e+00,136,-12,-122
-1.7232e+00,140,-16,-118
-1.7228e+00,140,-12,-118
-1.7224e+00,136,-16,-122
-1.7220e+00,136,-16,-118
-1.7216e+00,140,-16,-122
-1.7212e+00,140,-16,-122
-1.7208e+00,136,-12,-118
-1.7204e+00,140,-20,-122
-1.7200e+00,140,-16,-122
-1.7196e+00,136,-12,-118
-1.7192e+00,136,-16,-118
-1.7188e+00,136,-16,-118
-1.7184e+00,136,-16,-118
-1.7180e+00,136,-20,-114
-1.7176e+00,136,-20,-122
-1.7172e+00,140,-16,-118
-1.7168e+00,144,-24,-118
-1.7164e+00,140,-24,-122
-1.7160e+00,140,-28,-118
-1.7156e+00,140,-24,-118
-1.7152e+00,148,-28,-122
-1.7148e+00,144,-28,-122
-1.7144e+00,148,-24,-126
-1.7140e+00,144,-24,-122
-1.7136e+00,148,-28,-122
-1.7132e+00,148,-24,-118
-1.7128e+00,144,-24,-118
-1.7124e+00,144,-24,-118
-1.7120e+00,144,-24,-118
-1.7116e+00,144,-24,-114
-1.7112e+00,140,-32,-114
-1.7108e+00,140,-24,-118
-1.7104e+00,144,-28,-114
-1.7100e+00,140,-32,-118
-1.7096e+00,144,-28,-114
-1.7092e+00,140,-24,-110
-1.7088e+00,148,-28,-114
-1.7084e+00,144,-32,-118
-1.7080e+00,144,-28,-114
-1.7076e+00,140,-24,-114
-1.7072e+00,140,-28,-114
-1.7068e+00,144,-32,-114
-1.7064e+00,140,-28,-110
-1.7060e+00,144,-36,-110
-1.7056e+00,140,-28,-110
-1.7052e+00,136,-32,-114
-1.7048e+00,136,-32,-106
-1.7044e+00,140,-32,-110
-1.7040e+00,140,-32,-110
-1.7036e+00,140,-32,-110
-1.7032e+00,140,-28,-110
-1.7028e+00,140,-32,-106
-1.7024e+00,140,-32,-106
-1.7020e+00,144,-36,-106
-1.7016e+00,144,-32,-106
-1.7012e+00,144,-32,-106
-1.7008e+00,140,-36,-106
-1.7004e+00,152,-40,-110
-1.7000e+00,152,-40,-102
-1.6996e+00,148,-36,-110
-1.6992e+00,152,-44,-106
-1.6988e+00,148,-40,-106
-1.6984e+00,148,-44,-106
-1.6980e+00,156,-40,-106
-1.6976e+00,148,-40,-106
-1.6972e+00,148,-40,-106
-1.6968e+00,152,-40,-102
-1.6964e+00,152,-40,-106
-1.6960e+00,152,-40,-106
-1.6956e+00,148,-40,-106
-1.6952e+00,152,-44,-102
-1.6948e+00,148,-36,-102
-1.6944e+00,148,-40,-102
-1.6940e+00,148,-44,-106
-1.6936e+00,148,-44,-102
-1.6932e+00,152,-44,-98
-1.6928e+00,148,-40,-102
-1.6924e+00,148,-44,-98
-1.6920e+00,152,-44,-102
-1.6916e+00,152,-44,-98
-1.6912e+00,144,-44,-98
-1.6908e+00,144,-48,-102
-1.6904e+00,144,-48,-102
-1.6900e+00,148,-44,-102
-1.6896e+00,140,-44,-98
-1.6892e+00,148,-48,-98
-1.6888e+00,144,-44,-98
-1.6884e+00,148,-48,-102
-1.6880e+00,144,-48,-102
-1.6876e+00,148,-52,-98
-1.6872e+00,152,-52,-94
-1.6868e+00,148,-52,-94
-1.6864e+00,144,-44,-94
-1.6860e+00,152,-48,-94
-1.6856e+00,144,-56,-90
-1.6852e+00,148,-48,-94
-1.6848e+00,152,-52,-94
-1.6844e+00,156,-52,-98
-1.6840e+00,148,-52,-98
-1.6836e+00,152,-56,-90
-1.6832e+00,152,-56,-98
-1.6828e+00,148,-56,-94
-1.6824e+00,152,-56,-94
-1.6820e+00,152,-56,-90
-1.6816e+00,156,-56,-94
-1.6812e+00,152,-60,-94
-1.6808e+00,160,-56,-94
-1.6804e+00,152,-60,-90
-1.6800e+00,152,-56,-90
-1.6796e+00,148,-56,-90
-1.6792e+00,152,-60,-90
-1.6788e+00,156,-56,-90
-1.6784e+00,156,-60,-86
-1.6780e+00,148,-60,-90
-1.6776e+00,148,-56,-90
-1.6772e+00,152,-56,-86
-1.6768e+00,148,-56,-90
-1.6764e+00,152,-60,-86
-1.6760e+00,152,-60,-82
-1.6756e+00,148,-60,-90
-1.6752e+00,148,-56,-86
-1.6748e+00,152,-60,-86
-1.6744e+00,152,-60,-86
-1.6740e+00,148,-60,-82
-1.6736e+00,144,-60,-86
-1.6732e+00,148,-64,-86
-1.6728e+00,152,-64,-82
-1.6724e+00,152,-64,-86
