Tests/20190522_FOC_integrationTest/tests210519/tek0016.csv

Model,DPO4054B
Firmware Version,2.90

Waveform Type,ANALOG,,
Point Format,Y,,
Horizontal Units,s,,
Horizontal Scale,0.2,,
Horizontal Delay,0,,
Sample Interval,0.0002,,
Record Length,10000,,
Gating,0.0% to 100.0%,,
Probe Attenuation,50,,
Vertical Units,A,,
Vertical Offset,0,,
Vertical Scale,100,,
Vertical Position,0,,
,,,
,,,
,,,
Label,,,
TIME,CH2,CH3,CH4
-1.000e+00,-52,150,-98
-9.998e-01,-48,154,-102
-9.996e-01,-52,150,-102
-9.994e-01,-52,154,-98
-9.992e-01,-48,150,-98
-9.990e-01,-52,154,-98
-9.988e-01,-52,150,-98
-9.986e-01,-48,154,-102
-9.984e-01,-48,150,-98
-9.982e-01,-48,154,-102
-9.980e-01,-48,150,-102
-9.978e-01,-48,150,-98
-9.976e-01,-44,154,-98
-9.974e-01,-48,146,-98
-9.972e-01,-48,146,-98
-9.970e-01,-48,146,-98
-9.968e-01,-52,150,-98
-9.966e-01,-52,146,-94
-9.964e-01,-44,150,-102
-9.962e-01,-48,150,-98
-9.960e-01,-48,154,-94
-9.958e-01,-48,150,-94
-9.956e-01,-52,150,-94
-9.954e-01,-52,154,-94
-9.952e-01,-48,150,-98
-9.950e-01,-48,150,-90
-9.948e-01,-48,146,-98
-9.946e-01,-48,150,-98
-9.944e-01,-52,146,-94
-9.942e-01,-48,150,-94
-9.940e-01,-48,150,-94
-9.938e-01,-52,150,-94
-9.936e-01,-52,150,-90
-9.934e-01,-48,146,-94
-9.932e-01,-52,150,-90
-9.930e-01,-56,146,-94
-9.928e-01,-48,150,-94
-9.926e-01,-52,150,-94
-9.924e-01,-52,146,-94
-9.922e-01,-52,150,-90
-9.920e-01,-56,146,-94
-9.918e-01,-48,150,-94
-9.916e-01,-52,146,-94
-9.914e-01,-56,146,-90
-9.912e-01,-56,154,-98
-9.910e-01,-48,150,-94
-9.908e-01,-52,146,-90
-9.906e-01,-52,146,-90
-9.904e-01,-52,150,-94
-9.902e-01,-52,150,-90
-9.900e-01,-52,146,-90
-9.898e-01,-48,146,-98
-9.896e-01,-52,150,-90
-9.894e-01,-52,142,-90
-9.892e-01,-52,146,-90
-9.890e-01,-56,146,-94
-9.888e-01,-56,150,-94
-9.886e-01,-52,146,-90
-9.884e-01,-48,150,-94
-9.882e-01,-56,150,-94
-9.880e-01,-52,150,-90
-9.878e-01,-52,150,-90
-9.876e-01,-56,146,-98
-9.874e-01,-56,146,-90
-9.872e-01,-56,146,-90
-9.870e-01,-52,150,-86
-9.868e-01,-56,150,-90
-9.866e-01,-52,150,-90
-9.864e-01,-60,150,-90
-9.862e-01,-56,146,-94
-9.860e-01,-56,154,-94
-9.858e-01,-56,150,-94
-9.856e-01,-56,150,-90
-9.854e-01,-56,154,-94
-9.852e-01,-60,154,-94
-9.850e-01,-60,154,-94
-9.848e-01,-60,158,-94
-9.846e-01,-56,154,-98
-9.844e-01,-60,154,-90
-9.842e-01,-56,154,-90
-9.840e-01,-56,158,-98
-9.838e-01,-60,154,-94
-9.836e-01,-60,158,-90
-9.834e-01,-56,154,-94
-9.832e-01,-60,154,-90
-9.830e-01,-60,154,-90
-9.828e-01,-60,154,-90
-9.826e-01,-60,154,-90
-9.824e-01,-60,154,-90
-9.822e-01,-56,154,-90
-9.820e-01,-56,154,-90
-9.818e-01,-56,146,-90
-9.816e-01,-60,150,-90
-9.814e-01,-56,154,-90
-9.812e-01,-60,150,-94
-9.810e-01,-60,150,-94
-9.808e-01,-60,150,-86
-9.806e-01,-56,150,-90
-9.804e-01,-56,154,-90
-9.802e-01,-56,146,-90
-9.800e-01,-60,150,-90
-9.798e-01,-60,154,-90
-9.796e-01,-60,154,-82
-9.794e-01,-60,154,-90
-9.792e-01,-60,150,-90
-9.790e-01,-60,154,-90
-9.788e-01,-60,150,-86
-9.786e-01,-60,150,-90
-9.784e-01,-60,150,-90
-9.782e-01,-60,150,-86
-9.780e-01,-60,150,-82
-9.778e-01,-60,150,-86
-9.776e-01,-60,154,-90
-9.774e-01,-60,150,-86
-9.772e-01,-56,154,-86
-9.770e-01,-64,150,-90
-9.768e-01,-64,150,-86
-9.766e-01,-60,150,-90
-9.764e-01,-60,150,-90
-9.762e-01,-60,146,-86
-9.760e-01,-64,154,-82
-9.758e-01,-60,146,-86
-9.756e-01,-64,150,-86
-9.754e-01,-64,150,-86
-9.752e-01,-60,154,-82
-9.750e-01,-60,150,-86
-9.748e-01,-60,150,-86
-9.746e-01,-64,146,-86
-9.744e-01,-64,146,-82
-9.742e-01,-64,150,-86
-9.740e-01,-60,146,-86
-9.738e-01,-60,146,-86
-9.736e-01,-56,150,-82
-9.734e-01,-60,146,-82
-9.732e-01,-60,150,-86
-9.730e-01,-60,150,-90
-9.728e-01,-64,150,-86
-9.726e-01,-60,150,-86
-9.724e-01,-64,146,-86
-9.722e-01,-56,146,-82
-9.720e-01,-64,150,-78
-9.718e-01,-64,146,-82
-9.716e-01,-64,150,-82
-9.714e-01,-60,150,-82
-9.712e-01,-64,146,-78
-9.710e-01,-64,146,-78
-9.708e-01,-64,150,-82
-9.706e-01,-60,146,-82
-9.704e-01,-64,146,-82
-9.702e-01,-64,150,-78
-9.700e-01,-68,150,-86
-9.698e-01,-64,150,-82
-9.696e-01,-68,158,-82
-9.694e-01,-60,154,-78
-9.692e-01,-64,154,-86
-9.690e-01,-64,154,-82
-9.688e-01,-64,154,-82
-9.686e-01,-68,154,-78
-9.684e-01,-72,158,-86
-9.682e-01,-68,158,-86
-9.680e-01,-64,154,-86
-9.678e-01,-68,154,-86
-9.676e-01,-68,158,-78
-9.674e-01,-68,154,-82
-9.672e-01,-64,154,-82
-9.670e-01,-72,158,-78
-9.668e-01,-68,154,-82
-9.666e-01,-68,154,-86
-9.664e-01,-68,154,-78
-9.662e-01,-68,154,-78
-9.660e-01,-64,154,-82
-9.658e-01,-68,158,-82
-9.656e-01,-72,154,-78
-9.654e-01,-64,158,-78
-9.652e-01,-68,154,-78
-9.650e-01,-72,150,-82
-9.648e-01,-68,154,-82
-9.646e-01,-68,154,-82
-9.644e-01,-64,154,-78
-9.642e-01,-68,158,-78
-9.640e-01,-64,154,-78
-9.638e-01,-68,158,-82
-9.636e-01,-68,154,-78
-9.634e-01,-72,154,-78
-9.632e-01,-68,158,-78
-9.630e-01,-68,150,-78
-9.628e-01,-72,150,-82
-9.626e-01,-68,158,-90
-9.624e-01,-68,150,-78
-9.622e-01,-68,154,-74
-9.620e-01,-68,154,-78
-9.618e-01,-72,154,-78
-9.616e-01,-68,154,-78
-9.614e-01,-68,154,-78
-9.612e-01,-72,150,-78
-9.610e-01,-72,154,-78
-9.608e-01,-72,150,-78
-9.606e-01,-68,154,-74
-9.604e-01,-64,150,-74
-9.602e-01,-68,150,-74
-9.600e-01,-72,154,-82
-9.598e-01,-72,150,-74
-9.596e-01,-68,150,-74
-9.594e-01,-72,150,-74
-9.592e-01,-68,150,-74
-9.590e-01,-72,150,-74
-9.588e-01,-72,146,-78
-9.586e-01,-72,154,-78
-9.584e-01,-68,150,-74
-9.582e-01,-68,154,-78
-9.580e-01,-72,154,-78
-9.578e-01,-68,150,-74
-9.576e-01,-68,150,-78
-9.574e-01,-72,150,-74
-9.572e-01,-72,146,-74
-9.570e-01,-76,150,-74
-9.568e-01,-72,146,-70
-9.566e-01,-72,150,-74
-9.564e-01,-68,150,-70
-9.562e-01,-68,150,-78
-9.560e-01,-76,150,-74
-9.558e-01,-72,146,-74
-9.556e-01,-68,150,-74
-9.554e-01,-68,150,-74
-9.552e-01,-76,146,-70
-9.550e-01,-68,146,-70
-9.548e-01,-68,146,-74
-9.546e-01,-68,154,-70
-9.544e-01,-72,150,-70
-9.542e-01,-72,146,-74
-9.540e-01,-68,146,-70
-9.538e-01,-68,146,-74
-9.536e-01,-76,150,-70
-9.534e-01,-68,150,-70
-9.532e-01,-72,150,-74
-9.530e-01,-72,154,-74
-9.528e-01,-72,158,-74
-9.526e-01,-76,154,-70
-9.524e-01,-72,154,-74
-9.522e-01,-76,154,-74
-9.520e-01,-76,150,-70
-9.518e-01,-76,158,-74
-9.516e-01,-76,154,-78
-9.514e-01,-80,158,-74
-9.512e-01,-72,158,-74
-9.510e-01,-80,158,-74
-9.508e-01,-76,158,-74
-9.506e-01,-76,158,-70
-9.504e-01,-76,158,-74
-9.502e-01,-80,150,-70
-9.500e-01,-72,154,-66
-9.498e-01,-76,154,-70
-9.496e-01,-76,154,-70
-9.494e-01,-76,158,-70
-9.492e-01,-76,154,-70
-9.490e-01,-76,154,-70
-9.488e-01,-80,154,-70
-9.486e-01,-76,154,-78
-9.484e-01,-76,154,-70
-9.482e-01,-80,154,-74
-9.480e-01,-76,154,-70
-9.478e-01,-76,154,-66
-9.476e-01,-80,158,-70
-9.474e-01,-80,154,-74
-9.472e-01,-84,150,-70
-9.470e-01,-76,154,-70
-9.468e-01,-80,154,-70
-9.466e-01,-76,154,-66
-9.464e-01,-84,154,-70
-9.462e-01,-76,154,-70
-9.460e-01,-84,150,-66
-9.458e-01,-76,150,-74
-9.456e-01,-76,154,-70
-9.454e-01,-80,150,-62
-9.452e-01,-76,150,-70
-9.450e-01,-80,150,-70
-9.448e-01,-80,150,-66
-9.446e-01,-76,146,-66
-9.444e-01,-76,150,-70
-9.442e-01,-80,150,-70
-9.440e-01,-80,154,-66
-9.438e-01,-80,150,-66
-9.436e-01,-76,146,-70
-9.434e-01,-80,150,-62
-9.432e-01,-80,154,-70
-9.430e-01,-76,154,-70
-9.428e-01,-76,150,-70
-9.426e-01,-76,150,-66
-9.424e-01,-80,154,-66
-9.422e-01,-80,150,-70
-9.420e-01,-84,154,-66
-9.418e-01,-76,158,-66
-9.416e-01,-80,154,-66
-9.414e-01,-76,154,-66
-9.412e-01,-76,150,-66
-9.410e-01,-76,146,-66
-9.408e-01,-80,154,-66
-9.406e-01,-80,150,-66
-9.404e-01,-76,146,-66
-9.402e-01,-76,146,-62
-9.400e-01,-84,150,-62
-9.398e-01,-76,146,-62
-9.396e-01,-84,150,-62
-9.394e-01,-80,150,-66
-9.392e-01,-76,146,-62
-9.390e-01,-80,150,-62
-9.388e-01,-80,150,-58
-9.386e-01,-80,150,-66
-9.384e-01,-76,150,-62
-9.382e-01,-84,146,-62
-9.380e-01,-76,146,-66
-9.378e-01,-80,150,-62
-9.376e-01,-80,146,-66
-9.374e-01,-80,146,-62
-9.372e-01,-80,146,-62
-9.370e-01,-80,150,-62
-9.368e-01,-84,150,-62
-9.366e-01,-84,150,-66
-9.364e-01,-88,154,-70
-9.362e-01,-84,154,-62
-9.360e-01,-88,150,-66
-9.358e-01,-84,154,-66
-9.356e-01,-84,150,-62
-9.354e-01,-84,150,-66
-9.352e-01,-88,154,-66
-9.350e-01,-88,158,-66
-9.348e-01,-88,158,-62
-9.346e-01,-88,154,-62
-9.344e-01,-88,158,-62
-9.342e-01,-84,154,-62
-9.340e-01,-88,154,-66
-9.338e-01,-84,150,-62
-9.336e-01,-88,154,-66
-9.334e-01,-88,154,-62
-9.332e-01,-88,150,-62
-9.330e-01,-84,154,-62
-9.328e-01,-84,150,-62
-9.326e-01,-88,154,-62
-9.324e-01,-84,154,-58
-9.322e-01,-88,150,-62
-9.320e-01,-88,150,-58
-9.318e-01,-88,154,-58
-9.316e-01,-88,154,-58
-9.314e-01,-88,154,-62
-9.312e-01,-84,154,-62
-9.310e-01,-92,154,-62
-9.308e-01,-88,154,-58
-9.306e-01,-88,154,-58
-9.304e-01,-88,150,-58
-9.302e-01,-88,154,-58
-9.300e-01,-88,154,-58
-9.298e-01,-84,150,-58
-9.296e-01,-84,154,-58
-9.294e-01,-88,146,-58
-9.292e-01,-88,154,-58
-9.290e-01,-88,154,-62
-9.288e-01,-84,150,-58
-9.286e-01,-88,150,-58
-9.284e-01,-88,154,-58
-9.282e-01,-84,154,-62
-9.280e-01,-88,150,-62
-9.278e-01,-88,154,-58
-9.276e-01,-84,150,-58
-9.274e-01,-92,154,-58
-9.272e-01,-88,150,-58
-9.270e-01,-88,150,-58
-9.268e-01,-88,150,-58
-9.266e-01,-88,146,-54
-9.264e-01,-88,150,-58
-9.262e-01,-88,150,-58
-9.260e-01,-88,150,-58
-9.258e-01,-88,154,-62
-9.256e-01,-88,150,-58
-9.254e-01,-88,150,-58
-9.252e-01,-88,150,-58
-9.250e-01,-84,150,-58
-9.248e-01,-88,150,-54
-9.246e-01,-88,146,-58
-9.244e-01,-88,150,-58
-9.242e-01,-88,150,-54
-9.240e-01,-88,150,-54
-9.238e-01,-88,146,-54
-9.236e-01,-88,146,-58
-9.234e-01,-92,146,-58
-9.232e-01,-88,142,-54
-9.230e-01,-92,146,-54
-9.228e-01,-92,150,-58
-9.226e-01,-88,150,-50
-9.224e-01,-88,146,-58
-9.222e-01,-88,150,-54
-9.220e-01,-92,146,-54
-9.218e-01,-92,150,-54
-9.216e-01,-88,146,-58
-9.214e-01,-88,150,-54
-9.212e-01,-92,146,-54
-9.210e-01,-88,146,-54
-9.208e-01,-88,150,-54
-9.206e-01,-88,154,-54
-9.204e-01,-92,146,-50
-9.202e-01,-84,150,-58
-9.200e-01,-88,150,-54
-9.198e-01,-92,146,-54
-9.196e-01,-92,150,-58
-9.194e-01,-92,154,-58
-9.192e-01,-92,154,-50
-9.190e-01,-92,150,-54
-9.188e-01,-92,154,-50
-9.186e-01,-92,150,-54
-9.184e-01,-92,150,-54
-9.182e-01,-96,154,-54
-9.180e-01,-96,158,-50
-9.178e-01,-100,158,-54
-9.176e-01,-96,154,-54
-9.174e-01,-100,150,-58
-9.172e-01,-96,150,-50
-9.170e-01,-96,150,-50
-9.168e-01,-96,154,-54
-9.166e-01,-96,158,-50
-9.164e-01,-96,154,-54
-9.162e-01,-100,154,-50
-9.160e-01,-96,154,-50
-9.158e-01,-100,154,-54
-9.156e-01,-92,154,-50
-9.154e-01,-96,154,-50
-9.152e-01,-92,150,-54
-9.150e-01,-96,150,-58
-9.148e-01,-96,150,-50
-9.146e-01,-96,150,-50
-9.144e-01,-96,150,-54
-9.142e-01,-96,146,-54
-9.140e-01,-100,150,-54
-9.138e-01,-96,150,-50
-9.136e-01,-96,150,-50
-9.134e-01,-100,154,-46
-9.132e-01,-96,146,-46
-9.130e-01,-96,146,-54
-9.128e-01,-96,154,-54
-9.126e-01,-100,150,-54
-9.124e-01,-96,154,-50
-9.122e-01,-96,150,-50
-9.120e-01,-96,150,-46
-9.118e-01,-96,150,-50
-9.116e-01,-96,146,-50
-9.114e-01,-96,150,-46
-9.112e-01,-96,154,-46
-9.110e-01,-100,150,-50
-9.108e-01,-96,150,-50
-9.106e-01,-96,146,-46
-9.104e-01,-100,146,-50
-9.102e-01,-100,150,-50
-9.100e-01,-100,150,-46
-9.098e-01,-96,150,-50
-9.096e-01,-100,146,-46
-9.094e-01,-96,150,-50
-9.092e-01,-96,150,-42
-9.090e-01,-100,146,-46
-9.088e-01,-96,150,-46
-9.086e-01,-96,150,-46
-9.084e-01,-96,150,-46
-9.082e-01,-96,146,-46
-9.080e-01,-100,150,-50
-9.078e-01,-100,150,-50
-9.076e-01,-96,150,-50
-9.074e-01,-96,146,-46
-9.072e-01,-100,150,-46
-9.070e-01,-96,146,-46
-9.068e-01,-96,142,-42
-9.066e-01,-96,146,-46
-9.064e-01,-92,146,-46
-9.062e-01,-100,142,-42
-9.060e-01,-96,146,-42
-9.058e-01,-100,146,-42
-9.056e-01,-100,146,-42
-9.054e-01,-96,146,-42
-9.052e-01,-96,146,-46
-9.050e-01,-100,146,-46
-9.048e-01,-96,150,-42
-9.046e-01,-92,146,-42
-9.044e-01,-96,146,-46
-9.042e-01,-96,146,-42
-9.040e-01,-100,142,-46
-9.038e-01,-100,146,-42
-9.036e-01,-100,142,-42
-9.034e-01,-96,146,-46
-9.032e-01,-92,146,-38
-9.030e-01,-96,142,-42
-9.028e-01,-100,142,-38
-9.026e-01,-104,150,-42
-9.024e-01,-104,146,-42
-9.022e-01,-104,146,-42
-9.020e-01,-104,146,-42
-9.018e-01,-100,146,-46
-9.016e-01,-100,150,-38
-9.014e-01,-108,150,-42
-9.012e-01,-108,150,-42
-9.010e-01,-108,154,-46
-9.008e-01,-104,154,-50
-9.006e-01,-100,150,-42
-9.004e-01,-108,150,-42
-9.002e-01,-104,154,-42
-9.000e-01,-104,154,-42
-8.998e-01,-104,154,-42
-8.996e-01,-104,154,-42
-8.994e-01,-100,146,-38
-8.992e-01,-108,150,-42
-8.990e-01,-104,150,-42
-8.988e-01,-104,150,-38
-8.986e-01,-104,150,-42
-8.984e-01,-104,146,-42
-8.982e-01,-104,146,-38
-8.980e-01,-104,146,-42
-8.978e-01,-104,150,-38
-8.976e-01,-104,150,-42
-8.974e-01,-108,150,-38
-8.972e-01,-108,154,-38
-8.970e-01,-108,150,-38
-8.968e-01,-108,146,-38
-8.966e-01,-108,146,-42
-8.964e-01,-108,146,-38
-8.962e-01,-108,146,-38
-8.960e-01,-104,150,-38
-8.958e-01,-108,150,-38
-8.956e-01,-104,146,-42
-8.954e-01,-100,142,-38
-8.952e-01,-104,146,-38
-8.950e-01,-108,146,-38
-8.948e-01,-108,146,-38
-8.946e-01,-104,146,-38
-8.944e-01,-108,146,-34
-8.942e-01,-104,146,-38
-8.940e-01,-108,150,-42
-8.938e-01,-108,150,-34
-8.936e-01,-108,142,-38
-8.934e-01,-100,146,-34
-8.932e-01,-108,146,-38
-8.930e-01,-104,154,-34
-8.928e-01,-108,142,-38
-8.926e-01,-108,146,-34
-8.924e-01,-104,142,-38
-8.922e-01,-104,142,-38
-8.920e-01,-108,146,-34
-8.918e-01,-104,146,-34
-8.916e-01,-108,146,-34
-8.914e-01,-108,146,-38
-8.912e-01,-104,146,-34
-8.910e-01,-108,142,-34
-8.908e-01,-108,142,-34
-8.906e-01,-108,146,-38
-8.904e-01,-108,142,-30
-8.902e-01,-100,146,-34
-8.900e-01,-104,150,-34
-8.898e-01,-104,142,-38
-8.896e-01,-104,146,-30
-8.894e-01,-108,138,-30
-8.892e-01,-100,146,-34
-8.890e-01,-112,142,-34
-8.888e-01,-104,146,-30
-8.886e-01,-104,146,-30
-8.884e-01,-104,142,-34
-8.882e-01,-108,142,-34
-8.880e-01,-104,142,-34
-8.878e-01,-104,142,-30
-8.876e-01,-104,138,-38
-8.874e-01,-104,142,-30
-8.872e-01,-104,138,-34
-8.870e-01,-108,142,-34
-8.868e-01,-108,146,-30
-8.866e-01,-108,138,-30
-8.864e-01,-100,146,-38
-8.862e-01,-104,146,-30
-8.860e-01,-108,146,-30
-8.858e-01,-108,146,-34
-8.856e-01,-108,142,-34
-8.854e-01,-112,146,-34
-8.852e-01,-108,150,-34
-8.850e-01,-108,146,-30
-8.848e-01,-112,146,-30
-8.846e-01,-112,146,-30
-8.844e-01,-112,146,-26
-8.842e-01,-112,150,-34
-8.840e-01,-116,146,-34
-8.838e-01,-116,146,-30
-8.836e-01,-116,150,-30
-8.834e-01,-112,146,-30
-8.832e-01,-120,154,-30
-8.830e-01,-116,150,-26
-8.828e-01,-116,146,-30
-8.826e-01,-116,146,-26
-8.824e-01,-112,146,-26
-8.822e-01,-112,150,-26
-8.820e-01,-112,146,-34
-8.818e-01,-112,142,-26
-8.816e-01,-112,146,-26
-8.814e-01,-112,146,-30
-8.812e-01,-112,146,-26
-8.810e-01,-112,150,-30
-8.808e-01,-108,146,-30
-8.806e-01,-108,146,-30
-8.804e-01,-112,146,-26
-8.802e-01,-112,142,-26
-8.800e-01,-112,146,-30
-8.798e-01,-112,146,-30
-8.796e-01,-112,142,-30
-8.794e-01,-112,146,-30
-8.792e-01,-116,142,-26
-8.790e-01,-112,146,-26
-8.788e-01,-116,142,-26
-8.786e-01,-116,146,-26
-8.784e-01,-112,142,-26
-8.782e-01,-112,142,-30
-8.780e-01,-116,142,-30
-8.778e-01,-112,150,-26
-8.776e-01,-112,142,-26
-8.774e-01,-108,142,-26
-8.772e-01,-112,142,-26
-8.770e-01,-116,142,-30
-8.768e-01,-108,142,-26
-8.766e-01,-112,142,-26
-8.764e-01,-116,142,-26
-8.762e-01,-112,142,-26
-8.760e-01,-112,146,-26
-8.758e-01,-112,142,-22
-8.756e-01,-116,138,-30
-8.754e-01,-112,142,-26
-8.752e-01,-112,142,-18
-8.750e-01,-112,142,-26
-8.748e-01,-116,138,-22
-8.746e-01,-112,142,-26
-8.744e-01,-104,142,-22
-8.742e-01,-108,142,-18
-8.740e-01,-116,138,-22
-8.738e-01,-112,134,-22
-8.736e-01,-112,138,-22
-8.734e-01,-120,142,-26
-8.732e-01,-112,138,-26
-8.730e-01,-116,142,-26
-8.728e-01,-112,142,-26
-8.726e-01,-112,146,-22
-8.724e-01,-112,142,-26
-8.722e-01,-112,142,-18
-8.720e-01,-112,134,-22
-8.718e-01,-116,142,-26
-8.716e-01,-116,142,-30
-8.714e-01,-112,142,-22
-8.712e-01,-112,142,-26
-8.710e-01,-108,134,-18
-8.708e-01,-112,142,-22
-8.706e-01,-112,142,-22
-8.704e-01,-116,138,-22
-8.702e-01,-112,138,-22
-8.700e-01,-112,142,-18
-8.698e-01,-116,138,-18
-8.696e-01,-112,138,-18
-8.694e-01,-116,138,-22
-8.692e-01,-116,142,-22
-8.690e-01,-116,142,-18
-8.688e-01,-120,146,-22
-8.686e-01,-120,146,-22
-8.684e-01,-116,138,-22
-8.682e-01,-116,142,-18
-8.680e-01,-120,142,-18
-8.678e-01,-124,146,-18
-8.676e-01,-120,142,-18
-8.674e-01,-120,146,-22
-8.672e-01,-124,146,-18
-8.670e-01,-120,146,-22
-8.668e-01,-120,146,-18
-8.666e-01,-128,146,-18
-8.664e-01,-120,142,-22
-8.662e-01,-120,146,-18
-8.660e-01,-120,142,-18
-8.658e-01,-120,142,-18
-8.656e-01,-120,142,-22
-8.654e-01,-120,142,-18
-8.652e-01,-120,146,-18
-8.650e-01,-124,138,-18
-8.648e-01,-124,138,-18
-8.646e-01,-120,142,-18
-8.644e-01,-120,142,-14
-8.642e-01,-120,138,-18
-8.640e-01,-120,138,-18
-8.638e-01,-120,142,-14
-8.636e-01,-120,142,-18
-8.634e-01,-120,142,-18
-8.632e-01,-120,146,-18
-8.630e-01,-116,146,-18
-8.628e-01,-120,142,-18
-8.626e-01,-120,138,-14
-8.624e-01,-120,142,-14
-8.622e-01,-120,142,-18
-8.620e-01,-116,142,-18
-8.618e-01,-124,138,-14
-8.616e-01,-124,138,-14
-8.614e-01,-120,134,-14
-8.612e-01,-120,142,-18
-8.610e-01,-120,138,-18
-8.608e-01,-120,134,-14
-8.606e-01,-120,138,-18
-8.604e-01,-120,138,-14
-8.602e-01,-120,138,-18
-8.600e-01,-124,138,-14
-8.598e-01,-124,142,-10
-8.596e-01,-120,138,-10
-8.594e-01,-124,134,-14
-8.592e-01,-120,138,-18
-8.590e-01,-120,138,-18
-8.588e-01,-124,138,-18
-8.586e-01,-120,138,-14
-8.584e-01,-120,138,-14
-8.582e-01,-120,142,-14
-8.580e-01,-120,138,-14
-8.578e-01,-120,134,-14
-8.576e-01,-120,134,-14
-8.574e-01,-120,134,-10
-8.572e-01,-124,138,-10
-8.570e-01,-124,134,-10
-8.568e-01,-120,134,-14
-8.566e-01,-120,138,-10
-8.564e-01,-120,134,-14
-8.562e-01,-116,134,-14
-8.560e-01,-120,134,-14
-8.558e-01,-120,134,-14
-8.556e-01,-120,138,-10
-8.554e-01,-120,134,-10
-8.552e-01,-120,134,-14
-8.550e-01,-120,138,-10
-8.548e-01,-116,134,-10
-8.546e-01,-120,134,-14
-8.544e-01,-116,134,-10
-8.542e-01,-120,138,-14
-8.540e-01,-116,138,-10
-8.538e-01,-120,138,-10
-8.536e-01,-120,138,-6
-8.534e-01,-120,134,-14
-8.532e-01,-116,134,-10
-8.530e-01,-116,138,-10
-8.528e-01,-120,134,-10
-8.526e-01,-124,138,-14
-8.524e-01,-128,142,-14
-8.522e-01,-120,138,-10
-8.520e-01,-124,134,-10
-8.518e-01,-128,134,-6
-8.516e-01,-124,138,-6
-8.514e-01,-128,138,-6
-8.512e-01,-128,142,-6
-8.510e-01,-128,142,-10
-8.508e-01,-132,142,-10
-8.506e-01,-128,142,-10
-8.504e-01,-128,146,-10
-8.502e-01,-128,134,-6
-8.500e-01,-128,138,-6
-8.498e-01,-128,138,-6
-8.496e-01,-128,138,-10
-8.494e-01,-124,142,-6
-8.492e-01,-128,142,-10
-8.490e-01,-124,138,-10
-8.488e-01,-124,138,-6
-8.486e-01,-128,142,-6
-8.484e-01,-128,138,-10
-8.482e-01,-128,134,-6
-8.480e-01,-128,134,-10
-8.478e-01,-128,138,-10
-8.476e-01,-132,138,-6
-8.474e-01,-124,134,-6
-8.472e-01,-128,134,-6
-8.470e-01,-128,134,-10
-8.468e-01,-124,138,-10
-8.466e-01,-128,138,-6
-8.464e-01,-124,134,-10
-8.462e-01,-124,134,-10
-8.460e-01,-128,138,-6
-8.458e-01,-124,142,-10
-8.456e-01,-124,138,-2
-8.454e-01,-124,138,-2
-8.452e-01,-128,134,-6
-8.450e-01,-128,134,-10
-8.448e-01,-124,134,-2
-8.446e-01,-124,138,-6
-8.444e-01,-124,134,-6
-8.442e-01,-124,134,-6
-8.440e-01,-128,134,-6
-8.438e-01,-128,134,-6
-8.436e-01,-124,134,-6
-8.434e-01,-128,138,-2
-8.432e-01,-128,134,-6
-8.430e-01,-128,134,-6
-8.428e-01,-128,134,-2
-8.426e-01,-128,130,-2
-8.424e-01,-128,134,-6
-8.422e-01,-124,134,-2
-8.420e-01,-124,134,-6
-8.418e-01,-128,134,-2
-8.416e-01,-124,134,-6
-8.414e-01,-124,134,-6
-8.412e-01,-128,134,-2
-8.410e-01,-124,138,-6
-8.408e-01,-128,134,-6
-8.406e-01,-128,130,-6
-8.404e-01,-124,134,-6
-8.402e-01,-128,134,-6
-8.400e-01,-128,130,-2
-8.398e-01,-124,134,-2
-8.396e-01,-124,130,-2
-8.394e-01,-128,134,-6
-8.392e-01,-128,130,-2
-8.390e-01,-128,134,-6
-8.388e-01,-128,134,-2
-8.386e-01,-120,134,-2
-8.384e-01,-128,130,-2
-8.382e-01,-132,134,-2
-8.380e-01,-124,134,-2
-8.378e-01,-132,134,2
-8.376e-01,-128,130,-2
-8.374e-01,-124,130,-2
-8.372e-01,-128,130,-2
-8.370e-01,-124,126,-2
-8.368e-01,-124,126,-2
-8.366e-01,-124,130,-2
-8.364e-01,-124,126,-2
-8.362e-01,-128,130,-2
-8.360e-01,-128,130,-2
-8.358e-01,-128,134,-2
-8.356e-01,-132,134,-2
-8.354e-01,-128,134,-2
-8.352e-01,-136,134,-2
-8.350e-01,-132,134,2
-8.348e-01,-136,134,2
-8.346e-01,-132,134,2
-8.344e-01,-132,138,2
-8.342e-01,-132,134,-2
-8.340e-01,-132,134,-2
-8.338e-01,-132,130,2
-8.336e-01,-136,134,2
-8.334e-01,-132,134,2
-8.332e-01,-132,138,-2
-8.330e-01,-128,134,2
-8.328e-01,-132,134,2
-8.326e-01,-128,134,-2
-8.324e-01,-136,134,-2
-8.322e-01,-132,134,2
-8.320e-01,-136,134,2
