Tests/2019_05_22_FOC_Tests/TorqueSteadyState/tek0001.csv

Model,DPO4054B
Firmware Version,2.90

Waveform Type,ANALOG,,
Point Format,Y,,
Horizontal Units,s,,
Horizontal Scale,0.02,,
Horizontal Delay,0,,
Sample Interval,2e-05,,
Record Length,10000,,
Gating,0.0% to 100.0%,,
Probe Attenuation,50,,
Vertical Units,A,,
Vertical Offset,0,,
Vertical Scale,100,,
Vertical Position,0,,
,,,
,,,
,,,
Label,,,
TIME,CH2,CH3,CH4
-1.000e-01,-40,154,-106
-9.998e-02,-44,150,-102
-9.996e-02,-36,150,-106
-9.994e-02,-36,150,-106
-9.992e-02,-36,142,-106
-9.990e-02,-44,150,-106
-9.988e-02,-40,154,-106
-9.986e-02,-40,154,-106
-9.984e-02,-36,150,-106
-9.982e-02,-36,150,-106
-9.980e-02,-40,154,-110
-9.978e-02,-44,154,-106
-9.976e-02,-40,150,-106
-9.974e-02,-40,146,-110
-9.972e-02,-36,146,-106
-9.970e-02,-44,150,-102
-9.968e-02,-48,150,-106
-9.966e-02,-44,150,-102
-9.964e-02,-36,146,-102
-9.962e-02,-36,146,-106
-9.960e-02,-52,154,-110
-9.958e-02,-48,154,-106
-9.956e-02,-40,150,-106
-9.954e-02,-36,150,-102
-9.952e-02,-40,146,-106
-9.950e-02,-48,154,-102
-9.948e-02,-48,150,-110
-9.946e-02,-40,150,-106
-9.944e-02,-40,146,-106
-9.942e-02,-36,146,-106
-9.940e-02,-48,154,-106
-9.938e-02,-44,154,-102
-9.936e-02,-48,154,-106
-9.934e-02,-40,150,-102
-9.932e-02,-36,146,-106
-9.930e-02,-52,150,-102
-9.928e-02,-48,154,-106
-9.926e-02,-44,146,-106
-9.924e-02,-40,146,-102
-9.922e-02,-36,146,-102
-9.920e-02,-48,158,-102
-9.918e-02,-44,154,-102
-9.916e-02,-44,154,-102
-9.914e-02,-44,150,-106
-9.912e-02,-36,146,-102
-9.910e-02,-48,154,-102
-9.908e-02,-48,154,-106
-9.906e-02,-44,154,-102
-9.904e-02,-40,146,-102
-9.902e-02,-40,146,-106
-9.900e-02,-52,158,-102
-9.898e-02,-52,154,-102
-9.896e-02,-40,150,-102
-9.894e-02,-40,146,-102
-9.892e-02,-44,146,-106
-9.890e-02,-48,154,-106
-9.888e-02,-44,154,-106
-9.886e-02,-44,154,-102
-9.884e-02,-40,150,-106
-9.882e-02,-44,142,-106
-9.880e-02,-52,158,-98
-9.878e-02,-52,154,-102
-9.876e-02,-48,154,-106
-9.874e-02,-44,150,-102
-9.872e-02,-44,142,-102
-9.870e-02,-52,162,-102
-9.868e-02,-48,158,-102
-9.866e-02,-44,154,-106
-9.864e-02,-44,150,-102
-9.862e-02,-44,146,-102
-9.860e-02,-52,162,-102
-9.858e-02,-48,154,-102
-9.856e-02,-48,150,-102
-9.854e-02,-44,150,-102
-9.852e-02,-44,150,-102
-9.850e-02,-56,158,-98
-9.848e-02,-52,158,-102
-9.846e-02,-48,154,-102
-9.844e-02,-44,146,-102
-9.842e-02,-40,146,-102
-9.840e-02,-56,166,-106
-9.838e-02,-52,150,-98
-9.836e-02,-48,154,-98
-9.834e-02,-44,150,-102
-9.832e-02,-44,150,-102
-9.830e-02,-52,162,-102
-9.828e-02,-56,154,-98
-9.826e-02,-48,154,-98
-9.824e-02,-48,150,-102
-9.822e-02,-40,150,-98
-9.820e-02,-56,158,-98
-9.818e-02,-52,158,-98
-9.816e-02,-48,150,-106
-9.814e-02,-44,154,-98
-9.812e-02,-44,154,-106
-9.810e-02,-52,158,-102
-9.808e-02,-48,158,-102
-9.806e-02,-52,154,-102
-9.804e-02,-44,150,-102
-9.802e-02,-48,150,-106
-9.800e-02,-56,158,-98
-9.798e-02,-48,158,-98
-9.796e-02,-48,154,-102
-9.794e-02,-52,154,-98
-9.792e-02,-48,154,-102
-9.790e-02,-56,162,-98
-9.788e-02,-56,154,-102
-9.786e-02,-44,150,-102
-9.784e-02,-48,146,-102
-9.782e-02,-52,154,-102
-9.780e-02,-56,158,-98
-9.778e-02,-56,154,-102
-9.776e-02,-48,154,-102
-9.774e-02,-44,146,-94
-9.772e-02,-52,154,-98
-9.770e-02,-60,158,-98
-9.768e-02,-52,158,-98
-9.766e-02,-48,150,-98
-9.764e-02,-48,150,-98
-9.762e-02,-52,154,-102
-9.760e-02,-60,158,-98
-9.758e-02,-56,162,-98
-9.756e-02,-52,154,-98
-9.754e-02,-48,150,-98
-9.752e-02,-44,154,-94
-9.750e-02,-52,158,-94
-9.748e-02,-56,154,-98
-9.746e-02,-52,154,-98
-9.744e-02,-52,154,-98
-9.742e-02,-56,154,-98
-9.740e-02,-56,158,-98
-9.738e-02,-56,154,-102
-9.736e-02,-48,154,-98
-9.734e-02,-48,154,-98
-9.732e-02,-56,154,-98
-9.730e-02,-56,158,-98
-9.728e-02,-56,154,-94
-9.726e-02,-52,150,-98
-9.724e-02,-48,150,-94
-9.722e-02,-52,158,-94
-9.720e-02,-56,162,-94
-9.718e-02,-60,154,-102
-9.716e-02,-52,154,-102
-9.714e-02,-48,146,-94
-9.712e-02,-56,154,-98
-9.710e-02,-56,158,-102
-9.708e-02,-56,158,-98
-9.706e-02,-52,158,-98
-9.704e-02,-52,154,-102
-9.702e-02,-56,154,-94
-9.700e-02,-56,158,-94
-9.698e-02,-56,154,-98
-9.696e-02,-52,154,-98
-9.694e-02,-48,150,-94
-9.692e-02,-56,154,-98
-9.690e-02,-60,158,-94
-9.688e-02,-56,154,-94
-9.686e-02,-56,150,-98
-9.684e-02,-52,150,-94
-9.682e-02,-60,158,-94
-9.680e-02,-64,154,-98
-9.678e-02,-56,150,-98
-9.676e-02,-52,154,-94
-9.674e-02,-52,150,-94
-9.672e-02,-56,154,-94
-9.670e-02,-60,158,-94
-9.668e-02,-56,158,-94
-9.666e-02,-52,154,-94
-9.664e-02,-52,150,-94
-9.662e-02,-60,154,-94
-9.660e-02,-60,158,-94
-9.658e-02,-60,154,-98
-9.656e-02,-56,158,-98
-9.654e-02,-56,154,-90
-9.652e-02,-56,154,-94
-9.650e-02,-64,154,-94
-9.648e-02,-56,154,-94
-9.646e-02,-60,158,-94
-9.644e-02,-52,146,-90
-9.642e-02,-64,158,-94
-9.640e-02,-60,158,-90
-9.638e-02,-60,154,-94
-9.636e-02,-56,154,-94
-9.634e-02,-56,154,-94
-9.632e-02,-64,154,-90
-9.630e-02,-64,158,-94
-9.628e-02,-56,158,-94
-9.626e-02,-56,154,-94
-9.624e-02,-56,154,-98
-9.622e-02,-60,162,-90
-9.620e-02,-60,154,-90
-9.618e-02,-56,154,-90
-9.616e-02,-60,154,-90
-9.614e-02,-56,154,-94
-9.612e-02,-64,158,-86
-9.610e-02,-64,158,-90
-9.608e-02,-64,158,-94
-9.606e-02,-56,154,-94
-9.604e-02,-56,154,-90
-9.602e-02,-68,162,-90
-9.600e-02,-64,158,-90
-9.598e-02,-60,158,-94
-9.596e-02,-56,150,-94
-9.594e-02,-52,150,-90
-9.592e-02,-68,162,-90
-9.590e-02,-72,158,-90
-9.588e-02,-60,158,-90
-9.586e-02,-60,154,-94
-9.584e-02,-56,146,-94
-9.582e-02,-68,158,-86
-9.580e-02,-64,158,-90
-9.578e-02,-60,162,-90
-9.576e-02,-60,150,-90
-9.574e-02,-60,154,-94
-9.572e-02,-68,162,-90
-9.570e-02,-68,158,-90
-9.568e-02,-64,154,-90
-9.566e-02,-60,150,-94
-9.564e-02,-56,150,-90
-9.562e-02,-72,158,-86
-9.560e-02,-68,162,-86
-9.558e-02,-60,154,-90
-9.556e-02,-60,154,-94
-9.554e-02,-56,150,-90
-9.552e-02,-68,162,-90
-9.550e-02,-68,154,-90
-9.548e-02,-60,158,-90
-9.546e-02,-60,154,-86
-9.544e-02,-56,154,-90
-9.542e-02,-72,162,-90
-9.540e-02,-64,158,-90
-9.538e-02,-64,158,-90
-9.536e-02,-60,150,-94
-9.534e-02,-60,154,-90
-9.532e-02,-72,166,-86
-9.530e-02,-68,162,-86
-9.528e-02,-64,158,-86
-9.526e-02,-60,154,-86
-9.524e-02,-56,154,-94
-9.522e-02,-72,166,-86
-9.520e-02,-64,158,-90
-9.518e-02,-64,154,-90
-9.516e-02,-60,150,-94
-9.514e-02,-60,158,-86
-9.512e-02,-72,162,-90
-9.510e-02,-68,158,-86
-9.508e-02,-64,158,-86
-9.506e-02,-64,154,-90
-9.504e-02,-60,154,-90
-9.502e-02,-72,162,-86
-9.500e-02,-68,158,-90
-9.498e-02,-68,158,-90
-9.496e-02,-60,154,-86
-9.494e-02,-60,158,-86
-9.492e-02,-76,158,-86
-9.490e-02,-64,158,-86
-9.488e-02,-68,158,-86
-9.486e-02,-64,154,-86
-9.484e-02,-68,158,-90
-9.482e-02,-76,158,-86
-9.480e-02,-68,162,-90
-9.478e-02,-64,154,-86
-9.476e-02,-64,154,-86
-9.474e-02,-64,158,-90
-9.472e-02,-72,158,-82
-9.470e-02,-72,158,-86
-9.468e-02,-60,158,-86
-9.466e-02,-68,150,-86
-9.464e-02,-68,158,-86
-9.462e-02,-72,166,-82
-9.460e-02,-68,158,-86
-9.458e-02,-72,158,-86
-9.456e-02,-64,150,-86
-9.454e-02,-64,154,-82
-9.452e-02,-72,162,-82
-9.450e-02,-68,158,-82
-9.448e-02,-68,154,-82
-9.446e-02,-68,158,-86
-9.444e-02,-72,158,-86
-9.442e-02,-76,162,-78
-9.440e-02,-72,158,-82
-9.438e-02,-68,154,-90
-9.436e-02,-64,154,-86
-9.434e-02,-68,154,-86
-9.432e-02,-76,162,-82
-9.430e-02,-72,158,-90
-9.428e-02,-64,154,-82
-9.426e-02,-68,154,-86
-9.424e-02,-72,158,-82
-9.422e-02,-72,158,-82
-9.420e-02,-72,158,-74
-9.418e-02,-68,154,-82
-9.416e-02,-68,158,-86
-9.414e-02,-68,158,-86
-9.412e-02,-72,166,-82
-9.410e-02,-68,158,-78
-9.408e-02,-68,158,-82
-9.406e-02,-64,150,-82
-9.404e-02,-68,162,-82
-9.402e-02,-76,158,-82
-9.400e-02,-68,158,-82
-9.398e-02,-68,154,-82
-9.396e-02,-68,150,-78
-9.394e-02,-72,162,-78
-9.392e-02,-72,162,-78
-9.390e-02,-72,162,-78
-9.388e-02,-68,154,-82
-9.386e-02,-64,150,-82
-9.384e-02,-72,158,-82
-9.382e-02,-72,158,-78
-9.380e-02,-68,158,-86
-9.378e-02,-72,154,-82
-9.376e-02,-68,154,-82
-9.374e-02,-72,158,-82
-9.372e-02,-72,162,-78
-9.370e-02,-72,158,-82
-9.368e-02,-68,154,-82
-9.366e-02,-68,154,-82
-9.364e-02,-72,158,-82
-9.362e-02,-72,162,-78
-9.360e-02,-72,158,-78
-9.358e-02,-68,158,-78
-9.356e-02,-64,150,-82
-9.354e-02,-76,154,-82
-9.352e-02,-76,158,-78
-9.350e-02,-76,158,-78
-9.348e-02,-72,158,-78
-9.346e-02,-68,154,-82
-9.344e-02,-72,158,-82
-9.342e-02,-72,162,-82
-9.340e-02,-72,154,-78
-9.338e-02,-72,154,-82
-9.336e-02,-68,154,-86
-9.334e-02,-76,158,-78
-9.332e-02,-80,158,-78
-9.330e-02,-76,154,-78
-9.328e-02,-68,154,-82
-9.326e-02,-68,154,-78
-9.324e-02,-76,158,-78
-9.322e-02,-76,158,-78
-9.320e-02,-72,154,-82
-9.318e-02,-64,158,-74
-9.316e-02,-68,150,-78
-9.314e-02,-76,158,-74
-9.312e-02,-76,162,-82
-9.310e-02,-76,158,-82
-9.308e-02,-72,154,-78
-9.306e-02,-72,154,-74
-9.304e-02,-80,158,-74
-9.302e-02,-76,162,-78
-9.300e-02,-76,154,-78
-9.298e-02,-68,150,-78
-9.296e-02,-68,150,-78
-9.294e-02,-76,158,-74
-9.292e-02,-76,162,-78
-9.290e-02,-80,158,-78
-9.288e-02,-68,154,-74
-9.286e-02,-72,150,-78
-9.284e-02,-76,158,-74
-9.282e-02,-80,158,-78
-9.280e-02,-72,154,-78
-9.278e-02,-76,154,-78
-9.276e-02,-72,154,-78
-9.274e-02,-84,162,-70
-9.272e-02,-80,158,-78
-9.270e-02,-72,158,-74
-9.268e-02,-76,154,-74
-9.266e-02,-72,150,-78
-9.264e-02,-80,154,-74
-9.262e-02,-80,154,-78
-9.260e-02,-76,158,-78
-9.258e-02,-72,150,-74
-9.256e-02,-64,150,-78
-9.254e-02,-84,154,-74
-9.252e-02,-76,158,-74
-9.250e-02,-76,158,-74
-9.248e-02,-68,154,-78
-9.246e-02,-72,154,-78
-9.244e-02,-84,158,-70
-9.242e-02,-80,154,-74
-9.240e-02,-76,154,-74
-9.238e-02,-76,154,-78
-9.236e-02,-68,150,-78
-9.234e-02,-84,158,-70
-9.232e-02,-80,158,-74
-9.230e-02,-76,154,-74
-9.228e-02,-72,150,-78
-9.226e-02,-72,154,-74
-9.224e-02,-84,162,-78
-9.222e-02,-80,158,-74
-9.220e-02,-76,158,-74
-9.218e-02,-72,150,-74
-9.216e-02,-76,150,-74
-9.214e-02,-88,166,-74
-9.212e-02,-80,158,-74
-9.210e-02,-76,162,-74
-9.208e-02,-72,150,-74
-9.206e-02,-72,154,-78
-9.204e-02,-84,162,-74
-9.202e-02,-80,162,-74
-9.200e-02,-76,158,-70
-9.198e-02,-76,154,-74
-9.196e-02,-76,154,-78
-9.194e-02,-88,158,-74
-9.192e-02,-80,162,-70
-9.190e-02,-76,158,-74
-9.188e-02,-72,150,-74
-9.186e-02,-72,150,-78
-9.184e-02,-84,162,-74
-9.182e-02,-80,158,-70
-9.180e-02,-76,150,-74
-9.178e-02,-72,154,-74
-9.176e-02,-76,154,-74
-9.174e-02,-84,162,-74
-9.172e-02,-84,158,-74
-9.170e-02,-76,158,-74
-9.168e-02,-76,150,-70
-9.166e-02,-72,158,-74
-9.164e-02,-88,158,-74
-9.162e-02,-84,154,-74
-9.160e-02,-76,158,-70
-9.158e-02,-76,150,-74
-9.156e-02,-76,154,-70
-9.154e-02,-88,162,-74
-9.152e-02,-76,154,-70
-9.150e-02,-76,150,-70
-9.148e-02,-76,150,-74
-9.146e-02,-76,154,-70
-9.144e-02,-88,158,-70
-9.142e-02,-76,154,-66
-9.140e-02,-76,154,-70
-9.138e-02,-76,154,-70
-9.136e-02,-76,154,-78
-9.134e-02,-84,158,-70
-9.132e-02,-88,158,-70
-9.130e-02,-80,154,-74
-9.128e-02,-76,150,-66
-9.126e-02,-76,158,-70
-9.124e-02,-84,158,-70
-9.122e-02,-80,158,-70
-9.120e-02,-76,158,-70
-9.118e-02,-72,150,-74
-9.116e-02,-80,158,-70
-9.114e-02,-84,154,-70
-9.112e-02,-84,158,-74
-9.110e-02,-76,150,-70
-9.108e-02,-76,154,-70
-9.106e-02,-80,158,-70
-9.104e-02,-88,162,-70
-9.102e-02,-84,158,-70
-9.100e-02,-80,150,-70
-9.098e-02,-76,154,-74
-9.096e-02,-84,154,-70
-9.094e-02,-88,154,-66
-9.092e-02,-80,158,-70
-9.090e-02,-80,154,-70
-9.088e-02,-76,150,-74
-9.086e-02,-84,154,-70
-9.084e-02,-88,158,-66
-9.082e-02,-84,158,-70
-9.080e-02,-76,154,-70
-9.078e-02,-76,154,-74
-9.076e-02,-80,154,-62
-9.074e-02,-88,158,-62
-9.072e-02,-84,158,-66
-9.070e-02,-80,154,-70
-9.068e-02,-76,150,-66
-9.066e-02,-84,158,-70
-9.064e-02,-84,158,-70
-9.062e-02,-80,154,-70
-9.060e-02,-76,154,-66
-9.058e-02,-76,146,-70
-9.056e-02,-88,158,-66
-9.054e-02,-88,158,-66
-9.052e-02,-84,154,-66
-9.050e-02,-84,150,-66
-9.048e-02,-80,150,-62
-9.046e-02,-84,158,-70
-9.044e-02,-84,158,-66
-9.042e-02,-80,158,-66
-9.040e-02,-80,150,-66
-9.038e-02,-80,154,-66
-9.036e-02,-84,158,-66
-9.034e-02,-92,158,-62
-9.032e-02,-84,154,-70
-9.030e-02,-80,150,-66
-9.028e-02,-80,150,-70
-9.026e-02,-84,154,-66
-9.024e-02,-84,158,-62
-9.022e-02,-88,154,-66
-9.020e-02,-84,150,-62
-9.018e-02,-84,150,-66
-9.016e-02,-84,162,-70
-9.014e-02,-88,158,-62
-9.012e-02,-88,158,-66
-9.010e-02,-84,158,-66
-9.008e-02,-80,150,-66
-9.006e-02,-88,158,-62
-9.004e-02,-92,158,-66
-9.002e-02,-88,154,-62
-9.000e-02,-84,150,-62
-8.998e-02,-76,150,-66
-8.996e-02,-88,154,-62
-8.994e-02,-88,158,-62
-8.992e-02,-84,154,-66
-8.990e-02,-76,150,-66
-8.988e-02,-80,150,-66
-8.986e-02,-88,158,-66
-8.984e-02,-92,158,-62
-8.982e-02,-88,154,-58
-8.980e-02,-84,158,-62
-8.978e-02,-80,150,-66
-8.976e-02,-92,154,-58
-8.974e-02,-88,158,-58
-8.972e-02,-88,158,-66
-8.970e-02,-84,150,-62
-8.968e-02,-80,150,-66
-8.966e-02,-88,154,-66
-8.964e-02,-92,158,-62
-8.962e-02,-88,150,-66
-8.960e-02,-84,150,-66
-8.958e-02,-84,146,-66
-8.956e-02,-92,158,-66
-8.954e-02,-92,158,-62
-8.952e-02,-92,158,-62
-8.950e-02,-84,154,-66
-8.948e-02,-80,150,-62
-8.946e-02,-96,158,-62
-8.944e-02,-88,154,-58
-8.942e-02,-88,154,-62
-8.940e-02,-84,154,-66
-8.938e-02,-84,150,-66
-8.936e-02,-92,158,-58
-8.934e-02,-88,158,-66
-8.932e-02,-88,158,-58
-8.930e-02,-84,154,-62
-8.928e-02,-88,146,-62
-8.926e-02,-96,158,-58
-8.924e-02,-96,154,-62
-8.922e-02,-88,154,-62
-8.920e-02,-88,154,-62
-8.918e-02,-80,146,-62
-8.916e-02,-96,154,-58
-8.914e-02,-92,158,-58
-8.912e-02,-92,154,-62
-8.910e-02,-88,150,-58
-8.908e-02,-80,150,-62
-8.906e-02,-100,154,-54
-8.904e-02,-92,162,-62
-8.902e-02,-88,154,-62
-8.900e-02,-88,154,-62
-8.898e-02,-84,154,-62
-8.896e-02,-100,158,-58
-8.894e-02,-92,158,-62
-8.892e-02,-88,154,-58
-8.890e-02,-88,154,-58
-8.888e-02,-84,146,-58
-8.886e-02,-100,158,-54
-8.884e-02,-96,158,-62
-8.882e-02,-92,158,-58
-8.880e-02,-88,154,-58
-8.878e-02,-84,150,-62
-8.876e-02,-96,158,-54
-8.874e-02,-88,154,-54
-8.872e-02,-92,154,-54
-8.870e-02,-88,158,-62
-8.868e-02,-84,150,-62
-8.866e-02,-100,162,-54
-8.864e-02,-92,154,-58
-8.862e-02,-96,154,-58
-8.860e-02,-88,154,-58
-8.858e-02,-84,154,-58
-8.856e-02,-96,162,-50
-8.854e-02,-96,154,-58
-8.852e-02,-88,154,-58
-8.850e-02,-84,154,-62
-8.848e-02,-88,150,-58
-8.846e-02,-100,162,-54
-8.844e-02,-92,154,-54
-8.842e-02,-92,154,-54
-8.840e-02,-92,154,-58
-8.838e-02,-92,154,-62
-8.836e-02,-100,158,-54
-8.834e-02,-96,158,-54
-8.832e-02,-92,154,-58
-8.830e-02,-92,150,-54
-8.828e-02,-88,154,-58
-8.826e-02,-104,158,-50
-8.824e-02,-96,158,-50
-8.822e-02,-92,154,-58
-8.820e-02,-92,154,-58
-8.818e-02,-92,154,-58
-8.816e-02,-100,154,-50
-8.814e-02,-96,150,-58
-8.812e-02,-96,154,-54
-8.810e-02,-88,154,-58
-8.808e-02,-92,154,-54
-8.806e-02,-96,158,-54
-8.804e-02,-96,154,-54
-8.802e-02,-92,150,-54
-8.800e-02,-92,150,-54
-8.798e-02,-96,154,-54
-8.796e-02,-100,158,-50
-8.794e-02,-96,150,-54
-8.792e-02,-92,154,-54
-8.790e-02,-96,150,-54
-8.788e-02,-96,154,-58
-8.786e-02,-108,154,-50
-8.784e-02,-96,154,-54
-8.782e-02,-100,154,-54
-8.780e-02,-88,154,-54
-8.778e-02,-92,150,-54
-8.776e-02,-108,158,-50
-8.774e-02,-100,158,-54
-8.772e-02,-92,154,-54
-8.770e-02,-92,150,-58
-8.768e-02,-96,154,-50
-8.766e-02,-96,158,-50
-8.764e-02,-100,154,-50
-8.762e-02,-96,154,-54
-8.760e-02,-92,154,-54
-8.758e-02,-104,154,-50
-8.756e-02,-104,158,-50
-8.754e-02,-100,154,-50
-8.752e-02,-96,154,-50
-8.750e-02,-92,150,-50
-8.748e-02,-100,158,-50
-8.746e-02,-104,154,-46
-8.744e-02,-100,154,-46
-8.742e-02,-96,150,-50
-8.740e-02,-92,150,-50
-8.738e-02,-100,154,-50
-8.736e-02,-104,154,-50
-8.734e-02,-100,154,-50
-8.732e-02,-96,154,-50
-8.730e-02,-92,150,-54
-8.728e-02,-100,154,-54
-8.726e-02,-108,158,-50
-8.724e-02,-100,154,-54
-8.722e-02,-96,150,-54
-8.720e-02,-92,150,-54
-8.718e-02,-96,158,-50
-8.716e-02,-104,158,-46
-8.714e-02,-100,154,-50
-8.712e-02,-100,154,-50
-8.710e-02,-92,154,-50
-8.708e-02,-100,150,-46
-8.706e-02,-104,154,-46
-8.704e-02,-96,154,-46
-8.702e-02,-96,150,-50
-8.700e-02,-88,150,-46
-8.698e-02,-100,154,-46
-8.696e-02,-112,162,-50
-8.694e-02,-100,154,-50
-8.692e-02,-92,154,-50
-8.690e-02,-96,150,-50
-8.688e-02,-104,154,-46
-8.686e-02,-104,162,-46
-8.684e-02,-100,158,-46
-8.682e-02,-92,154,-50
-8.680e-02,-96,150,-58
-8.678e-02,-108,154,-42
-8.676e-02,-108,158,-46
-8.674e-02,-100,154,-46
-8.672e-02,-100,150,-50
-8.670e-02,-96,150,-50
-8.668e-02,-104,158,-46
-8.666e-02,-104,158,-42
-8.664e-02,-100,154,-50
-8.662e-02,-100,150,-46
-8.660e-02,-96,150,-50
-8.658e-02,-108,158,-46
-8.656e-02,-100,154,-46
-8.654e-02,-100,154,-46
-8.652e-02,-104,146,-50
-8.650e-02,-100,150,-46
-8.648e-02,-104,158,-46
-8.646e-02,-112,154,-42
-8.644e-02,-108,154,-42
-8.642e-02,-100,146,-50
-8.640e-02,-100,146,-42
-8.638e-02,-104,158,-42
-8.636e-02,-108,158,-38
-8.634e-02,-104,154,-42
-8.632e-02,-100,150,-46
-8.630e-02,-100,154,-50
-8.628e-02,-108,154,-42
-8.626e-02,-108,154,-42
-8.624e-02,-108,154,-46
-8.622e-02,-104,150,-46
-8.620e-02,-100,154,-50
-8.618e-02,-108,154,-42
-8.616e-02,-108,154,-42
-8.614e-02,-104,154,-38
-8.612e-02,-104,154,-42
-8.610e-02,-100,154,-46
-8.608e-02,-112,158,-42
-8.606e-02,-108,162,-42
-8.604e-02,-108,154,-38
-8.602e-02,-100,146,-42
-8.600e-02,-100,150,-46
-8.598e-02,-112,158,-42
-8.596e-02,-112,154,-42
-8.594e-02,-104,154,-42
-8.592e-02,-104,154,-38
-8.590e-02,-100,150,-42
-8.588e-02,-120,158,-38
-8.586e-02,-108,150,-38
-8.584e-02,-100,150,-46
-8.582e-02,-104,150,-42
-8.580e-02,-100,146,-42
-8.578e-02,-112,158,-34
-8.576e-02,-112,154,-38
-8.574e-02,-104,154,-42
-8.572e-02,-104,150,-46
-8.570e-02,-100,146,-46
-8.568e-02,-116,158,-38
-8.566e-02,-112,150,-38
-8.564e-02,-104,150,-42
-8.562e-02,-100,150,-46
-8.560e-02,-96,146,-46
-8.558e-02,-120,158,-34
-8.556e-02,-108,158,-38
-8.554e-02,-108,154,-42
-8.552e-02,-104,154,-46
-8.550e-02,-100,154,-42
-8.548e-02,-116,158,-38
-8.546e-02,-112,154,-42
-8.544e-02,-108,150,-38
-8.542e-02,-108,150,-46
-8.540e-02,-100,154,-42
-8.538e-02,-116,158,-38
-8.536e-02,-112,154,-34
-8.534e-02,-112,158,-42
-8.532e-02,-104,154,-38
-8.530e-02,-104,150,-42
-8.528e-02,-112,158,-38
-8.526e-02,-108,158,-38
-8.524e-02,-108,154,-38
-8.522e-02,-104,154,-42
-8.520e-02,-108,154,-42
-8.518e-02,-116,154,-34
-8.516e-02,-112,150,-38
-8.514e-02,-104,154,-38
-8.512e-02,-104,150,-34
-8.510e-02,-108,154,-42
-8.508e-02,-116,154,-38
-8.506e-02,-112,158,-38
-8.504e-02,-108,154,-42
-8.502e-02,-104,146,-42
-8.500e-02,-112,150,-42
-8.498e-02,-116,154,-34
-8.496e-02,-112,150,-34
-8.494e-02,-108,146,-38
-8.492e-02,-104,150,-42
-8.490e-02,-112,150,-38
-8.488e-02,-120,154,-34
-8.486e-02,-112,154,-38
-8.484e-02,-108,150,-34
-8.482e-02,-108,154,-34
-8.480e-02,-112,150,-34
-8.478e-02,-120,154,-34
-8.476e-02,-112,150,-34
-8.474e-02,-112,150,-38
-8.472e-02,-104,146,-38
-8.470e-02,-108,150,-38
-8.468e-02,-116,154,-30
-8.466e-02,-112,150,-34
-8.464e-02,-112,150,-38
-8.462e-02,-108,146,-38
-8.460e-02,-108,150,-34
-8.458e-02,-120,154,-30
-8.456e-02,-112,154,-34
-8.454e-02,-108,146,-38
-8.452e-02,-108,150,-38
-8.450e-02,-116,150,-30
-8.448e-02,-116,158,-34
-8.446e-02,-116,154,-34
-8.444e-02,-108,146,-34
-8.442e-02,-108,150,-38
-8.440e-02,-116,154,-34
-8.438e-02,-112,154,-30
-8.436e-02,-116,150,-34
-8.434e-02,-112,150,-30
-8.432e-02,-108,150,-34
-8.430e-02,-116,154,-34
-8.428e-02,-120,158,-38
-8.426e-02,-116,154,-34
-8.424e-02,-112,146,-34
-8.422e-02,-112,146,-38
-8.420e-02,-112,154,-34
-8.418e-02,-120,150,-30
-8.416e-02,-112,154,-34
-8.414e-02,-108,150,-34
-8.412e-02,-108,146,-34
-8.410e-02,-116,150,-30
-8.408e-02,-120,150,-30
-8.406e-02,-120,150,-30
-8.404e-02,-108,150,-38
-8.402e-02,-108,150,-34
-8.400e-02,-120,154,-30
-8.398e-02,-120,146,-30
-8.396e-02,-112,154,-30
-8.394e-02,-112,154,-34
-8.392e-02,-112,142,-34
-8.390e-02,-116,150,-30
-8.388e-02,-120,154,-26
-8.386e-02,-120,150,-34
-8.384e-02,-116,146,-30
-8.382e-02,-108,150,-34
-8.380e-02,-116,150,-30
-8.378e-02,-116,150,-30
-8.376e-02,-112,154,-34
-8.374e-02,-112,150,-34
-8.372e-02,-108,146,-30
-8.370e-02,-116,146,-30
-8.368e-02,-120,154,-30
-8.366e-02,-116,150,-26
-8.364e-02,-108,146,-30
-8.362e-02,-112,142,-38
-8.360e-02,-120,154,-30
-8.358e-02,-120,154,-30
-8.356e-02,-116,150,-30
-8.354e-02,-112,146,-30
-8.352e-02,-108,146,-30
-8.350e-02,-124,150,-26
-8.348e-02,-120,150,-26
-8.346e-02,-120,146,-30
-8.344e-02,-112,150,-26
-8.342e-02,-108,146,-30
-8.340e-02,-116,154,-30
-8.338e-02,-120,154,-26
-8.336e-02,-116,150,-30
-8.334e-02,-116,150,-34
-8.332e-02,-112,150,-30
-8.330e-02,-116,150,-26
-8.328e-02,-124,150,-26
-8.326e-02,-116,146,-26
-8.324e-02,-112,142,-30
-8.322e-02,-116,142,-30
