Tests/20190524_Cruise_and_Torque_Tests/_Scope_pictures/tek0002.csv

Model,DPO4054B
Firmware Version,2.90

Waveform Type,ANALOG,,
Point Format,Y,,
Horizontal Units,s,,
Horizontal Scale,0.04,,
Horizontal Delay,0,,
Sample Interval,4e-05,,
Record Length,10000,,
Gating,0.0% to 100.0%,,
Probe Attenuation,50,,
Vertical Units,A,,
Vertical Offset,0,,
Vertical Scale,100,,
Vertical Position,0,,
,,,
,,,
,,,
Label,,,
TIME,CH2,CH3,CH4
-2.0000e-01,172,-86,-78
-1.9996e-01,180,-90,-90
-1.9992e-01,172,-86,-82
-1.9988e-01,176,-90,-82
-1.9984e-01,176,-86,-86
-1.9980e-01,176,-90,-82
-1.9976e-01,180,-86,-98
-1.9972e-01,176,-86,-82
-1.9968e-01,180,-86,-90
-1.9964e-01,180,-86,-82
-1.9960e-01,168,-86,-78
-1.9956e-01,180,-86,-94
-1.9952e-01,172,-90,-86
-1.9948e-01,176,-78,-90
-1.9944e-01,176,-90,-86
-1.9940e-01,172,-82,-78
-1.9936e-01,176,-82,-94
-1.9932e-01,176,-86,-86
-1.9928e-01,176,-82,-94
-1.9924e-01,180,-86,-90
-1.9920e-01,172,-78,-82
-1.9916e-01,180,-82,-94
-1.9912e-01,172,-86,-86
-1.9908e-01,180,-82,-90
-1.9904e-01,176,-82,-90
-1.9900e-01,172,-82,-82
-1.9896e-01,180,-82,-90
-1.9892e-01,172,-78,-90
-1.9888e-01,176,-78,-90
-1.9884e-01,180,-78,-90
-1.9880e-01,172,-78,-82
-1.9876e-01,180,-82,-90
-1.9872e-01,172,-78,-90
-1.9868e-01,180,-78,-90
-1.9864e-01,176,-78,-86
-1.9860e-01,176,-86,-82
-1.9856e-01,180,-78,-98
-1.9852e-01,172,-82,-86
-1.9848e-01,180,-78,-98
-1.9844e-01,176,-78,-90
-1.9840e-01,168,-78,-86
-1.9836e-01,180,-78,-90
-1.9832e-01,176,-78,-82
-1.9828e-01,176,-74,-98
-1.9824e-01,176,-78,-94
-1.9820e-01,168,-82,-90
-1.9816e-01,176,-82,-94
-1.9812e-01,172,-78,-90
-1.9808e-01,180,-78,-102
-1.9804e-01,176,-78,-90
-1.9800e-01,168,-74,-86
-1.9796e-01,180,-78,-98
-1.9792e-01,172,-74,-90
-1.9788e-01,180,-74,-98
-1.9784e-01,176,-78,-94
-1.9780e-01,168,-78,-86
-1.9776e-01,176,-78,-98
-1.9772e-01,172,-78,-90
-1.9768e-01,184,-74,-102
-1.9764e-01,176,-74,-94
-1.9760e-01,168,-78,-90
-1.9756e-01,180,-70,-102
-1.9752e-01,172,-74,-90
-1.9748e-01,180,-74,-102
-1.9744e-01,176,-74,-94
-1.9740e-01,176,-78,-90
-1.9736e-01,180,-74,-98
-1.9732e-01,172,-74,-94
-1.9728e-01,180,-74,-106
-1.9724e-01,180,-74,-98
-1.9720e-01,176,-78,-90
-1.9716e-01,176,-66,-98
-1.9712e-01,168,-74,-90
-1.9708e-01,184,-70,-106
-1.9704e-01,172,-74,-94
-1.9700e-01,172,-74,-94
-1.9696e-01,172,-70,-102
-1.9692e-01,172,-78,-94
-1.9688e-01,180,-74,-106
-1.9684e-01,176,-70,-98
-1.9680e-01,176,-70,-98
-1.9676e-01,176,-70,-102
-1.9672e-01,168,-74,-94
-1.9668e-01,176,-70,-106
-1.9664e-01,172,-74,-98
-1.9660e-01,176,-74,-98
-1.9656e-01,176,-70,-98
-1.9652e-01,168,-70,-94
-1.9648e-01,180,-66,-106
-1.9644e-01,172,-70,-98
-1.9640e-01,176,-70,-102
-1.9636e-01,180,-70,-106
-1.9632e-01,172,-70,-98
-1.9628e-01,180,-66,-106
-1.9624e-01,176,-66,-102
-1.9620e-01,176,-66,-106
-1.9616e-01,176,-66,-102
-1.9612e-01,172,-66,-102
-1.9608e-01,176,-70,-110
-1.9604e-01,176,-66,-102
-1.9600e-01,172,-66,-106
-1.9596e-01,176,-66,-106
-1.9592e-01,168,-66,-102
-1.9588e-01,180,-66,-110
-1.9584e-01,172,-66,-102
-1.9580e-01,180,-66,-110
-1.9576e-01,176,-66,-106
-1.9572e-01,172,-66,-98
-1.9568e-01,180,-62,-110
-1.9564e-01,176,-66,-102
-1.9560e-01,172,-58,-106
-1.9556e-01,172,-62,-110
-1.9552e-01,168,-58,-106
-1.9548e-01,176,-58,-114
-1.9544e-01,172,-66,-102
-1.9540e-01,172,-62,-110
-1.9536e-01,172,-62,-110
-1.9532e-01,168,-62,-98
-1.9528e-01,180,-66,-110
-1.9524e-01,172,-62,-110
-1.9520e-01,176,-58,-114
-1.9516e-01,168,-58,-110
-1.9512e-01,164,-62,-106
-1.9508e-01,176,-62,-114
-1.9504e-01,168,-58,-106
-1.9500e-01,180,-58,-114
-1.9496e-01,172,-62,-110
-1.9492e-01,164,-58,-106
-1.9488e-01,172,-58,-118
-1.9484e-01,168,-62,-106
-1.9480e-01,180,-58,-118
-1.9476e-01,168,-58,-110
-1.9472e-01,168,-58,-106
-1.9468e-01,176,-54,-114
-1.9464e-01,172,-58,-106
-1.9460e-01,180,-50,-122
-1.9456e-01,172,-58,-110
-1.9452e-01,168,-58,-110
-1.9448e-01,172,-54,-114
-1.9444e-01,168,-54,-106
-1.9440e-01,180,-54,-126
-1.9436e-01,168,-54,-114
-1.9432e-01,172,-58,-102
-1.9428e-01,176,-50,-118
-1.9424e-01,172,-54,-110
-1.9420e-01,180,-54,-122
-1.9416e-01,172,-58,-114
-1.9412e-01,168,-58,-114
-1.9408e-01,172,-54,-118
-1.9404e-01,164,-58,-110
-1.9400e-01,176,-50,-126
-1.9396e-01,172,-54,-114
-1.9392e-01,168,-54,-110
-1.9388e-01,168,-54,-114
-1.9384e-01,168,-50,-110
-1.9380e-01,176,-50,-126
-1.9376e-01,172,-50,-114
-1.9372e-01,172,-54,-114
-1.9368e-01,176,-50,-118
-1.9364e-01,168,-50,-114
-1.9360e-01,180,-50,-126
-1.9356e-01,168,-50,-118
-1.9352e-01,176,-46,-122
-1.9348e-01,172,-50,-122
-1.9344e-01,168,-50,-118
-1.9340e-01,176,-46,-126
-1.9336e-01,168,-50,-114
-1.9332e-01,172,-50,-122
-1.9328e-01,172,-46,-118
-1.9324e-01,168,-46,-118
-1.9320e-01,172,-42,-126
-1.9316e-01,160,-46,-122
-1.9312e-01,168,-46,-118
-1.9308e-01,176,-46,-126
-1.9304e-01,168,-46,-118
-1.9300e-01,176,-42,-126
-1.9296e-01,168,-42,-114
-1.9292e-01,172,-42,-122
-1.9288e-01,168,-42,-126
-1.9284e-01,168,-46,-122
-1.9280e-01,172,-34,-126
-1.9276e-01,164,-46,-122
-1.9272e-01,172,-42,-126
-1.9268e-01,168,-42,-122
-1.9264e-01,168,-42,-114
-1.9260e-01,172,-38,-130
-1.9256e-01,168,-42,-118
-1.9252e-01,172,-42,-122
-1.9248e-01,168,-42,-126
-1.9244e-01,164,-46,-118
-1.9240e-01,168,-38,-130
-1.9236e-01,160,-38,-122
-1.9232e-01,168,-38,-130
-1.9228e-01,168,-38,-126
-1.9224e-01,164,-42,-118
-1.9220e-01,172,-34,-126
-1.9216e-01,168,-38,-122
-1.9212e-01,168,-38,-126
-1.9208e-01,172,-38,-130
-1.9204e-01,164,-42,-118
-1.9200e-01,168,-34,-130
-1.9196e-01,164,-38,-122
-1.9192e-01,168,-38,-134
-1.9188e-01,168,-38,-126
-1.9184e-01,160,-38,-118
-1.9180e-01,172,-34,-134
-1.9176e-01,164,-38,-126
-1.9172e-01,172,-34,-130
-1.9168e-01,168,-34,-126
-1.9164e-01,164,-38,-122
-1.9160e-01,172,-34,-134
-1.9156e-01,164,-38,-126
-1.9152e-01,164,-34,-134
-1.9148e-01,168,-34,-130
-1.9144e-01,160,-34,-122
-1.9140e-01,168,-30,-130
-1.9136e-01,168,-34,-122
-1.9132e-01,168,-30,-134
-1.9128e-01,164,-30,-126
-1.9124e-01,160,-34,-122
-1.9120e-01,164,-30,-134
-1.9116e-01,160,-34,-126
-1.9112e-01,168,-26,-138
-1.9108e-01,164,-34,-126
-1.9104e-01,160,-30,-126
-1.9100e-01,168,-30,-134
-1.9096e-01,160,-34,-126
-1.9092e-01,168,-26,-138
-1.9088e-01,168,-34,-130
-1.9084e-01,160,-30,-126
-1.9080e-01,164,-30,-130
-1.9076e-01,160,-26,-126
-1.9072e-01,168,-26,-138
-1.9068e-01,160,-30,-130
-1.9064e-01,164,-30,-130
-1.9060e-01,160,-26,-134
-1.9056e-01,156,-30,-122
-1.9052e-01,168,-26,-134
-1.9048e-01,160,-30,-126
-1.9044e-01,160,-26,-130
-1.9040e-01,164,-22,-134
-1.9036e-01,160,-30,-126
-1.9032e-01,168,-22,-138
-1.9028e-01,160,-30,-130
-1.9024e-01,168,-26,-130
-1.9020e-01,164,-30,-134
-1.9016e-01,160,-26,-126
-1.9012e-01,172,-22,-138
-1.9008e-01,156,-26,-130
-1.9004e-01,164,-26,-134
-1.9000e-01,164,-18,-134
-1.8996e-01,160,-26,-130
-1.8992e-01,164,-26,-138
-1.8988e-01,160,-22,-134
-1.8984e-01,164,-22,-134
-1.8980e-01,160,-22,-138
-1.8976e-01,160,-26,-130
-1.8972e-01,168,-18,-138
-1.8968e-01,156,-18,-134
-1.8964e-01,160,-22,-134
-1.8960e-01,164,-18,-138
-1.8956e-01,160,-26,-130
-1.8952e-01,164,-14,-138
-1.8948e-01,156,-26,-130
-1.8944e-01,164,-18,-134
-1.8940e-01,160,-22,-138
-1.8936e-01,160,-18,-130
-1.8932e-01,160,-18,-138
-1.8928e-01,156,-22,-134
-1.8924e-01,156,-18,-134
-1.8920e-01,160,-22,-138
-1.8916e-01,156,-18,-130
-1.8912e-01,164,-14,-142
-1.8908e-01,156,-22,-134
-1.8904e-01,160,-14,-134
-1.8900e-01,156,-18,-138
-1.8896e-01,160,-22,-130
-1.8892e-01,160,-18,-142
-1.8888e-01,160,-22,-130
-1.8884e-01,164,-14,-138
-1.8880e-01,156,-18,-134
-1.8876e-01,152,-22,-130
-1.8872e-01,160,-14,-138
-1.8868e-01,160,-14,-134
-1.8864e-01,160,-18,-142
-1.8860e-01,156,-14,-138
-1.8856e-01,152,-22,-134
-1.8852e-01,156,-14,-138
-1.8848e-01,156,-14,-130
-1.8844e-01,160,-10,-142
-1.8840e-01,160,-18,-138
-1.8836e-01,156,-22,-130
-1.8832e-01,160,-14,-142
-1.8828e-01,156,-14,-134
-1.8824e-01,160,-10,-146
-1.8820e-01,156,-14,-138
-1.8816e-01,152,-18,-134
-1.8812e-01,160,-18,-138
-1.8808e-01,156,-18,-138
-1.8804e-01,160,-6,-146
-1.8800e-01,152,-18,-134
-1.8796e-01,156,-18,-130
-1.8792e-01,160,-14,-138
-1.8788e-01,148,-14,-130
-1.8784e-01,160,-6,-150
-1.8780e-01,156,-14,-142
-1.8776e-01,152,-18,-130
-1.8772e-01,156,-6,-146
-1.8768e-01,152,-14,-138
-1.8764e-01,160,-10,-150
-1.8760e-01,152,-14,-134
-1.8756e-01,152,-14,-134
-1.8752e-01,160,-6,-138
-1.8748e-01,152,-14,-134
-1.8744e-01,160,-10,-150
-1.8740e-01,152,-14,-138
-1.8736e-01,156,-14,-138
-1.8732e-01,156,-10,-142
-1.8728e-01,152,-10,-134
-1.8724e-01,164,-6,-146
-1.8720e-01,152,-10,-138
-1.8716e-01,152,-14,-142
-1.8712e-01,156,-10,-142
-1.8708e-01,152,-14,-138
-1.8704e-01,160,-6,-150
-1.8700e-01,156,-10,-142
-1.8696e-01,156,-14,-142
-1.8692e-01,160,-6,-146
-1.8688e-01,152,-6,-138
-1.8684e-01,156,-6,-150
-1.8680e-01,156,-10,-142
-1.8676e-01,152,-10,-142
-1.8672e-01,156,-6,-142
-1.8668e-01,152,-10,-138
-1.8664e-01,156,-2,-150
-1.8660e-01,152,-6,-138
-1.8656e-01,156,-6,-146
-1.8652e-01,152,-6,-146
-1.8648e-01,148,-10,-138
-1.8644e-01,160,-2,-142
-1.8640e-01,152,-10,-138
-1.8636e-01,156,-6,-150
-1.8632e-01,152,-6,-146
-1.8628e-01,148,-10,-138
-1.8624e-01,160,-6,-150
-1.8620e-01,152,-10,-142
-1.8616e-01,156,-6,-146
-1.8612e-01,148,-6,-142
-1.8608e-01,148,-10,-142
-1.8604e-01,156,-2,-150
-1.8600e-01,152,-6,-138
-1.8596e-01,156,-6,-146
-1.8592e-01,160,-2,-146
-1.8588e-01,152,-10,-138
-1.8584e-01,156,-2,-154
-1.8580e-01,148,-6,-142
-1.8576e-01,152,-6,-146
-1.8572e-01,156,-6,-138
-1.8568e-01,148,-6,-138
-1.8564e-01,156,-2,-150
-1.8560e-01,152,-6,-142
-1.8556e-01,148,-2,-154
-1.8552e-01,152,-2,-146
-1.8548e-01,148,-6,-138
-1.8544e-01,152,-2,-154
-1.8540e-01,152,-2,-142
-1.8536e-01,156,-2,-150
-1.8532e-01,152,-6,-146
-1.8528e-01,148,-6,-138
-1.8524e-01,152,-2,-150
-1.8520e-01,148,-6,-142
-1.8516e-01,156,-2,-154
-1.8512e-01,148,-2,-142
-1.8508e-01,148,-6,-142
-1.8504e-01,152,-2,-142
-1.8500e-01,148,-6,-142
-1.8496e-01,156,-2,-154
-1.8492e-01,152,-6,-142
-1.8488e-01,144,-6,-138
-1.8484e-01,148,-6,-150
-1.8480e-01,148,-6,-146
-1.8476e-01,152,-2,-154
-1.8472e-01,152,-2,-150
-1.8468e-01,148,-6,-142
-1.8464e-01,152,-2,-154
-1.8460e-01,148,-6,-142
-1.8456e-01,152,-2,-158
-1.8452e-01,152,-2,-150
-1.8448e-01,144,-2,-138
-1.8444e-01,156,-2,-150
-1.8440e-01,152,-6,-146
-1.8436e-01,156,-2,-158
-1.8432e-01,148,-2,-146
-1.8428e-01,148,-2,-142
-1.8424e-01,152,2,-154
-1.8420e-01,148,-6,-142
-1.8416e-01,156,2,-154
-1.8412e-01,152,-2,-146
-1.8408e-01,148,-2,-146
-1.8404e-01,156,-2,-150
-1.8400e-01,148,-2,-142
-1.8396e-01,152,-2,-154
-1.8392e-01,148,-2,-146
-1.8388e-01,156,-2,-142
-1.8384e-01,152,-2,-150
-1.8380e-01,148,-2,-142
-1.8376e-01,152,6,-158
-1.8372e-01,148,2,-146
-1.8368e-01,148,2,-150
-1.8364e-01,148,2,-150
-1.8360e-01,144,-2,-146
-1.8356e-01,156,2,-154
-1.8352e-01,148,-6,-150
-1.8348e-01,148,-2,-154
-1.8344e-01,148,-2,-150
-1.8340e-01,148,-2,-142
-1.8336e-01,156,6,-154
-1.8332e-01,148,2,-150
-1.8328e-01,152,-2,-150
-1.8324e-01,148,2,-150
-1.8320e-01,144,2,-142
-1.8316e-01,148,2,-154
-1.8312e-01,152,2,-146
-1.8308e-01,148,6,-154
-1.8304e-01,148,2,-150
-1.8300e-01,144,-2,-138
-1.8296e-01,148,6,-158
-1.8292e-01,148,2,-150
-1.8288e-01,148,6,-154
-1.8284e-01,156,6,-150
-1.8280e-01,144,-2,-146
-1.8276e-01,148,2,-158
-1.8272e-01,144,2,-146
-1.8268e-01,148,2,-154
-1.8264e-01,148,6,-158
-1.8260e-01,144,-2,-138
-1.8256e-01,148,6,-154
-1.8252e-01,144,2,-150
-1.8248e-01,152,6,-154
-1.8244e-01,148,6,-154
-1.8240e-01,148,-2,-146
-1.8236e-01,148,6,-154
-1.8232e-01,148,2,-146
-1.8228e-01,148,10,-154
-1.8224e-01,152,6,-154
-1.8220e-01,144,-2,-146
-1.8216e-01,148,6,-158
-1.8212e-01,144,-2,-146
-1.8208e-01,148,10,-158
-1.8204e-01,148,6,-154
-1.8200e-01,144,6,-146
-1.8196e-01,148,10,-158
-1.8192e-01,144,6,-150
-1.8188e-01,152,10,-158
-1.8184e-01,144,6,-150
-1.8180e-01,140,2,-146
-1.8176e-01,148,14,-158
-1.8172e-01,140,6,-150
-1.8168e-01,148,14,-158
-1.8164e-01,140,10,-154
-1.8160e-01,144,6,-146
-1.8156e-01,144,14,-154
-1.8152e-01,144,10,-150
-1.8148e-01,144,14,-158
-1.8144e-01,148,10,-154
-1.8140e-01,140,6,-146
-1.8136e-01,144,10,-158
-1.8132e-01,140,10,-154
-1.8128e-01,140,18,-166
-1.8124e-01,140,18,-154
-1.8120e-01,136,6,-150
-1.8116e-01,144,14,-158
-1.8112e-01,140,14,-146
-1.8108e-01,144,22,-166
-1.8104e-01,140,14,-158
-1.8100e-01,136,10,-146
-1.8096e-01,144,18,-158
-1.8092e-01,136,14,-150
-1.8088e-01,140,26,-166
-1.8084e-01,136,18,-158
-1.8080e-01,132,14,-154
-1.8076e-01,140,18,-166
-1.8072e-01,136,10,-154
-1.8068e-01,144,22,-162
-1.8064e-01,140,18,-154
-1.8060e-01,132,18,-158
-1.8056e-01,136,18,-154
-1.8052e-01,136,14,-154
-1.8048e-01,140,26,-166
-1.8044e-01,136,18,-158
-1.8040e-01,132,22,-154
-1.8036e-01,140,22,-158
-1.8032e-01,136,18,-158
-1.8028e-01,136,26,-170
-1.8024e-01,136,22,-158
-1.8020e-01,136,26,-154
-1.8016e-01,136,26,-162
-1.8012e-01,132,18,-154
-1.8008e-01,132,30,-166
-1.8004e-01,132,26,-158
-1.8000e-01,128,30,-162
-1.7996e-01,132,26,-162
-1.7992e-01,132,22,-154
-1.7988e-01,136,30,-170
-1.7984e-01,132,26,-158
-1.7980e-01,136,30,-162
-1.7976e-01,132,30,-166
-1.7972e-01,128,26,-158
-1.7968e-01,132,34,-166
-1.7964e-01,132,30,-162
-1.7960e-01,128,30,-162
-1.7956e-01,132,30,-166
-1.7952e-01,128,26,-154
-1.7948e-01,132,38,-170
-1.7944e-01,128,30,-158
-1.7940e-01,128,34,-162
-1.7936e-01,128,30,-166
-1.7932e-01,128,26,-158
-1.7928e-01,132,34,-166
-1.7924e-01,128,34,-162
-1.7920e-01,128,34,-166
-1.7916e-01,128,38,-162
-1.7912e-01,128,26,-154
-1.7908e-01,132,42,-170
-1.7904e-01,128,34,-166
-1.7900e-01,132,34,-170
-1.7896e-01,128,38,-166
-1.7892e-01,124,38,-158
-1.7888e-01,124,42,-170
-1.7884e-01,128,34,-162
-1.7880e-01,128,42,-174
-1.7876e-01,128,34,-166
-1.7872e-01,128,34,-158
-1.7868e-01,124,46,-166
-1.7864e-01,124,34,-162
-1.7860e-01,128,46,-170
-1.7856e-01,124,42,-162
-1.7852e-01,120,38,-158
-1.7848e-01,124,46,-170
-1.7844e-01,124,42,-162
-1.7840e-01,128,46,-178
-1.7836e-01,120,46,-162
-1.7832e-01,120,38,-158
-1.7828e-01,124,46,-174
-1.7824e-01,124,42,-158
-1.7820e-01,124,46,-174
-1.7816e-01,124,42,-166
-1.7812e-01,116,38,-158
-1.7808e-01,120,46,-166
-1.7804e-01,116,38,-162
-1.7800e-01,124,50,-174
-1.7796e-01,120,42,-166
-1.7792e-01,116,42,-162
-1.7788e-01,120,46,-170
-1.7784e-01,120,42,-166
-1.7780e-01,120,54,-174
-1.7776e-01,116,42,-166
-1.7772e-01,116,46,-158
-1.7768e-01,120,54,-174
-1.7764e-01,120,46,-166
-1.7760e-01,116,54,-178
-1.7756e-01,116,46,-158
-1.7752e-01,112,50,-166
-1.7748e-01,120,50,-170
-1.7744e-01,120,46,-158
-1.7740e-01,116,50,-174
-1.7736e-01,116,50,-166
-1.7732e-01,112,50,-162
-1.7728e-01,116,54,-170
-1.7724e-01,112,46,-166
-1.7720e-01,116,54,-178
-1.7716e-01,112,50,-166
-1.7712e-01,108,50,-166
-1.7708e-01,112,58,-170
-1.7704e-01,116,46,-166
-1.7700e-01,116,58,-174
-1.7696e-01,116,50,-166
-1.7692e-01,108,58,-166
-1.7688e-01,116,58,-166
-1.7684e-01,116,50,-162
-1.7680e-01,112,58,-174
-1.7676e-01,112,50,-170
-1.7672e-01,116,58,-170
-1.7668e-01,112,54,-170
-1.7664e-01,112,50,-166
-1.7660e-01,112,62,-170
-1.7656e-01,116,58,-166
-1.7652e-01,116,54,-170
-1.7648e-01,112,54,-170
-1.7644e-01,112,50,-166
-1.7640e-01,112,62,-178
-1.7636e-01,112,50,-170
-1.7632e-01,112,58,-170
-1.7628e-01,108,58,-170
-1.7624e-01,112,50,-162
-1.7620e-01,108,62,-174
-1.7616e-01,108,50,-166
-1.7612e-01,108,58,-166
-1.7608e-01,108,58,-170
-1.7604e-01,104,54,-166
-1.7600e-01,112,66,-178
-1.7596e-01,108,58,-166
-1.7592e-01,112,58,-174
-1.7588e-01,112,62,-174
-1.7584e-01,112,58,-166
-1.7580e-01,108,66,-178
-1.7576e-01,108,58,-162
-1.7572e-01,112,70,-178
-1.7568e-01,104,58,-170
-1.7564e-01,108,58,-166
-1.7560e-01,112,66,-174
-1.7556e-01,108,62,-166
-1.7552e-01,116,62,-178
-1.7548e-01,104,62,-170
-1.7544e-01,108,54,-166
-1.7540e-01,108,66,-174
-1.7536e-01,108,66,-170
-1.7532e-01,108,66,-178
-1.7528e-01,104,62,-174
-1.7524e-01,108,62,-166
-1.7520e-01,104,66,-174
-1.7516e-01,104,58,-166
-1.7512e-01,112,70,-182
-1.7508e-01,104,66,-170
-1.7504e-01,104,62,-166
-1.7500e-01,104,66,-174
-1.7496e-01,100,58,-166
-1.7492e-01,108,70,-178
-1.7488e-01,104,66,-170
-1.7484e-01,104,58,-166
-1.7480e-01,104,70,-170
-1.7476e-01,104,66,-170
-1.7472e-01,104,74,-182
-1.7468e-01,104,66,-174
-1.7464e-01,100,66,-170
-1.7460e-01,104,70,-170
-1.7456e-01,104,66,-166
-1.7452e-01,100,74,-178
-1.7448e-01,100,70,-170
-1.7444e-01,100,66,-166
-1.7440e-01,100,70,-174
-1.7436e-01,104,66,-166
-1.7432e-01,100,78,-178
-1.7428e-01,100,66,-170
-1.7424e-01,96,70,-170
-1.7420e-01,100,70,-178
-1.7416e-01,100,70,-166
-1.7412e-01,100,78,-182
-1.7408e-01,100,70,-174
-1.7404e-01,92,70,-170
-1.7400e-01,96,70,-170
-1.7396e-01,104,66,-166
-1.7392e-01,104,74,-182
-1.7388e-01,96,70,-170
-1.7384e-01,92,70,-174
-1.7380e-01,100,78,-170
-1.7376e-01,100,70,-166
-1.7372e-01,92,78,-178
-1.7368e-01,96,70,-170
-1.7364e-01,96,70,-170
-1.7360e-01,100,74,-170
-1.7356e-01,100,66,-174
-1.7352e-01,96,82,-174
-1.7348e-01,96,70,-162
-1.7344e-01,92,74,-170
-1.7340e-01,96,70,-174
-1.7336e-01,100,66,-166
-1.7332e-01,92,86,-178
-1.7328e-01,92,70,-170
-1.7324e-01,96,74,-174
-1.7320e-01,96,78,-170
-1.7316e-01,96,70,-170
-1.7312e-01,96,86,-174
-1.7308e-01,96,74,-166
-1.7304e-01,96,74,-174
-1.7300e-01,92,78,-170
-1.7296e-01,92,70,-166
-1.7292e-01,96,86,-178
-1.7288e-01,88,74,-170
-1.7284e-01,96,78,-174
-1.7280e-01,92,78,-174
-1.7276e-01,92,70,-166
-1.7272e-01,92,86,-178
-1.7268e-01,92,78,-170
-1.7264e-01,92,82,-174
-1.7260e-01,92,78,-170
-1.7256e-01,92,70,-162
-1.7252e-01,88,82,-174
-1.7248e-01,88,78,-166
-1.7244e-01,92,82,-174
-1.7240e-01,88,82,-174
-1.7236e-01,92,74,-166
-1.7232e-01,88,86,-178
-1.7228e-01,88,78,-166
-1.7224e-01,96,86,-174
-1.7220e-01,92,78,-174
-1.7216e-01,84,78,-166
-1.7212e-01,84,86,-174
-1.7208e-01,92,74,-162
-1.7204e-01,92,90,-178
-1.7200e-01,96,78,-174
-1.7196e-01,88,70,-166
-1.7192e-01,84,86,-174
-1.7188e-01,84,78,-166
-1.7184e-01,88,90,-178
-1.7180e-01,88,86,-174
-1.7176e-01,84,74,-170
-1.7172e-01,84,90,-178
-1.7168e-01,88,82,-166
-1.7164e-01,88,94,-178
-1.7160e-01,88,82,-170
-1.7156e-01,84,82,-170
-1.7152e-01,84,86,-174
-1.7148e-01,84,82,-166
-1.7144e-01,88,90,-178
-1.7140e-01,84,86,-166
-1.7136e-01,84,82,-166
-1.7132e-01,84,90,-174
-1.7128e-01,84,78,-166
-1.7124e-01,84,94,-178
-1.7120e-01,84,82,-166
-1.7116e-01,84,82,-166
-1.7112e-01,80,90,-174
-1.7108e-01,88,82,-166
-1.7104e-01,84,90,-178
-1.7100e-01,80,90,-170
-1.7096e-01,88,90,-166
-1.7092e-01,80,90,-170
-1.7088e-01,84,82,-166
-1.7084e-01,80,94,-178
-1.7080e-01,80,86,-170
-1.7076e-01,80,86,-166
-1.7072e-01,84,94,-174
-1.7068e-01,80,86,-166
-1.7064e-01,76,98,-178
-1.7060e-01,80,86,-166
-1.7056e-01,76,86,-170
-1.7052e-01,80,94,-170
-1.7048e-01,76,86,-170
-1.7044e-01,76,98,-182
-1.7040e-01,80,86,-166
-1.7036e-01,80,90,-170
-1.7032e-01,76,90,-170
-1.7028e-01,76,90,-166
-1.7024e-01,76,98,-178
-1.7020e-01,80,90,-166
-1.7016e-01,72,90,-170
-1.7012e-01,80,94,-170
-1.7008e-01,80,86,-166
-1.7004e-01,76,98,-178
-1.7000e-01,80,90,-170
-1.6996e-01,76,94,-174
-1.6992e-01,76,94,-174
-1.6988e-01,76,86,-170
-1.6984e-01,76,102,-178
-1.6980e-01,72,90,-166
-1.6976e-01,76,94,-174
-1.6972e-01,80,94,-170
-1.6968e-01,76,86,-166
-1.6964e-01,76,98,-178
-1.6960e-01,76,90,-166
-1.6956e-01,72,94,-174
-1.6952e-01,76,94,-174
-1.6948e-01,76,86,-162
-1.6944e-01,72,102,-174
-1.6940e-01,72,90,-166
-1.6936e-01,76,94,-174
-1.6932e-01,68,94,-174
-1.6928e-01,72,90,-166
-1.6924e-01,72,98,-174
-1.6920e-01,72,94,-162
-1.6916e-01,72,98,-178
-1.6912e-01,72,94,-170
-1.6908e-01,72,86,-166
-1.6904e-01,68,98,-178
-1.6900e-01,72,94,-166
-1.6896e-01,72,98,-178
-1.6892e-01,68,94,-166
-1.6888e-01,72,86,-166
-1.6884e-01,72,102,-174
-1.6880e-01,72,94,-166
-1.6876e-01,72,102,-178
-1.6872e-01,72,98,-174
-1.6868e-01,72,90,-162
-1.6864e-01,72,102,-174
-1.6860e-01,72,94,-166
-1.6856e-01,68,106,-178
-1.6852e-01,72,98,-170
-1.6848e-01,72,90,-162
-1.6844e-01,68,102,-170
-1.6840e-01,64,98,-162
-1.6836e-01,68,110,-182
-1.6832e-01,68,102,-166
-1.6828e-01,68,94,-166
-1.6824e-01,68,106,-170
-1.6820e-01,68,90,-162
-1.6816e-01,68,114,-178
-1.6812e-01,68,98,-166
-1.6808e-01,64,98,-166
-1.6804e-01,68,102,-170
-1.6800e-01,72,90,-166
-1.6796e-01,68,110,-178
-1.6792e-01,68,98,-166
-1.6788e-01,68,102,-162
-1.6784e-01,64,102,-174
-1.6780e-01,68,94,-166
-1.6776e-01,68,110,-170
-1.6772e-01,64,98,-166
-1.6768e-01,64,102,-166
-1.6764e-01,68,110,-170
-1.6760e-01,64,94,-166
-1.6756e-01,60,110,-178
-1.6752e-01,60,102,-166
-1.6748e-01,60,102,-166
-1.6744e-01,64,102,-170
