Tests/140219_No Load Tests results/LegA/T0000ALL_test1.CSV

Model,DPO2014
Firmware Version,1.29

Point Format,Y,,,
Horizontal Units,S,,,
Horizontal Scale,4e-05,,,
Sample Interval,4e-09,,,
Filter Frequency,1e+08,,,
Record Length,100000,,,
Gating,0.0% to 100.0%,,0.0% to 100.0%,
Probe Attenuation,10,,10,
Vertical Units,V,,V,
Vertical Offset,0,,0,
Vertical Scale,10,,5,
Label,,,I_o,
TIME,CH1,CH1 Peak Detect,CH2,CH2 Peak Detect
-2.02464e-04,15,15,-0.0999998,-0.0999998
-2.02460e-04,15.4,15.4,-0.0999998,-0.0999998
-2.02456e-04,15.4,15.4,-0.0999998,-0.0999998
-2.02452e-04,15.4,15.4,-0.0999998,-0.0999998
-2.02448e-04,15.4,15,-0.0999998,-0.0999998
-2.02444e-04,15,15.4,-0.0999998,0.1
-2.02440e-04,15,15,-0.3,-0.3
-2.02436e-04,15.4,15.4,-0.0999998,-0.0999998
-2.02432e-04,15,15,-0.3,-0.3
-2.02428e-04,15.4,15.4,-0.0999998,-0.0999998
-2.02424e-04,15.4,15,-0.3,-0.3
-2.02420e-04,15,15.4,-0.0999998,-0.0999998
-2.02416e-04,15,15,-0.0999998,-0.0999998
-2.02412e-04,15,15.4,0.1,0.1
-2.02408e-04,15,15,-0.0999998,-0.0999998
-2.02404e-04,15.4,15.4,-0.0999998,0.1
-2.02400e-04,15.4,15.4,-0.0999998,-0.0999998
-2.02396e-04,15.4,15.4,-0.0999998,-0.0999998
-2.02392e-04,15.4,15,-0.3,-0.3
-2.02388e-04,15.4,15.4,-0.3,-0.0999998
-2.02384e-04,15,15,-0.0999998,-0.3
-2.02380e-04,15.4,15.4,-0.0999998,-0.0999998
-2.02376e-04,15,15,-0.3,-0.3
-2.02372e-04,15.4,15.4,-0.0999998,0.1
-2.02368e-04,15.4,15.4,-0.0999998,-0.0999998
-2.02364e-04,15.4,15.4,-0.0999998,0.1
-2.02360e-04,15.4,15.4,-0.0999998,-0.0999998
-2.02356e-04,15.4,15.4,-0.0999998,0.1
-2.02352e-04,15.4,15,-0.0999998,-0.3
-2.02348e-04,15.4,15.4,-0.0999998,-0.0999998
-2.02344e-04,15,15,-0.0999998,-0.3
-2.02340e-04,15.4,15.4,-0.0999998,0.1
-2.02336e-04,15.4,15.4,-0.0999998,-0.0999998
-2.02332e-04,15.4,15.4,-0.0999998,-0.0999998
-2.02328e-04,15,15,-0.0999998,-0.0999998
-2.02324e-04,15,15.4,-0.0999998,0.1
-2.02320e-04,15.4,15,-0.0999998,-0.0999998
-2.02316e-04,15.4,15.4,-0.0999998,0.1
-2.02312e-04,15.4,15.4,-0.0999998,-0.3
-2.02308e-04,15.4,15.4,-0.0999998,-0.0999998
-2.02304e-04,15,15,-0.0999998,-0.3
-2.02300e-04,15,15.4,-0.0999998,-0.0999998
-2.02296e-04,15.4,15,-0.0999998,-0.0999998
-2.02292e-04,15,15.4,-0.0999998,-0.0999998
-2.02288e-04,15,15,-0.0999998,-0.0999998
-2.02284e-04,15.4,15.4,-0.0999998,-0.0999998
-2.02280e-04,15,15,-0.0999998,-0.0999998
-2.02276e-04,15.4,15.4,-0.0999998,0.1
-2.02272e-04,15.4,15.4,-0.0999998,-0.0999998
-2.02268e-04,15.4,15.4,0.1,0.1
-2.02264e-04,15,15,-0.0999998,-0.0999998
-2.02260e-04,15.4,15.4,-0.0999998,0.1
-2.02256e-04,15.4,15.4,-0.3,-0.3
-2.02252e-04,15.4,15.4,-0.0999998,0.1
-2.02248e-04,15.4,15.4,-0.0999998,-0.0999998
-2.02244e-04,15.4,15.4,-0.0999998,0.1
-2.02240e-04,15.4,15,-0.0999998,-0.0999998
-2.02236e-04,15.4,15.4,-0.0999998,0.1
-2.02232e-04,15.4,15.4,-0.0999998,-0.3
-2.02228e-04,15.4,15.4,-0.0999998,-0.0999998
-2.02224e-04,15,15,-0.3,-0.3
-2.02220e-04,15.4,15.4,-0.0999998,-0.0999998
-2.02216e-04,15,15,-0.0999998,-0.0999998
-2.02212e-04,15.4,15.4,-0.0999998,0.1
-2.02208e-04,15.4,15,-0.0999998,-0.0999998
-2.02204e-04,15.4,15.4,-0.0999998,0.1
-2.02200e-04,15.4,15,-0.0999998,-0.0999998
-2.02196e-04,15,15.4,-0.0999998,-0.0999998
-2.02192e-04,15.4,15,-0.0999998,-0.0999998
-2.02188e-04,15.4,15.4,-0.0999998,0.1
-2.02184e-04,15,15,-0.0999998,-0.3
-2.02180e-04,15,15.4,-0.3,0.1
-2.02176e-04,15.4,15.4,-0.0999998,-0.0999998
-2.02172e-04,15.4,15.4,-0.0999998,-0.0999998
-2.02168e-04,15.4,15.4,-0.0999998,-0.0999998
-2.02164e-04,15.4,15.4,-0.0999998,0.1
-2.02160e-04,15.4,15,-0.0999998,-0.3
-2.02156e-04,15,15.4,-0.0999998,-0.0999998
-2.02152e-04,15,15,-0.0999998,-0.0999998
-2.02148e-04,15,15.4,-0.0999998,-0.0999998
-2.02144e-04,15.4,15.4,-0.0999998,-0.3
-2.02140e-04,15.4,15.4,-0.0999998,-0.0999998
-2.02136e-04,15.4,15,-0.0999998,-0.0999998
-2.02132e-04,15.4,15.4,-0.0999998,-0.0999998
-2.02128e-04,15.4,15,-0.3,-0.3
-2.02124e-04,15.4,15.4,-0.0999998,0.1
-2.02120e-04,15,15,-0.0999998,-0.0999998
-2.02116e-04,15.4,15.4,-0.0999998,0.1
-2.02112e-04,15.4,15.4,-0.0999998,-0.3
-2.02108e-04,15.4,15.4,-0.0999998,0.1
-2.02104e-04,15.4,15.4,-0.3,-0.3
-2.02100e-04,15.4,15.4,-0.0999998,-0.0999998
-2.02096e-04,15,15,-0.0999998,-0.3
-2.02092e-04,15,15.4,-0.0999998,-0.0999998
-2.02088e-04,15.4,15.4,-0.0999998,-0.0999998
-2.02084e-04,15.4,15.4,-0.0999998,-0.0999998
-2.02080e-04,15.4,15,-0.0999998,-0.0999998
-2.02076e-04,15.4,15.4,-0.0999998,0.1
-2.02072e-04,15.4,15,-0.0999998,-0.0999998
-2.02068e-04,15,15.4,-0.0999998,0.1
-2.02064e-04,15.4,15,-0.0999998,-0.3
-2.02060e-04,15.4,15.4,-0.0999998,0.1
-2.02056e-04,15.4,15,-0.0999998,-0.3
-2.02052e-04,15.4,15.4,-0.0999998,-0.0999998
-2.02048e-04,15.4,15,-0.0999998,-0.0999998
-2.02044e-04,15,15.4,-0.0999998,0.1
-2.02040e-04,15,15,-0.3,-0.3
-2.02036e-04,15,15.4,-0.0999998,0.1
-2.02032e-04,15,15,-0.3,-0.3
-2.02028e-04,15,15.4,-0.0999998,-0.0999998
-2.02024e-04,15.4,15,-0.0999998,-0.3
-2.02020e-04,15.4,15.4,-0.3,-0.0999998
-2.02016e-04,15.4,15,-0.0999998,-0.3
-2.02012e-04,15.4,15.4,-0.0999998,-0.0999998
-2.02008e-04,15.4,15.4,-0.0999998,-0.0999998
-2.02004e-04,15.4,15.4,-0.0999998,0.1
-2.02000e-04,15,15,-0.0999998,-0.0999998
-2.01996e-04,15.4,15.4,2.7,2.7
-2.01992e-04,15.4,15.4,3.9,3.5
-2.01988e-04,15.4,15.4,3.9,3.9
-2.01984e-04,15.4,15,4.1,4.1
-2.01980e-04,15,15.4,4.7,4.7
-2.01976e-04,15,15,5.9,4.9
-2.01972e-04,15.4,15.4,6.1,6.3
-2.01968e-04,13.8,3.8,5.7,5.7
-2.01964e-04,3.8,15.4,5.9,5.9
-2.01960e-04,2.6,-0.2,4.9,4.7
-2.01956e-04,-0.2,3,5.3,5.9
-2.01952e-04,-3,-5,5.7,4.9
-2.01948e-04,-5,-0.6,4.9,5.9
-2.01944e-04,-5.4,-7.4,5.1,4.7
-2.01940e-04,-7.4,-4.6,5.5,5.5
-2.01936e-04,-7.8,-8.6,5.1,5.1
-2.01932e-04,-8.6,-7.4,5.3,5.5
-2.01928e-04,-9.4,-9.8,5.3,5.3
-2.01924e-04,-9.8,-8.6,5.5,5.5
-2.01920e-04,-10.2,-10.6,5.5,5.3
-2.01916e-04,-10.6,-9.4,5.3,5.5
-2.01912e-04,-11,-11,5.3,5.1
-2.01908e-04,-11,-10.6,5.1,5.3
-2.01904e-04,-11.4,-11.4,5.1,5.1
-2.01900e-04,-11.4,-11,5.3,5.3
-2.01896e-04,-11.4,-11.8,5.5,5.1
-2.01892e-04,-11.8,-11,5.1,5.5
-2.01888e-04,-11.4,-11.8,5.1,5.1
-2.01884e-04,-11.4,-11.4,5.3,5.3
-2.01880e-04,-11.4,-11.4,5.3,5.3
-2.01876e-04,-11.4,-11,5.3,5.3
-2.01872e-04,-11,-11,5.1,5.1
-2.01868e-04,-11,-11,5.1,5.3
-2.01864e-04,-11,-11,5.3,5.1
-2.01860e-04,-11,-10.6,5.3,5.5
-2.01856e-04,-10.6,-11,5.1,5.1
-2.01852e-04,-10.6,-10.6,5.3,5.3
-2.01848e-04,-11,-11,5.3,5.3
-2.01844e-04,-10.6,-10.6,5.3,5.5
-2.01840e-04,-10.6,-10.6,5.5,5.3
-2.01836e-04,-10.6,-10.6,5.3,5.5
-2.01832e-04,-10.6,-10.6,5.3,5.3
-2.01828e-04,-10.6,-10.2,5.3,5.3
-2.01824e-04,-10.6,-10.6,5.3,5.1
-2.01820e-04,-10.2,-10.2,5.3,5.3
-2.01816e-04,-10.2,-10.2,5.3,5.3
-2.01812e-04,-10.2,-10.2,5.3,5.3
-2.01808e-04,-10.2,-10.2,5.3,5.1
-2.01804e-04,-10.2,-10.2,5.3,5.3
-2.01800e-04,-10.2,-10.2,5.3,5.1
-2.01796e-04,-10.2,-10.2,5.1,5.3
-2.01792e-04,-10.2,-10.2,5.3,5.1
-2.01788e-04,-10.2,-9.8,5.3,5.3
-2.01784e-04,-10.2,-10.2,5.3,5.1
-2.01780e-04,-10.2,-9.8,5.3,5.3
-2.01776e-04,-10.2,-10.2,5.5,5.3
-2.01772e-04,-10.2,-9.8,5.3,5.5
-2.01768e-04,-10.2,-10.2,5.3,5.1
-2.01764e-04,-9.8,-9.8,5.1,5.3
-2.01760e-04,-9.8,-10.2,5.1,5.1
-2.01756e-04,-9.8,-9.8,5.3,5.3
-2.01752e-04,-9.8,-10.2,5.3,5.1
-2.01748e-04,-9.8,-9.8,5.3,5.3
-2.01744e-04,-9.8,-9.8,5.3,5.3
-2.01740e-04,-9.8,-9.8,5.3,5.3
-2.01736e-04,-9.8,-9.8,5.3,5.1
-2.01732e-04,-9.8,-9.8,5.3,5.3
-2.01728e-04,-9.8,-10.2,5.1,5.1
-2.01724e-04,-10.2,-9.8,5.3,5.5
-2.01720e-04,-9.8,-9.8,5.3,5.3
-2.01716e-04,-9.8,-9.4,5.3,5.3
-2.01712e-04,-9.8,-9.8,5.3,5.1
-2.01708e-04,-9.8,-9.8,5.5,5.5
-2.01704e-04,-9.8,-9.8,5.3,5.1
-2.01700e-04,-9.8,-9.8,5.3,5.5
-2.01696e-04,-9.8,-9.8,5.3,5.1
-2.01692e-04,-9.8,-9.4,5.3,5.3
-2.01688e-04,-9.8,-9.8,5.3,5.3
-2.01684e-04,-9.8,-9.4,5.3,5.3
-2.01680e-04,-9.8,-9.8,5.3,5.1
-2.01676e-04,-9.8,-9.8,5.1,5.3
-2.01672e-04,-9.8,-9.8,5.1,5.1
-2.01668e-04,-9.8,-9.4,5.3,5.3
-2.01664e-04,-9.8,-9.8,5.5,5.3
-2.01660e-04,-9.8,-9.4,5.3,5.5
-2.01656e-04,-9.8,-9.8,5.3,5.3
-2.01652e-04,-9.8,-9.4,5.3,5.3
-2.01648e-04,-9.8,-9.8,5.3,5.3
-2.01644e-04,-9.8,-9.8,5.3,5.3
-2.01640e-04,-9.8,-9.8,5.3,5.1
-2.01636e-04,-9.8,-9.4,5.5,5.5
-2.01632e-04,-9.8,-9.8,5.5,5.3
-2.01628e-04,-9.8,-9.4,5.3,5.5
-2.01624e-04,-9.8,-9.8,5.5,5.1
-2.01620e-04,-9.8,-9.4,5.5,5.5
-2.01616e-04,-9.8,-9.8,5.3,5.1
-2.01612e-04,-9.4,-9.4,5.3,5.3
-2.01608e-04,-9.8,-9.8,5.3,5.1
-2.01604e-04,-9.8,-9.4,5.3,5.3
-2.01600e-04,-9.8,-9.8,5.1,5.1
-2.01596e-04,-9.8,-9.4,5.3,5.3
-2.01592e-04,-9.8,-9.8,5.1,5.1
-2.01588e-04,-9.8,-9.4,5.3,5.3
-2.01584e-04,-9.8,-9.8,5.3,5.3
-2.01580e-04,-9.4,-9.4,5.3,5.3
-2.01576e-04,-9.8,-9.8,5.3,5.1
-2.01572e-04,-9.8,-9.4,5.1,5.3
-2.01568e-04,-9.8,-9.8,5.3,5.1
-2.01564e-04,-9.8,-9.4,5.3,5.3
-2.01560e-04,-9.8,-9.8,5.3,5.3
-2.01556e-04,-9.8,-9.4,5.3,5.3
-2.01552e-04,-9.8,-9.8,5.3,5.3
-2.01548e-04,-9.4,-9.4,5.3,5.3
-2.01544e-04,-9.8,-9.8,5.3,5.3
-2.01540e-04,-9.8,-9.4,5.3,5.3
-2.01536e-04,-9.4,-9.8,5.3,5.1
-2.01532e-04,-9.4,-9.4,5.1,5.3
-2.01528e-04,-9.8,-9.8,5.3,5.1
-2.01524e-04,-9.8,-9.4,5.3,5.3
-2.01520e-04,-9.8,-9.8,5.3,5.1
-2.01516e-04,-9.4,-9.4,5.3,5.3
-2.01512e-04,-9.4,-9.8,5.3,5.3
-2.01508e-04,-9.8,-9.4,5.5,5.5
-2.01504e-04,-9.8,-9.8,5.3,5.3
-2.01500e-04,-9.8,-9.4,5.3,5.3
-2.01496e-04,-9.8,-9.8,5.3,5.3
-2.01492e-04,-9.8,-9.4,5.3,5.3
-2.01488e-04,-9.8,-9.8,5.3,5.1
-2.01484e-04,-9.8,-9.4,5.1,5.3
-2.01480e-04,-9.8,-9.8,5.3,5.1
-2.01476e-04,-9.8,-9.4,5.1,5.3
-2.01472e-04,-9.4,-9.8,5.3,5.1
-2.01468e-04,-9.8,-9.4,5.3,5.3
-2.01464e-04,-9.8,-9.8,5.3,5.1
-2.01460e-04,-9.4,-9.4,5.3,5.3
-2.01456e-04,-9.8,-10.2,5.3,5.1
-2.01452e-04,-10.2,-9.4,5.3,5.3
-2.01448e-04,-9.4,-9.8,5.3,5.1
-2.01444e-04,-9.4,-9.4,5.1,5.3
-2.01440e-04,-9.8,-9.8,5.3,5.1
-2.01436e-04,-9.8,-9.4,5.3,5.3
-2.01432e-04,-9.8,-9.8,5.3,5.3
-2.01428e-04,-9.8,-9.4,5.3,5.5
-2.01424e-04,-9.8,-9.8,5.1,5.1
-2.01420e-04,-9.8,-9.4,5.3,5.5
-2.01416e-04,-9.8,-9.8,5.3,5.1
-2.01412e-04,-9.8,-9.4,5.3,5.3
-2.01408e-04,-9.8,-9.8,5.3,5.1
-2.01404e-04,-9.8,-9.4,5.1,5.3
-2.01400e-04,-9.8,-9.8,5.3,5.1
-2.01396e-04,-9.4,-9.4,5.3,5.3
-2.01392e-04,-9.8,-9.8,5.3,5.1
-2.01388e-04,-9.4,-9.4,5.3,5.3
-2.01384e-04,-9.4,-9.8,5.1,5.1
-2.01380e-04,-9.8,-9.4,5.3,5.3
-2.01376e-04,-9.4,-9.8,5.1,5.1
-2.01372e-04,-9.8,-9.4,5.3,5.3
-2.01368e-04,-9.8,-9.8,5.3,5.1
-2.01364e-04,-9.8,-9.4,5.1,5.3
-2.01360e-04,-9.8,-9.8,5.3,5.1
-2.01356e-04,-9.8,-9.4,5.1,5.3
-2.01352e-04,-9.8,-9.8,5.3,5.1
-2.01348e-04,-9.8,-9.4,5.1,5.3
-2.01344e-04,-9.8,-9.8,5.3,5.1
-2.01340e-04,-9.4,-9.4,5.1,5.3
-2.01336e-04,-9.8,-9.8,5.3,5.1
-2.01332e-04,-9.8,-9.4,5.1,5.3
-2.01328e-04,-9.4,-9.8,5.3,5.3
-2.01324e-04,-9.4,-9.4,5.3,5.3
-2.01320e-04,-9.8,-9.8,5.3,5.1
-2.01316e-04,-9.4,-9.4,5.3,5.3
-2.01312e-04,-9.4,-9.4,5.3,5.1
-2.01308e-04,-9.4,-9.4,5.3,5.3
-2.01304e-04,-9.4,-9.4,5.3,5.3
-2.01300e-04,-9.4,-9.4,5.3,5.3
-2.01296e-04,-9.4,-9.8,5.1,5.1
-2.01292e-04,-9.8,-9.4,5.3,5.3
-2.01288e-04,-9.8,-9.8,5.3,5.3
-2.01284e-04,-9.8,-9.4,5.3,5.3
-2.01280e-04,-9.4,-9.8,5.3,5.1
-2.01276e-04,-9.4,-9.4,5.1,5.3
-2.01272e-04,-9.8,-9.8,5.1,5.1
-2.01268e-04,-9.4,-9.4,5.3,5.3
-2.01264e-04,-9.4,-9.8,5.1,5.1
-2.01260e-04,-9.8,-9.4,5.3,5.3
-2.01256e-04,-9.8,-9.8,5.5,5.1
-2.01252e-04,-9.8,-9.4,5.3,5.5
-2.01248e-04,-9.8,-9.8,5.3,5.1
-2.01244e-04,-9.4,-9.4,5.1,5.3
-2.01240e-04,-9.8,-9.8,5.3,5.1
-2.01236e-04,-9.4,-9.4,5.3,5.3
-2.01232e-04,-9.4,-9.4,5.3,5.3
-2.01228e-04,-9.4,-9.4,5.3,5.3
-2.01224e-04,-9.8,-9.8,5.3,5.1
-2.01220e-04,-9.4,-9,5.3,5.3
-2.01216e-04,-9.4,-9.4,5.3,5.1
-2.01212e-04,-9.4,-9.4,5.1,5.3
-2.01208e-04,-9.8,-9.8,5.1,5.1
-2.01204e-04,-9.8,-9.4,5.1,5.1
-2.01200e-04,-9.8,-9.8,5.1,5.1
-2.01196e-04,-9.8,-9.4,5.1,5.1
-2.01192e-04,-9.4,-9.8,5.1,5.1
-2.01188e-04,-9.8,-9.4,5.1,5.3
-2.01184e-04,-9.4,-9.8,5.3,5.1
-2.01180e-04,-9.8,-9.4,5.3,5.3
-2.01176e-04,-9.4,-9.8,5.1,5.1
-2.01172e-04,-9.8,-9.4,5.1,5.3
-2.01168e-04,-9.8,-9.8,5.1,5.1
-2.01164e-04,-9.4,-9.4,5.3,5.3
-2.01160e-04,-9.4,-9.8,5.5,5.1
-2.01156e-04,-9.8,-9.4,5.3,5.5
-2.01152e-04,-9.4,-9.8,5.3,5.3
-2.01148e-04,-9.4,-9.4,5.3,5.3
-2.01144e-04,-9.4,-9.8,5.3,5.1
-2.01140e-04,-9.8,-9.4,5.3,5.3
-2.01136e-04,-9.4,-9.8,5.1,5.1
-2.01132e-04,-9.8,-9.4,5.1,5.5
-2.01128e-04,-9.4,-9.8,5.3,5.1
-2.01124e-04,-9.4,-9.4,5.1,5.3
-2.01120e-04,-9.4,-9.4,5.3,5.1
-2.01116e-04,-9.4,-9.4,5.1,5.3
-2.01112e-04,-9.4,-9.8,5.1,5.1
-2.01108e-04,-9.8,-9.4,5.5,5.5
-2.01104e-04,-9.8,-9.8,5.1,5.1
-2.01100e-04,-9.8,-9.4,5.1,5.3
-2.01096e-04,-9.8,-9.8,5.3,5.1
-2.01092e-04,-9.8,-9.4,5.1,5.3
-2.01088e-04,-9.4,-9.8,5.3,5.1
-2.01084e-04,-9.8,-9.4,5.3,5.3
-2.01080e-04,-9.8,-9.8,5.3,5.1
-2.01076e-04,-9.8,-9.4,5.3,5.3
-2.01072e-04,-9.4,-9.8,5.3,5.1
-2.01068e-04,-9.8,-9.4,5.1,5.3
-2.01064e-04,-9.4,-9.8,5.3,5.1
-2.01060e-04,-9.8,-9.4,5.1,5.3
-2.01056e-04,-9.8,-9.8,5.1,5.1
-2.01052e-04,-9.4,-9.4,5.3,5.3
-2.01048e-04,-9.4,-9.4,5.3,5.1
-2.01044e-04,-9.4,-9.4,5.1,5.3
-2.01040e-04,-9.4,-9.8,5.3,5.1
-2.01036e-04,-9.8,-9.4,5.1,5.3
-2.01032e-04,-9.8,-9.8,5.1,5.1
-2.01028e-04,-9.8,-9.4,5.1,5.3
-2.01024e-04,-9.8,-9.8,5.1,5.1
-2.01020e-04,-9.8,-9.4,5.3,5.3
-2.01016e-04,-9.8,-9.8,5.3,5.3
-2.01012e-04,-9.4,-9.4,5.3,5.3
-2.01008e-04,-9.4,-9.4,5.3,5.3
-2.01004e-04,-9.4,-9.4,5.3,5.3
-2.01000e-04,-9.4,-9.8,5.1,5.1
-2.00996e-04,-9.8,-9.4,5.3,5.3
-2.00992e-04,-9.4,-9.4,5.1,5.1
-2.00988e-04,-9.4,-9,5.1,5.3
-2.00984e-04,-9.8,-9.8,5.1,5.1
-2.00980e-04,-9.8,-9.4,5.3,5.3
-2.00976e-04,-9.4,-9.8,5.3,5.1
-2.00972e-04,-9.4,-9.4,5.3,5.3
-2.00968e-04,-9.8,-9.8,5.1,5.1
-2.00964e-04,-9.4,-9.4,5.3,5.3
-2.00960e-04,-9.8,-9.8,5.5,4.9
-2.00956e-04,-9.4,-9,4.9,5.5
-2.00952e-04,-9.8,-9.8,5.1,4.9
-2.00948e-04,-9.8,-9.4,5.5,5.5
-2.00944e-04,-9.8,-9.8,5.3,5.1
-2.00940e-04,-9.8,-9.4,5.1,5.7
-2.00936e-04,-9.4,-9.8,5.5,5.1
-2.00932e-04,-9.8,-9.4,5.1,5.5
-2.00928e-04,-9.8,-9.8,4.9,4.9
-2.00924e-04,-9.8,-9.4,5.1,5.1
-2.00920e-04,-9.8,-9.8,5.3,5.1
-2.00916e-04,-9.8,-9.4,5.1,5.3
-2.00912e-04,-9.4,-9.4,5.3,5.1
-2.00908e-04,-9.4,-9.4,5.3,5.3
-2.00904e-04,-9.4,-9.4,5.1,5.1
-2.00900e-04,-9.4,-9.4,5.1,5.3
-2.00896e-04,-9.4,-9.8,5.1,5.1
-2.00892e-04,-9.4,-9.4,5.3,5.3
-2.00888e-04,-9.4,-9.8,5.3,5.1
-2.00884e-04,-9.8,-9.4,5.1,5.3
-2.00880e-04,-9.4,-9.8,5.3,5.3
-2.00876e-04,-9.8,-9.4,5.3,5.5
-2.00872e-04,-9.4,-9.8,5.3,5.1
-2.00868e-04,-9.4,-9.4,5.1,5.3
-2.00864e-04,-9.8,-9.8,5.1,5.1
-2.00860e-04,-9.4,-9.4,5.1,5.1
-2.00856e-04,-9.4,-9.4,5.1,5.1
-2.00852e-04,-9.4,-9.4,5.1,5.1
-2.00848e-04,-9.4,-9.4,5.3,5.1
-2.00844e-04,-9.4,-9,5.1,5.3
-2.00840e-04,-9.4,-9.4,5.1,5.1
-2.00836e-04,-9.4,-9.4,5.1,5.1
-2.00832e-04,-9.4,-9.8,5.1,5.1
-2.00828e-04,-9.8,-9.4,5.3,5.3
-2.00824e-04,-9.4,-9.8,5.1,5.1
-2.00820e-04,-9.4,-9.4,5.3,5.3
-2.00816e-04,-9.4,-9.4,5.3,5.1
-2.00812e-04,-9.4,-9.4,5.1,5.3
-2.00808e-04,-9.4,-9.4,5.1,5.1
-2.00804e-04,-9.4,-9.4,5.1,5.1
-2.00800e-04,-9.4,-9.4,5.3,5.1
-2.00796e-04,-9.4,-9.4,5.3,5.3
-2.00792e-04,-9.4,-9.8,5.3,5.3
-2.00788e-04,-9.4,-9.4,5.3,5.3
-2.00784e-04,-9.8,-9.8,5.3,5.3
-2.00780e-04,-9.4,-9,5.3,5.3
-2.00776e-04,-9.4,-9.4,5.1,5.1
-2.00772e-04,-9.4,-9.4,5.3,5.3
-2.00768e-04,-9.4,-9.4,5.1,5.1
-2.00764e-04,-9.4,-9.4,5.3,5.3
-2.00760e-04,-9.4,-9.4,5.1,5.1
-2.00756e-04,-9.4,-9.4,5.3,5.3
-2.00752e-04,-9.8,-9.8,5.3,5.3
-2.00748e-04,-9.4,-9.4,5.3,5.3
-2.00744e-04,-9.4,-9.8,5.1,5.1
-2.00740e-04,-9.8,-9.4,5.3,5.3
-2.00736e-04,-9.8,-9.8,5.3,5.3
-2.00732e-04,-9.4,-9.4,5.3,5.3
-2.00728e-04,-9.8,-9.8,5.1,4.9
-2.00724e-04,-9.4,-9.4,5.3,5.3
-2.00720e-04,-9.4,-9.8,5.1,5.1
-2.00716e-04,-9.8,-9.4,5.1,5.5
-2.00712e-04,-9.4,-9.4,5.1,5.1
-2.00708e-04,-9.4,-9.4,5.3,5.3
-2.00704e-04,-9.4,-9.8,5.1,5.1
-2.00700e-04,-9.8,-9,5.3,5.3
-2.00696e-04,-9.4,-9.8,5.1,5.1
-2.00692e-04,-9.4,-9.4,5.3,5.3
-2.00688e-04,-9.4,-9.8,5.1,5.1
-2.00684e-04,-9.4,-9.4,5.1,5.3
-2.00680e-04,-9.4,-9.8,5.3,5.1
-2.00676e-04,-9.4,-9.4,5.3,5.3
-2.00672e-04,-9.4,-9.8,5.1,5.1
-2.00668e-04,-9.8,-9.4,5.1,5.3
-2.00664e-04,-9.4,-9.8,5.3,5.1
-2.00660e-04,-9.8,-9.4,5.3,5.3
-2.00656e-04,-9.4,-9.4,5.1,5.1
-2.00652e-04,-9.4,-9.4,5.1,5.3
-2.00648e-04,-9.4,-9.4,5.1,5.1
-2.00644e-04,-9.4,-9.4,5.3,5.3
-2.00640e-04,-9.4,-9.8,5.1,5.1
-2.00636e-04,-9.4,-9.4,5.1,5.3
-2.00632e-04,-9.4,-9.8,5.1,5.1
-2.00628e-04,-9.8,-9.4,5.1,5.3
-2.00624e-04,-9.8,-9.8,5.3,5.1
-2.00620e-04,-9.8,-9.4,5.1,5.3
-2.00616e-04,-9.4,-9.8,5.1,4.9
-2.00612e-04,-9.4,-9.4,5.1,5.3
-2.00608e-04,-9.4,-9.4,5.3,5.1
-2.00604e-04,-9.4,-9.4,5.3,5.3
-2.00600e-04,-9.4,-9.8,5.1,5.1
-2.00596e-04,-9.8,-9.4,5.1,5.3
-2.00592e-04,-9.4,-9.4,5.1,5.1
-2.00588e-04,-9.4,-9.4,5.3,5.3
-2.00584e-04,-9.4,-9.4,5.1,5.1
-2.00580e-04,-9.4,-9.4,5.1,5.3
-2.00576e-04,-9.4,-9.8,5.1,5.1
-2.00572e-04,-9.8,-9.4,5.3,5.3
-2.00568e-04,-9.4,-9.4,5.1,5.1
-2.00564e-04,-9.4,-9,5.1,5.1
-2.00560e-04,-9.4,-9.4,5.1,5.1
-2.00556e-04,-9.4,-9.4,5.1,5.3
-2.00552e-04,-9.4,-9.8,5.1,5.1
-2.00548e-04,-9.8,-9.4,5.3,5.3
-2.00544e-04,-9.4,-9.4,5.1,5.1
-2.00540e-04,-9.4,-9.4,5.3,5.3
-2.00536e-04,-9.4,-9.8,5.3,5.3
-2.00532e-04,-9.4,-9.4,5.3,5.3
-2.00528e-04,-9.4,-9.4,5.3,5.1
-2.00524e-04,-9.4,-9.4,5.1,5.3
-2.00520e-04,-9.4,-9.4,5.1,5.1
-2.00516e-04,-9.4,-9.4,5.1,5.3
-2.00512e-04,-9.4,-9.4,5.1,5.1
-2.00508e-04,-9.4,-9.4,5.1,5.3
-2.00504e-04,-9.4,-9.4,5.1,5.1
-2.00500e-04,-9.4,-9.4,5.1,5.1
-2.00496e-04,-9.4,-9.4,5.1,5.1
-2.00492e-04,-9.4,-9,5.3,5.3
-2.00488e-04,-9.4,-9.8,5.3,5.1
-2.00484e-04,-9.4,-9,5.1,5.3
-2.00480e-04,-9.4,-9.4,5.1,5.1
-2.00476e-04,-9.4,-9.4,5.1,5.3
-2.00472e-04,-9.4,-9.4,5.3,5.1
-2.00468e-04,-9.4,-9.4,5.3,5.3
-2.00464e-04,-9.4,-9.4,5.3,5.3
-2.00460e-04,-9.4,-9.4,5.3,5.3
-2.00456e-04,-9.4,-9.4,5.1,5.1
-2.00452e-04,-9.4,-9,5.3,5.3
-2.00448e-04,-9.4,-9.4,5.3,5.1
-2.00444e-04,-9.4,-9.4,5.1,5.3
-2.00440e-04,-9.4,-9.4,5.3,5.1
-2.00436e-04,-9.4,-9.4,5.3,5.3
-2.00432e-04,-9.4,-9.4,5.3,5.1
-2.00428e-04,-9.4,-9,5.1,5.3
-2.00424e-04,-9.4,-9.4,5.3,5.1
-2.00420e-04,-9.4,-9,5.3,5.3
-2.00416e-04,-9.4,-9.4,5.1,5.1
-2.00412e-04,-9.4,-9,5.1,5.3
-2.00408e-04,-9.4,-9.4,5.1,5.1
-2.00404e-04,-9.4,-9,5.3,5.3
-2.00400e-04,-9.4,-9.4,5.1,5.1
-2.00396e-04,-9.4,-9,5.1,5.1
-2.00392e-04,-9.4,-9.4,5.3,5.1
-2.00388e-04,-9.4,-9,5.3,5.3
-2.00384e-04,-9.4,-9.4,5.1,5.1
-2.00380e-04,-9.4,-9.4,5.1,5.3
-2.00376e-04,-9.4,-9.8,5.3,5.1
-2.00372e-04,-9.8,-9,5.1,5.3
-2.00368e-04,-9.4,-9.4,5.3,5.1
-2.00364e-04,-9.4,-9,5.3,5.3
-2.00360e-04,-9.4,-9.4,5.3,5.3
-2.00356e-04,-9.4,-9,5.3,5.3
-2.00352e-04,-9.4,-9.4,5.1,5.1
-2.00348e-04,-9.4,-9,5.3,5.3
-2.00344e-04,-9.4,-9.4,5.3,5.3
-2.00340e-04,-9.4,-9.4,5.3,5.3
-2.00336e-04,-9.4,-9.4,5.1,5.1
-2.00332e-04,-9.4,-9.4,5.1,5.3
-2.00328e-04,-9.4,-9.4,4.9,4.9
-2.00324e-04,-9.4,-9.4,5.3,5.3
-2.00320e-04,-9.4,-9.4,5.1,5.1
-2.00316e-04,-9.4,-9.4,5.1,5.3
-2.00312e-04,-9.4,-9.4,5.1,5.1
-2.00308e-04,-9.4,-9.4,5.1,5.3
-2.00304e-04,-9.4,-9.4,5.1,5.1
-2.00300e-04,-9.4,-9,5.1,5.1
-2.00296e-04,-9.4,-9.4,5.1,5.1
-2.00292e-04,-9.4,-9,5.1,5.1
-2.00288e-04,-9.4,-9.4,5.1,5.1
-2.00284e-04,-9.4,-9,5.3,5.3
-2.00280e-04,-9.4,-9.4,5.1,5.1
-2.00276e-04,-9.4,-9,5.1,5.3
-2.00272e-04,-9.4,-9.4,5.3,5.1
-2.00268e-04,-9.4,-9,5.3,5.3
-2.00264e-04,-9.8,-9.8,5.3,5.1
-2.00260e-04,-9.8,-9.4,5.3,5.3
-2.00256e-04,-9.4,-9.8,5.3,5.1
-2.00252e-04,-9.4,-9.4,5.3,5.3
-2.00248e-04,-9.8,-9.8,5.3,5.3
-2.00244e-04,-9.4,-9.4,5.3,5.3
-2.00240e-04,-9.4,-9.4,5.1,5.1
-2.00236e-04,-9.4,-9,5.3,5.3
-2.00232e-04,-9.4,-9.4,5.1,5.1
-2.00228e-04,-9.4,-9.4,5.3,5.3
-2.00224e-04,-9.4,-9.8,5.1,5.1
-2.00220e-04,-9.4,-9.4,5.3,5.3
-2.00216e-04,-9.4,-9.4,5.1,5.1
-2.00212e-04,-9.4,-9,5.1,5.1
-2.00208e-04,-9.4,-9.4,5.1,4.9
-2.00204e-04,-9.4,-9.4,5.3,5.3
-2.00200e-04,-9.4,-9.4,5.1,5.1
-2.00196e-04,-9.4,-9.4,5.3,5.3
-2.00192e-04,-9.4,-9.4,5.1,5.1
-2.00188e-04,-9.4,-9,5.1,5.1
-2.00184e-04,-9.4,-9.8,5.1,5.1
-2.00180e-04,-9.8,-9,5.1,5.3
-2.00176e-04,-9.4,-9.8,5.1,5.1
-2.00172e-04,-9.4,-9.4,5.1,5.1
-2.00168e-04,-9.4,-9.4,5.1,5.1
-2.00164e-04,-9.4,-9.4,5.3,5.3
-2.00160e-04,-9.4,-9.4,5.1,5.1
-2.00156e-04,-9.4,-9,5.3,5.3
-2.00152e-04,-9.4,-9.4,5.1,5.1
-2.00148e-04,-9.4,-9,5.3,5.3
-2.00144e-04,-9.4,-9.4,5.3,5.1
-2.00140e-04,-9.4,-9.4,5.3,5.3
-2.00136e-04,-9.4,-9.4,5.3,5.1
-2.00132e-04,-9.4,-9.4,5.3,5.3
-2.00128e-04,-9.4,-9.4,5.1,5.1
-2.00124e-04,-9.4,-9.4,5.1,5.3
-2.00120e-04,-9.4,-9.8,5.3,5.3
-2.00116e-04,-9.8,-9.4,5.3,5.3
-2.00112e-04,-9.4,-9.8,5.1,5.1
-2.00108e-04,-9.4,-9.4,5.1,5.3
-2.00104e-04,-9.4,-9.4,5.3,5.1
-2.00100e-04,-9.4,-9,5.1,5.3
-2.00096e-04,-9.4,-9.4,5.1,5.1
-2.00092e-04,-9.4,-9,5.3,5.3
-2.00088e-04,-9.4,-9.4,5.3,5.1
-2.00084e-04,-9.4,-9.4,5.3,5.3
-2.00080e-04,-9.4,-9.4,5.3,5.1
-2.00076e-04,-9.4,-9.4,5.1,5.3
-2.00072e-04,-9.4,-9.4,5.1,5.1
-2.00068e-04,-9.4,-9.4,5.1,5.1
-2.00064e-04,-9.4,-9.4,5.1,5.1
